id,created_at,retweet,text,hashtags,user_mentions
928310652006907904,2017-11-08 17:18:01,False,"Gracias por tanto fútbol, maestro!!!!🔝 👏👏👏 @Pirlo_official https://t.co/3mC5UdSlpW",[],"[{u'id': 2330330082, u'indices': [43, 58], u'id_str': u'2330330082', u'screen_name': u'Pirlo_official', u'name': u'Andrea Pirlo'}]"
928029455783776256,2017-11-07 22:40:38,False,Comienza semana con la @SeFutbol para preparar estos dos amistosos 💪🏻💪🏻!! https://t.co/CF7hTh1lk8,[],"[{u'id': 1139001474, u'indices': [23, 32], u'id_str': u'1139001474', u'screen_name': u'SeFutbol', u'name': u'Selecci\xf3n Espa\xf1ola de F\xfatbol'}]"
926953560436367361,2017-11-04 23:25:25,False,Gran trabajo +3!!! Força Barça!! https://t.co/oPRvs5iIV9,[],[]
926559306258042883,2017-11-03 21:18:47,False,Vuelve @LaLiga 💪🏻💪🏻!!! Força Barça!! https://t.co/CSIrHhv4NE,[],"[{u'id': 423384542, u'indices': [7, 14], u'id_str': u'423384542', u'screen_name': u'LaLiga', u'name': u'LaLiga'}]"
924597578490052610,2017-10-29 11:23:35,False,#15 años de un día inolvidable y un sueño hecho realidad. Força Barça! @FCBarcelona https://t.co/rr7EeyXB3J,[],"[{u'id': 96951800, u'indices': [71, 83], u'id_str': u'96951800', u'screen_name': u'FCBarcelona', u'name': u'FC Barcelona'}]"
924381550216704001,2017-10-28 21:05:10,False,+3! ✌ Grande equipo! Força Barça! https://t.co/2UxuBupuZs,[],[]
924333731615297536,2017-10-28 17:55:09,False,Orgulloso de todos vosotros @SeFutbol sub17! https://t.co/S0eqvtyEC2,[],"[{u'id': 1139001474, u'indices': [28, 37], u'id_str': u'1139001474', u'screen_name': u'SeFutbol', u'name': u'Selecci\xf3n Espa\xf1ola'}]"
923259957671284738,2017-10-25 18:48:21,False,Preparando a tope el partido de este sábado! Força Barça! https://t.co/NB4X6lzTaL,[],[]
922939799098544128,2017-10-24 21:36:10,False,"Felicidades compañeros... eliminatoria encarrilada, queda la vuelta en el Camp Nou! 💪🏻💪🏻⚽",[],[]
922841668893790208,2017-10-24 15:06:14,False,Orgullosos de ser padrinos del proyecto de @vallhebron para el nuevo centro de Neonatologia https://t.co/7GXqOwrJJ5 #BornToBeExtraordinary,"[{u'indices': [116, 138], u'text': u'BornToBeExtraordinary'}]","[{u'id': 901709474, u'indices': [43, 54], u'id_str': u'901709474', u'screen_name': u'vallhebron', u'name': u""Vall d'Hebron Campus""}]"
922561877346885632,2017-10-23 20:34:26,False,Un placer compartir este día contigo #LeoMessi https://t.co/9biSby6xXN,"[{u'indices': [37, 46], u'text': u'LeoMessi'}]",[]
922524132805357568,2017-10-23 18:04:27,False,Ready! #TheBestFIFA https://t.co/M7cQTbMc3a,"[{u'indices': [7, 19], u'text': u'TheBestFIFA'}]",[]
922107224868245504,2017-10-22 14:27:48,False,"El camino es lo importante, y a vuestro lado, no puede ser mejor. ❤❤❤❤❤ @AnnaOrtiz34 https://t.co/DJt9ZlNqmM",[],"[{u'id': 1211153370, u'indices': [72, 84], u'id_str': u'1211153370', u'screen_name': u'AnnaOrtiz34', u'name': u'Anna Ortiz'}]"
921856014969950208,2017-10-21 21:49:35,False,Buen esfuerzo. Seguimos!! https://t.co/d6SG2QVudn,[],[]
921470611003756551,2017-10-20 20:18:08,False,"Esto no para, mañana @LaLiga contra el Málaga. A seguir nuestro camino! https://t.co/k6p7GFK5fi",[],"[{u'id': 423384542, u'indices': [21, 28], u'id_str': u'423384542', u'screen_name': u'LaLiga', u'name': u'LaLiga'}]"
921048633876860928,2017-10-19 16:21:21,False,"Mi apoyo, cariño y admiración para todas las que lucháis cada día. Hoy y siempre, mucha fuerza!!
#DiaMundialDelCancerDeMama https://t.co/5kGnkuhOJO","[{u'indices': [97, 123], u'text': u'DiaMundialDelCancerDeMama'}]",[]
920769886594519042,2017-10-18 21:53:42,False,Tres puntos más que nos afianzan en el liderato! Buen trabajo!!! Gracias 👏👏👏 Força Barça https://t.co/OaqvpECAmv,[],[]
920395275168075776,2017-10-17 21:05:08,False,Último entreno antes del partido de @ChampionsLeague de mañana! Força Barça 👍🏻💪🏻 https://t.co/fkWht7eQ7J,[],"[{u'id': 627673190, u'indices': [36, 52], u'id_str': u'627673190', u'screen_name': u'ChampionsLeague', u'name': u'Champions League'}]"
919978590665674752,2017-10-16 17:29:23,False,Mucho ánimo a todas las víctimas y afectados. #fuerzagalicia #fuerzaasturias  #fuerzacastillaleon #fuerzacantabria #fuerzaportugal https://t.co/fLU2I8JbDJ,"[{u'indices': [46, 60], u'text': u'fuerzagalicia'}, {u'indices': [61, 76], u'text': u'fuerzaasturias'}, {u'indices': [78, 97], u'text': u'fuerzacastillaleon'}, {u'indices': [98, 114], u'text': u'fuerzacantabria'}, {u'indices': [115, 130], u'text': u'fuerzaportugal'}]",[]
919935161785036801,2017-10-16 14:36:48,False,Encarando la @ChampionsLeague! https://t.co/Zaja7LNyyK,[],"[{u'id': 627673190, u'indices': [13, 29], u'id_str': u'627673190', u'screen_name': u'ChampionsLeague', u'name': u'Champions League'}]"
919317757904211968,2017-10-14 21:43:28,False,Hasta el final lo intentamos en un campo complicado!! Gran trabajo!!! Seguimos. Força Barça! https://t.co/zgR1caUKje,[],[]
918933159479267328,2017-10-13 20:15:12,False,Vuelve la @LaLiga en un partido bonito y complicadísimo! Força Barça! https://t.co/v9OGAN9aN5,[],"[{u'id': 423384542, u'indices': [10, 17], u'id_str': u'423384542', u'screen_name': u'LaLiga', u'name': u'LaLiga'}]"
918509868952293376,2017-10-12 16:13:12,False,👏🏻👏🏻👏🏻 https://t.co/SIPlaXDeee,[],[]
918197467191152642,2017-10-11 19:31:50,False,Trabajando para tener buenas sensaciones de cara al partido del sábado https://t.co/GSDjCcR3pv,[],[]
917506552172634112,2017-10-09 21:46:23,False,Broche perfecto a la fase de clasificación para Rusia! Grande equipo! 🇪🇸 🇪🇸 🇪🇸 🇪🇸 Grande Sergio por esos 100!!!! https://t.co/DDBLct8d9B,[],[]
916578309978447873,2017-10-07 08:17:52,False,Grande compañeros clasificados para el Mundial #Rusia2018!!!! @SeFutbol 💪🏻💪🏻⚽⚽👏🏻👏🏻🇪🇸 https://t.co/25uEEoSht0,"[{u'indices': [47, 57], u'text': u'Rusia2018'}]","[{u'id': 1139001474, u'indices': [62, 71], u'id_str': u'1139001474', u'screen_name': u'SeFutbol', u'name': u'Selecci\xf3n Espa\xf1ola'}]"
916380971464785920,2017-10-06 19:13:43,False,(3/3) Espero poder seguir aportando todo a estos colores y que os sigáis sintiendo orgullosos. https://t.co/U66P4hG7X9,[],[]
916379051975151621,2017-10-06 19:06:06,False,"(2/3) Es difícil explicar con palabras tantas emociones. Muchas gracias por tanto pero sobre todo por vuestro cariño, confianza y respeto.",[],[]
916378816142102528,2017-10-06 19:05:09,False,(1/3) Desde que llegué con 12 años a este club he vivido muchísimos momentos mágicos. Hoy a sido uno de ellos.,[],[]
916318057311690753,2017-10-06 15:03:43,False,Felicidades papi!!! Un año más celebrándolo y felices!!! Tq padre! #familia #felizcumpleaños #nietos https://t.co/Uw9fVwwZef,"[{u'indices': [67, 75], u'text': u'familia'}, {u'indices': [76, 92], u'text': u'felizcumplea\xf1os'}, {u'indices': [93, 100], u'text': u'nietos'}]",[]
916068654097338369,2017-10-05 22:32:41,False,Hoy 10 añazos!Impresionante pero más saber que a tu lado todo es mágico!10 años después mis sentimientos se siguen multiplicando@AnnaOrtiz34 https://t.co/3rhuKTPNij,[],[]
915921550104236032,2017-10-05 12:48:09,False,(3/3) Háganlo por todos nosotros. Merecemos vivir en paz.,[],[]
915921323926474752,2017-10-05 12:47:15,False,"(2/3)... y una cosa tengo clara, antes de que nos hagamos más daño: Dialoguen, los responsables de todo, dialoguen.",[],[]
915921015221424128,2017-10-05 12:46:01,False,(1/3) Nunca he valorado públicamente situaciones tan complejas con sentimientos diversos pero esta situación que vivimos es excepcional...,[],[]
914219592888832003,2017-09-30 20:05:10,False,Entreno prepartido! Mañana en casa con nuestra gente! Força Barça!! https://t.co/ha3De4icu3,[],[]
913817140255477760,2017-09-29 17:25:58,False,Contento de anunciar este sorteo con mi Bodega.¿Quieres asistir a un partido y que nos conozcamos?¡No te lo pierdas! https://t.co/pUEdEYcPEE https://t.co/YYeYRAOdJH,[],[]
913155689597603840,2017-09-27 21:37:36,False,Victoria durísima!! Gran trabajo!!! Volvemos felices a casa!!! Força Barça!!! 👍 https://t.co/kMcqUKJxcI,[],[]
912343848642375681,2017-09-25 15:51:38,False,Vuelta a los entrenamientos pensando en el miércoles!!! Força Barça https://t.co/sXNE2eoGdy,[],[]
912074721310773248,2017-09-24 22:02:13,False,Pocas palabras para describir tanta felicidad y orgullo. Juntos siempre! #Family #Avapas https://t.co/RUCgAzuhGP,"[{u'indices': [73, 80], u'text': u'Family'}, {u'indices': [81, 88], u'text': u'Avapas'}]",[]
912002629881999360,2017-09-24 17:15:45,False,"🎂 ¡Feliz cumpleaños, #CampNou60! Por muchos más momentos mágicos juntos! @FCBarcelona https://t.co/afjqMv08Kx","[{u'indices': [21, 31], u'text': u'CampNou60'}]","[{u'id': 96951800, u'indices': [73, 85], u'id_str': u'96951800', u'screen_name': u'FCBarcelona', u'name': u'FC Barcelona'}]"
911712723351810048,2017-09-23 22:03:46,False,"Seguimos sumando, grande equipo! De vuelta a casa y a pensar en la Champions! Gracias por el apoyo y cariño. 👍🏻💪🏻⚽ https://t.co/EqKWUSJF59",[],[]
911336899893235719,2017-09-22 21:10:23,False,Bonito partido mañana!!!! Força Barça!!! @FCBarcelona @LaLiga @GironaFC https://t.co/oYkcVGhgvG,[],"[{u'id': 96951800, u'indices': [41, 53], u'id_str': u'96951800', u'screen_name': u'FCBarcelona', u'name': u'FC Barcelona'}, {u'id': 423384542, u'indices': [54, 61], u'id_str': u'423384542', u'screen_name': u'LaLiga', u'name': u'LaLiga'}, {u'id': 198141246, u'indices': [62, 71], u'id_str': u'198141246', u'screen_name': u'GironaFC', u'name': u'Girona FC'}]"
911225821100199937,2017-09-22 13:49:00,False,Mucha fuerza a toda la gente que sigue ayudando y trabajando en las labores de búsqueda en México. Mis pensamientos siguen con vosotros. https://t.co/okBtY3jeCF,[],[]
910270030151131136,2017-09-19 22:31:01,False,Nueva victoria. Gran trabajo de todo el equipo💪 Seguimos! Força Barça! @gerardeulofeu #Busquets https://t.co/e1xVxHiOqG,"[{u'indices': [86, 95], u'text': u'Busquets'}]","[{u'id': 280458883, u'indices': [71, 85], u'id_str': u'280458883', u'screen_name': u'gerardeulofeu', u'name': u'Gerard Deulofeu'}]"
909857409274925057,2017-09-18 19:11:25,False,Entreno y mañana partido en casa contra el @SDEibar! Esto no para.  Força Barça!! @FCBarcelona @LaLiga 💪🏻💪🏻💪🏻 https://t.co/EuqRh8vPEv,[],"[{u'id': 442869924, u'indices': [43, 51], u'id_str': u'442869924', u'screen_name': u'SDEibar', u'name': u'SD Eibar'}, {u'id': 96951800, u'indices': [82, 94], u'id_str': u'96951800', u'screen_name': u'FCBarcelona', u'name': u'FC Barcelona'}, {u'id': 423384542, u'indices': [95, 102], u'id_str': u'423384542', u'screen_name': u'LaLiga', u'name': u'LaLiga'}]"
909532073807007744,2017-09-17 21:38:39,False,"Parece que fue ayer y han pasado 21 años desde que llegué a la Masia, al mejor Club del mundo. Gracias por tanto! #todaunavida https://t.co/sBL3VGSDZQ","[{u'indices': [114, 126], u'text': u'todaunavida'}]",[]
909375144505872384,2017-09-17 11:15:04,False,"Día de recuperación! Muchas felicidades @paulinhop8 por tu primer gol como blaugrana... que sean mucho más, crack! https://t.co/8yzHGwmyOy",[],"[{u'id': 973277052, u'indices': [40, 51], u'id_str': u'973277052', u'screen_name': u'paulinhop8', u'name': u'Paulinho'}]"
909108880369733633,2017-09-16 17:37:02,False,Complicadísima victoria ✌. Gran trabajo equipo! Seguimos! Força Barça. https://t.co/rAjqMvV3bf,[],[]
908738938860376066,2017-09-15 17:07:01,False,Entreno bajo lluvia para preparar el partido de mañana en Getafe! Força Barça! https://t.co/v5kI19KZPP,[],[]
908351114734718976,2017-09-14 15:25:56,False,Un orgullo como capitán y culé acompañar al club en este día tan especial. Primera piedra del nuevo estadio Johan Cruyff. https://t.co/MIRRNJYQov,[],[]
907721538782339072,2017-09-12 21:44:14,False,Gran comienzo de competición con un ambiente increíble!! Força Barça! Seguimos! 💪🏻💪🏻💪🏻 https://t.co/64220Yemqh,[],[]
907306354611773441,2017-09-11 18:14:26,False,Vuelve la @ChampionsLeague! Gran partido y con la ilusión de hacer una gran competición!! https://t.co/PP7xkrAMIz,[],"[{u'id': 627673190, u'indices': [10, 26], u'id_str': u'627673190', u'screen_name': u'ChampionsLeague', u'name': u'Champions League'}]"
907228023706939393,2017-09-11 13:03:10,False,Feliz Diada! https://t.co/7JQgts37ma,[],[]
906897834653442050,2017-09-10 15:11:07,False,Siempre hacia delante! 💪🏻💪🏻 https://t.co/b5tKav4Es5,[],[]
906630703047106560,2017-09-09 21:29:38,False,Gran partido! Siempre especial ganar el derbi!!! Seguimos! Força Barça! #Semedo https://t.co/2WiKDQVmfK,"[{u'indices': [72, 79], u'text': u'Semedo'}]",[]
906267513562030086,2017-09-08 21:26:27,False,Vuelve @LaLiga!! Força Barça!!!!! https://t.co/xGhMsBIQIK,[],"[{u'id': 423384542, u'indices': [7, 14], u'id_str': u'423384542', u'screen_name': u'LaLiga', u'name': u'LaLiga'}]"
905819233069785089,2017-09-07 15:45:09,False,Vuelta a los entrenamientos! Preparando el derbi del sábado! 💪🔵🔴 https://t.co/0Ocbvgsqqj,[],[]
905192206792888325,2017-09-05 22:13:34,False,Gran victoria para cumplir nuestro objetivo!!! Grande equipo!!! https://t.co/WM0mofkZYV,[],[]
904089883538595841,2017-09-02 21:13:20,False,Grande equipo!!!! 3 puntos muy importantes y seguimos!! 💪🏻🇪🇸@SeFutbol https://t.co/08YnS6vzfg,[],"[{u'id': 1139001474, u'indices': [60, 69], u'id_str': u'1139001474', u'screen_name': u'SeFutbol', u'name': u'Selecci\xf3n Espa\xf1ola'}]"
903358333742182402,2017-08-31 20:46:25,False,"Esta tarde con mi amigo y paisano, Juanra. Mucha fuerza en la lucha contra la ELA, tenéis todo mi apoyo! #Adelante #laELAexiste https://t.co/4na5KjkzTj","[{u'indices': [105, 114], u'text': u'Adelante'}, {u'indices': [115, 127], u'text': u'laELAexiste'}]",[]
902968160013475841,2017-08-30 18:56:00,False,Muchas felicidades Paco!!!! Grande crack!!! @paco93alcacer 👏🏻🎉 https://t.co/JFV7vL5W8y,[],"[{u'id': 304589891, u'indices': [44, 58], u'id_str': u'304589891', u'screen_name': u'paco93alcacer', u'name': u'Paco Alc\xe1cer'}]"
902536952024637440,2017-08-29 14:22:32,False,Empezamos la semana!!! Grande Guaje! @Guaje7Villa @SeFutbol https://t.co/0FGMkHfbGn,[],"[{u'id': 426738834, u'indices': [37, 49], u'id_str': u'426738834', u'screen_name': u'Guaje7Villa', u'name': u'David Villa'}, {u'id': 1139001474, u'indices': [50, 59], u'id_str': u'1139001474', u'screen_name': u'SeFutbol', u'name': u'Selecci\xf3n Espa\xf1ola'}]"
901912548752199681,2017-08-27 21:01:23,False,Felicidades hermanita!!! Un placer compartir un año más junto a ti!! La mejor!!! #hermanatop #familia #cumpleaños https://t.co/diPT2DN4DC,"[{u'indices': [81, 92], u'text': u'hermanatop'}, {u'indices': [93, 101], u'text': u'familia'}, {u'indices': [102, 113], u'text': u'cumplea\xf1os'}]",[]
901522545446440960,2017-08-26 19:11:38,False,Con mi compi Paco!!! Después de una buena victoria!!! 💪 Força Barça! @paco93alcacer https://t.co/Bb3DA48qNq,[],"[{u'id': 304589891, u'indices': [69, 83], u'id_str': u'304589891', u'screen_name': u'paco93alcacer', u'name': u'Paco Alc\xe1cer'}]"
901173948259422209,2017-08-25 20:06:26,False,Último entreno antes del partido de mañana! A tope! 💪🏻⚽⚽✈️ https://t.co/c6jozpt3qD,[],[]
900723175692140544,2017-08-24 14:15:14,False,"Vamos Barça 💪🏻💪🏻💪🏻

Let's go Barça 💪🏻💪🏻💪🏻 https://t.co/tWEBy4iVte",[],[]
900300676852592640,2017-08-23 10:16:22,False,Preparando próximo partido!!! Ready!! https://t.co/EzJVGXfkd7,[],[]
899711478953123842,2017-08-21 19:15:07,False,Muchas felicidades compi! Pura dinamita #AleixVidal #28 https://t.co/QM8QHDuKzV,"[{u'indices': [40, 51], u'text': u'AleixVidal'}]",[]
899621398360076288,2017-08-21 13:17:10,False,"El balón!

The ball! https://t.co/Q38JF0uogs",[],[]
899003150576877569,2017-08-19 20:20:28,False,Mañana empezará el reto de volver a conquistar @LaLiga!!! Todos juntos! Força Barca!,[],"[{u'id': 423384542, u'indices': [47, 54], u'id_str': u'423384542', u'screen_name': u'LaLiga', u'name': u'LaLiga'}]"
898573838853844992,2017-08-18 15:54:32,False,#Barcelona ❤ https://t.co/jzB8AV1r9q,"[{u'indices': [0, 10], u'text': u'Barcelona'}]",[]
898251373505949696,2017-08-17 18:33:10,False,Todos consternados por lo que ha pasado y las noticias que siguen saliendo desde nuestra ciudad. Todo mi cariño. https://t.co/CIhEKncx4A,[],[]
896468076945977344,2017-08-12 20:26:59,False,Preparados 👊 https://t.co/Csvc2IL1Rk,[],[]
896096682504470528,2017-08-11 19:51:12,False,Siempre nos iluminaras ❤ https://t.co/dkGjEbXxqq,[],[]
895763723155111936,2017-08-10 21:48:08,False,"Buenas noches!!!

https://t.co/1h3JbHLpVB",[],[]
895254995293147139,2017-08-09 12:06:38,False,Bonita cena la de ayer y grandes momentos juntos!! 👏🏻❤️ https://t.co/r7TkBWvgnn,[],[]
894882874771492864,2017-08-08 11:27:58,False,"Siempre en el recuerdo, amigo https://t.co/ILGmGysXPP",[],[]
894679992902320128,2017-08-07 22:01:47,False,Presentación del equipo!!! Buenas sensaciones!!! https://t.co/sD679wL5dH,[],[]
893786198036107264,2017-08-05 10:50:10,False,Sesión de trabajo!!! 👊 https://t.co/52RnistZIp,[],[]
893467454059548672,2017-08-04 13:43:35,False,Nuestros caminos se separan pero nuestros sentimientos seguirán uniéndonos. Toda la suerte en esta nueva etapa.Eres grande! Un abrazo Ney 🤙🏻 https://t.co/YvjsHTFymd,[],[]
893219965028925441,2017-08-03 21:20:09,False,"Siempre eterno, 12 + 1. Descansa en paz Angel Nieto. https://t.co/npVoVpBcw6",[],[]
891981477319258113,2017-07-31 11:18:51,False,Mucha fuerza para todos los que estáis trabajando sin descanso en el incendio que está afectando Yeste y sus alrededores. #niunincendiomas,"[{u'indices': [122, 138], u'text': u'niunincendiomas'}]",[]
891511202546946049,2017-07-30 04:10:08,False,"Last game in the USA, thank you for your support! Tomorrow we head home preparing next season! https://t.co/aJdPnWLeRk",[],[]
891511021889884160,2017-07-30 04:09:25,False,"Último partido en Estados Unidos, gracias por tanto cariño! Mañana en casa y a seguir preparando la temporada! https://t.co/ToQmawlIJL",[],[]
890421856011943936,2017-07-27 04:01:28,False,Seguimos sumando sensaciones y trabajando cada día! Vamos Barça!! https://t.co/geD6oFiTJr,[],[]
889545362763022337,2017-07-24 17:58:36,False,Esta mañana bajo la intensa lluvia! Buena sesión!!!! https://t.co/b55db8KSsc,[],[]
889526986640691201,2017-07-24 16:45:34,False,Happy to announce my new partnership w/ @UFX. Join me to achieve your goals w/ smart trading &amp; #MassInsights. https://t.co/a8A9v4x3Fq https://t.co/eOpvSeqxlW,"[{u'indices': [99, 112], u'text': u'MassInsights'}]","[{u'id': 2684788194, u'indices': [40, 44], u'id_str': u'2684788194', u'screen_name': u'UFX', u'name': u'UFX'}]"
889521553083428868,2017-07-24 16:23:59,False,Feliz de anunciar mi colaboración con @UFX. Únete y alcanza tus metas con un comercio inteligente y #MassInsights https://t.co/a8A9v4x3Fq https://t.co/YrQgxDFkrK,"[{u'indices': [100, 113], u'text': u'MassInsights'}]","[{u'id': 2684788194, u'indices': [38, 42], u'id_str': u'2684788194', u'screen_name': u'UFX', u'name': u'UFX'}]"
889265017484435458,2017-07-23 23:24:36,False,Día perfecto!!! De visita por New York disfrutando de la mejor compañía!!! #familia #losmejores #disfrutarcadamomento https://t.co/Ps2tSeWqTX,"[{u'indices': [75, 83], u'text': u'familia'}, {u'indices': [84, 95], u'text': u'losmejores'}, {u'indices': [96, 117], u'text': u'disfrutarcadamomento'}]",[]
888946849687666688,2017-07-23 02:20:19,False,Después del primer partido de pretemporada disfrutando de unas vistas 🔝! Con mi compi @ivanrakitic https://t.co/b6fpzCho2y,[],"[{u'id': 3087039231, u'indices': [86, 98], u'id_str': u'3087039231', u'screen_name': u'ivanrakitic', u'name': u'Ivan Rakitic'}]"
888078412027506688,2017-07-20 16:49:27,False,Primer entreno de la gira!! Seguimos la preparación!!! 👌 https://t.co/RaW3ptASCo,[],[]
887660013170421762,2017-07-19 13:06:53,False,Entrenamiento y viaje a New York!!! Con el gran Aleix https://t.co/FQt57GfAOe,[],[]
886924517116977152,2017-07-17 12:24:17,False,Empieza la última semana!!! Que lo disfruteis!!! https://t.co/H7IKCVCSrQ,[],[]
886586096070647808,2017-07-16 13:59:31,False,Muchas felicidades amigo! Compi!! Un placer compartir tantas cosas a tu lado!!! Grande! https://t.co/j0OwcBlB2a,[],[]
886325376783462402,2017-07-15 20:43:31,False,💪🏻💪🏻💪🏻⚽⚽⚽ https://t.co/KPiOMqcv8K,[],[]
885950289257353217,2017-07-14 19:53:03,False,Primer entrenamiento de esta nueva pretemporada finalizado! Força Barça!! https://t.co/YHC2TeH6r2,[],[]
885843760365568001,2017-07-14 12:49:45,False,Muy contento de haber podido disfrutar esta mañana con los niños y niñas de mi campus! https://t.co/smnMoKA8qo,[],[]
884912729445855232,2017-07-11 23:10:10,False,"Gran noche, con las mejores personas!!!! #familia #fuentealbilla #vacaciones https://t.co/4XLpBcSuGc","[{u'indices': [41, 49], u'text': u'familia'}, {u'indices': [50, 64], u'text': u'fuentealbilla'}, {u'indices': [65, 76], u'text': u'vacaciones'}]",[]
884733920192942080,2017-07-11 11:19:38,False,El 11 de Julio siempre estará grabado en nuestros corazones. @SeFutbol #campeonesdelmundo #sudafrica2010 https://t.co/OSjQQ0Q8IZ,"[{u'indices': [71, 89], u'text': u'campeonesdelmundo'}, {u'indices': [90, 104], u'text': u'sudafrica2010'}]","[{u'id': 1139001474, u'indices': [61, 70], u'id_str': u'1139001474', u'screen_name': u'SeFutbol', u'name': u'Selecci\xf3n Espa\xf1ola'}]"
884518119154298881,2017-07-10 21:02:07,False,Feliz de poder inaugurar el campo de fútbol que me vio crecer gracias a la @FundacionCruyff @FundlaCaixa y @FundacioFCB #CruyffLegacy https://t.co/WmCIgDOV3Q,"[{u'indices': [120, 133], u'text': u'CruyffLegacy'}]","[{u'id': 155492898, u'indices': [75, 91], u'id_str': u'155492898', u'screen_name': u'FundacionCruyff', u'name': u'Fundaci\xf3n Cruyff'}, {u'id': 154202585, u'indices': [92, 104], u'id_str': u'154202585', u'screen_name': u'FundlaCaixa', u'name': u'Obra Social la Caixa'}, {u'id': 155959584, u'indices': [107, 119], u'id_str': u'155959584', u'screen_name': u'FundacioFCB', u'name': u'Fundaci\xf3 FCBarcelona'}]"
883704727980081152,2017-07-08 15:10:00,False,Hoy hace 5 años del momento más especial y espectacular que he vivido!!! Gracias por todo!!! Te quiero!! https://t.co/I2KTjx1J54,[],[]
883616980061782016,2017-07-08 09:21:19,False,Matinal por el pueblo con estas dos liebres!!! https://t.co/40HZyYUIck,[],[]
882343148822945792,2017-07-04 20:59:34,False,#paoloandrea #amordepadre #8 https://t.co/rTksKhftfE,"[{u'indices': [0, 12], u'text': u'paoloandrea'}, {u'indices': [13, 25], u'text': u'amordepadre'}]",[]
882232208920109056,2017-07-04 13:38:44,False,"Con mis amigos de @Dormity_com estamos preparando un juego... Participa y pronto nos podremos conocer!
👉 https://t.co/2XORQB0hx5",[],"[{u'id': 342722033, u'indices': [18, 30], u'id_str': u'342722033', u'screen_name': u'Dormity_com', u'name': u'Dormity'}]"
881604129407328261,2017-07-02 20:02:58,False,"Mañana empieza la cuarta edición de mi campus! Nos vemos pronto! 
👉🏻 ⚽ https://t.co/VtP367PMjP",[],[]
881546995437105152,2017-07-02 16:15:56,False,PES2017 Ambassador Icon campaign is now live on Android -  win me for your team! Download here: https://t.co/I32wISIXYQ https://t.co/q2rG1HEfkz,[],[]
881546890487222272,2017-07-02 16:15:31,False,Ya puedes tenernos en tu equipo PES2017 para Android!  https://t.co/I32wISIXYQ https://t.co/Vj0LB4gqRh,[],[]
880565999766040576,2017-06-29 23:17:49,False,EQUIPAZO..👫❤👫!! #inmejorablecompañia #boattrip #nochesdeverano https://t.co/mo9QhgJWyg,"[{u'indices': [16, 36], u'text': u'inmejorablecompa\xf1ia'}, {u'indices': [37, 46], u'text': u'boattrip'}, {u'indices': [47, 62], u'text': u'nochesdeverano'}]",[]
879779868422131712,2017-06-27 19:14:00,False,Some days ago I lent my new #NissanLEAF to some friends in Barcelona. ¡Here's a summary of what happened! ⚡️ #LEAFofIniesta https://t.co/p0CO6OdYwq,"[{u'indices': [28, 39], u'text': u'NissanLEAF'}, {u'indices': [109, 123], u'text': u'LEAFofIniesta'}]",[]
879778697187737600,2017-06-27 19:09:21,False,Hace unos días presté mi nuevo #NissanLEAF a algunos amigos en Barcelona. ¡Aquí tenéis un resumen de lo que sucedió! ⚡️ #LEAFdeIniesta https://t.co/e6iBYJXoMa,"[{u'indices': [31, 42], u'text': u'NissanLEAF'}, {u'indices': [120, 134], u'text': u'LEAFdeIniesta'}]",[]
879105146474684416,2017-06-25 22:32:54,False,🔝😊 @AlbaceteBPSAD https://t.co/ZRI4S9Ne5h,[],"[{u'id': 321922181, u'indices': [3, 17], u'id_str': u'321922181', u'screen_name': u'AlbaceteBPSAD', u'name': u'Albacete Balompi\xe9'}]"
879093534598541313,2017-06-25 21:46:46,False,"Muchas felicidades a los dos equipos de mi corazón. @FCBmasia y @AlbaceteBPSAD el año que viene en La Liga 1,2,3... https://t.co/v5n17K4kcb",[],"[{u'id': 305127184, u'indices': [52, 61], u'id_str': u'305127184', u'screen_name': u'FCBmasia', u'name': u'FC Barcelona - Masia'}, {u'id': 321922181, u'indices': [64, 78], u'id_str': u'321922181', u'screen_name': u'AlbaceteBPSAD', u'name': u'Albacete Balompi\xe9'}]"
878714075328466944,2017-06-24 20:38:55,False,"Vamos @AlbaceteBPSAD, mañana una final!! Toda la suerte del mundo! https://t.co/6EeygMw9zA",[],"[{u'id': 321922181, u'indices': [6, 20], u'id_str': u'321922181', u'screen_name': u'AlbaceteBPSAD', u'name': u'Albacete Balompi\xe9'}]"
878581636903915520,2017-06-24 11:52:40,False,"Muchas felicidades Leo!! Bienvenido al club de los 30! Disfruta amigo, eres 🔝! https://t.co/1KK3tsHkg6",[],[]
878383923230892034,2017-06-23 22:47:01,False,10 años después. Increíble todo lo que hemos vivido y la familia que hemos creado pero sobre todo lo que nos espera por delante! Tq mam! https://t.co/KwkkChEd8G,[],[]
877984882391212032,2017-06-22 20:21:22,False,Felicidad total... a tu lado se para el tiempo. Momentos únicos! Tq mama #familia #felicidad #vacaciones #avapas https://t.co/ZXWrPMdKaV,"[{u'indices': [73, 81], u'text': u'familia'}, {u'indices': [82, 92], u'text': u'felicidad'}, {u'indices': [93, 104], u'text': u'vacaciones'}, {u'indices': [105, 112], u'text': u'avapas'}]",[]
877584870326882305,2017-06-21 17:51:52,False,El otro día me invitaron a la presentación del nuevo televisor. #Sony #OLED https://t.co/S6ed0pr0wa,"[{u'indices': [64, 69], u'text': u'Sony'}, {u'indices': [70, 75], u'text': u'OLED'}]",[]
876848841219244032,2017-06-19 17:07:09,False,"FCB players are looking incredible in the #PES2018 E3 trailer in case you missed it: @officialpes 

https://t.co/K9HzdKK1xl","[{u'indices': [42, 50], u'text': u'PES2018'}]","[{u'id': 95411613, u'indices': [85, 97], u'id_str': u'95411613', u'screen_name': u'officialpes', u'name': u'Pro Evolution Soccer'}]"
876848481931067393,2017-06-19 17:05:43,False,"Los jugadores del Barcelona lucen increíble en el nuevo #PES2018. ¡Mira el tráiler aquí! @officialpes 

https://t.co/K9HzdKK1xl","[{u'indices': [56, 64], u'text': u'PES2018'}]","[{u'id': 95411613, u'indices': [89, 101], u'id_str': u'95411613', u'screen_name': u'officialpes', u'name': u'Pro Evolution Soccer'}]"
876134868769484804,2017-06-17 17:50:05,False,Vamos @AlbaceteBPSAD!!,[],"[{u'id': 321922181, u'indices': [6, 20], u'id_str': u'321922181', u'screen_name': u'AlbaceteBPSAD', u'name': u'Albacete Balompi\xe9'}]"
874928556501061632,2017-06-14 09:56:37,False,Gran experiencia!!!!! https://t.co/pZxwU1TlFA,[],[]
874582839089664001,2017-06-13 11:02:52,False,Se terminan los elogios para describirte @RafaelNadal! Muchísimas felicidades! #leyenda #rafa #10 https://t.co/ysT54ManQx,"[{u'indices': [79, 87], u'text': u'leyenda'}, {u'indices': [88, 93], u'text': u'rafa'}]","[{u'id': 344634424, u'indices': [41, 53], u'id_str': u'344634424', u'screen_name': u'RafaelNadal', u'name': u'Rafa Nadal'}]"
874013570924785664,2017-06-11 21:20:48,False,Gran victoria ✌🏻y un paso más hacia el mundial! Grande @SeFutbol! https://t.co/BIuVeLgluW,[],"[{u'id': 1139001474, u'indices': [55, 64], u'id_str': u'1139001474', u'screen_name': u'SeFutbol', u'name': u'Selecci\xf3n Espa\xf1ola'}]"
872180530913181696,2017-06-06 19:56:57,False,Último entreno con la @SeFutbol antes del partido de mañana contra Colombia! https://t.co/8JqqARs6Jk,[],"[{u'id': 1139001474, u'indices': [22, 31], u'id_str': u'1139001474', u'screen_name': u'SeFutbol', u'name': u'Selecci\xf3n Espa\xf1ola'}]"
871463005262950400,2017-06-04 20:25:46,False,Primer día de entrenamiento con la @SeFutbol! A dar otro paso más. https://t.co/65l9cjumGc,[],"[{u'id': 1139001474, u'indices': [35, 44], u'id_str': u'1139001474', u'screen_name': u'SeFutbol', u'name': u'Selecci\xf3n Espa\xf1ola'}]"
870014848909811712,2017-05-31 20:31:18,False,"2 añazos para este super héroe que nos hace cada día mucho mejores y felices a todos! Eres un campeón, felicidades!!! https://t.co/Oh7yAdtlNW",[],[]
869894061636845568,2017-05-31 12:31:20,True,"RT @BodegaIniesta: Hoy es un día especial, es el día de nuestra tierra. !Feliz día a todos los castellano manchegos! https://t.co/imIicYV5V9",[],"[{u'id': 574405058, u'indices': [3, 17], u'id_str': u'574405058', u'screen_name': u'BodegaIniesta', u'name': u'Bodega Iniesta'}]"
869646932192493568,2017-05-30 20:09:20,False,"Un verdadero orgullo formar parte de esta maravillosa familia @SaveChildrenEs poder ir  aprendiendo, sumando y ayudando! https://t.co/CIzckvTeVv",[],"[{u'id': 17186899, u'indices': [62, 77], u'id_str': u'17186899', u'screen_name': u'SaveChildrenEs', u'name': u'Save the Children Es'}]"
869480189687988225,2017-05-30 09:06:46,False,Mis respetos 🛡🗡💪👑 @Totti https://t.co/k8HWQ2tR6C,[],"[{u'id': 773181360475402240, u'indices': [18, 24], u'id_str': u'773181360475402240', u'screen_name': u'Totti', u'name': u'Francesco Totti'}]"
869233095152734209,2017-05-29 16:44:54,False,Fue un placer como jugador y lo ha sido todavía más como entrenador. Gracias por todo!En lo deportivo y en lo personal!Salud en todo míster! https://t.co/Bb7ryJeoa2,[],[]
868606758843031554,2017-05-27 23:16:03,False,Campeones! Gracias afición! Un orgullo ser culé! Força Barça!! https://t.co/C1q5XzUBGD,[],[]
868117197423603713,2017-05-26 14:50:43,False,Último entrenamiento de la temporada! Mañana nos jugamos un título! Força Barça! https://t.co/t7pUGpeU7h,[],[]
867715357921992705,2017-05-25 12:13:57,False,Preparando último partido de la temporada! Buenas sensaciones! Força Barça!! https://t.co/oDeu1ZTHsY,[],[]
867635987446472704,2017-05-25 06:58:33,False,El otro día visitando la recién remodelada tienda @BarruguetToys. Gracias por vuestra atención! @StokkeBaby @abitare_kids https://t.co/iAqe11biUY,[],"[{u'id': 408398198, u'indices': [50, 64], u'id_str': u'408398198', u'screen_name': u'BarruguetToys', u'name': u'Barruguet Joguines'}, {u'id': 54204575, u'indices': [96, 107], u'id_str': u'54204575', u'screen_name': u'StokkeBaby', u'name': u'STOKKE\xae'}, {u'id': 3072619438, u'indices': [108, 121], u'id_str': u'3072619438', u'screen_name': u'abitare_kids', u'name': u'Abitare Kids'}]"
867435644393582595,2017-05-24 17:42:28,False,"#PES is out now on mobile! Join me, @Aubameyang7 @gabigol and @MesutOzil8! Download here:https://t.co/tbM65RPCQ7 https://t.co/HyRDNZf5Ae","[{u'indices': [0, 4], u'text': u'PES'}]","[{u'id': 847238528, u'indices': [36, 48], u'id_str': u'847238528', u'screen_name': u'Aubameyang7', u'name': u'Aubameyang P-E'}, {u'id': 189307961, u'indices': [49, 57], u'id_str': u'189307961', u'screen_name': u'gabigol', u'name': u'Gabriel Barbosa'}, {u'id': 2362185906, u'indices': [62, 73], u'id_str': u'2362185906', u'screen_name': u'MesutOzil8', u'name': u'Mesut Ozil'}]"
867435511270567937,2017-05-24 17:41:56,False,"#PES ya está disponible en tu móvil! Únete a mí, @Aubameyang7 @gabigol y @MesutOzil8! Descárgalo aquí: https://t.co/eZjxYgg0QN https://t.co/kIqq7oxw8o","[{u'indices': [0, 4], u'text': u'PES'}]","[{u'id': 847238528, u'indices': [49, 61], u'id_str': u'847238528', u'screen_name': u'Aubameyang7', u'name': u'Aubameyang P-E'}, {u'id': 189307961, u'indices': [62, 70], u'id_str': u'189307961', u'screen_name': u'gabigol', u'name': u'Gabriel Barbosa'}, {u'id': 2362185906, u'indices': [73, 84], u'id_str': u'2362185906', u'screen_name': u'MesutOzil8', u'name': u'Mesut Ozil'}]"
867054361721131011,2017-05-23 16:27:23,False,Porque no vuelva a ocurrir en ningún sitio del mundo. Hoy todos pensamos en Manchester. https://t.co/u9TMZyOynw,[],[]
866412214261035008,2017-05-21 21:55:43,False,"Lo hemos intentando hasta el último partido. Gracias afición por el apoyo. Ahora toca pensar en la final de Copa. Vamos equipo, Força Barça! https://t.co/PkYRNdpAJU",[],[]
866040054308909056,2017-05-20 21:16:53,False,Mañana último partido de Liga en casa! Força Barça!,[],[]
865524042496851968,2017-05-19 11:06:27,False,Legendary changes coming to #PES2018! Can’t wait to play it! More info here: https://t.co/wr89IrhASz https://t.co/JwtledV0Sl,"[{u'indices': [28, 36], u'text': u'PES2018'}]",[]
865523941443387392,2017-05-19 11:06:02,False,Grandes cambios en el nuevo #PES2018! Qué ganas de poder jugar pronto! Para más información clicka aquí: https://t.co/wr89IrhASz https://t.co/03zjT1TGpK,"[{u'indices': [28, 36], u'text': u'PES2018'}]",[]
865191053296586754,2017-05-18 13:03:16,False,Friday and Saturday you will be able to test drive myLEAF in Barcelona and win presents. Stay tuned to the @NissanEV_ESP! #LEAFofIniesta https://t.co/XuECBQ9Gfe,"[{u'indices': [122, 136], u'text': u'LEAFofIniesta'}]","[{u'id': 291741396, u'indices': [107, 120], u'id_str': u'291741396', u'screen_name': u'NissanEV_ESP', u'name': u'Nissan Electric ESP'}]"
865189823019188225,2017-05-18 12:58:22,False,Viernes y sábado podréis probar mi LEAF en Barcelona y conseguir premios firmados. ¡Atentos a las redes de @NissanEV_ESP! #LEAFdeIniesta https://t.co/fowr8XUCCR,"[{u'indices': [122, 136], u'text': u'LEAFdeIniesta'}]","[{u'id': 291741396, u'indices': [107, 120], u'id_str': u'291741396', u'screen_name': u'NissanEV_ESP', u'name': u'Nissan Electric ESP'}]"
864591713859502081,2017-05-16 21:21:42,False,Bienvenida Siena!! La mamá y ella están muy bien!!!! Un día inolvidable!!! https://t.co/3k6zH8Tdbp,[],[]
864438925821128704,2017-05-16 11:14:35,False,"Muy contento de presentaros la cuarta edición de mi Campus! Os espero este verano en Iniesta's Methodology! 

https://t.co/7n2DWX5zMx https://t.co/8McjCk5Y10",[],[]
864161319674679296,2017-05-15 16:51:28,False,Con mi Bodega sorteamos dos entradas dobles para la Final de Copa. ¿Os animáis a participar? https://t.co/xuvSZhNA8R ¡Mucha suerte!,[],[]
863860059859767296,2017-05-14 20:54:22,False,Gran victoria. Seguiremos hasta el final! Força Barça! https://t.co/iLnR5G4IMp,[],[]
863432452790005761,2017-05-13 16:35:13,False,Viaje a Las Palmas! Ese equipo de Mario Kart!!! Força Barça!!! https://t.co/u0sXrZh3qy,[],[]
863090052620066817,2017-05-12 17:54:38,False,Momentos que no tienen precio rodeado de los mejores!!!! Gracias por esta celebración!! #33 #family https://t.co/8TgcBJ8SZb,"[{u'indices': [92, 99], u'text': u'family'}]",[]
863059827836284928,2017-05-12 15:54:32,False,Soon you will be able to drive my #NissanLEAF y and win signed presents. ¡Saty tuned to the @NissanEV_ESP twitter account! #LEAFofIniesta https://t.co/VohSduilNU,"[{u'indices': [34, 45], u'text': u'NissanLEAF'}, {u'indices': [123, 137], u'text': u'LEAFofIniesta'}]","[{u'id': 291741396, u'indices': [92, 105], u'id_str': u'291741396', u'screen_name': u'NissanEV_ESP', u'name': u'Nissan Electric ESP'}]"
863059605512957952,2017-05-12 15:53:39,False,Pronto podréis conducir mi #NissanLEAF y conseguir premios firmados. ¡Estad atentos al twitter de @NissanEV_ESP! ⚡ #LEAFdeIniesta https://t.co/wroZ04PBbj,"[{u'indices': [27, 38], u'text': u'NissanLEAF'}, {u'indices': [115, 129], u'text': u'LEAFdeIniesta'}]","[{u'id': 291741396, u'indices': [98, 111], u'id_str': u'291741396', u'screen_name': u'NissanEV_ESP', u'name': u'Nissan Electric ESP'}]"
862754296194109441,2017-05-11 19:40:28,False,"Día espectacular!! Cumplir a vuestro lado, lo mejor de este mundo!!Gracias por todos los mensajes de felicitación!! Por el cariño y respeto! https://t.co/DR43DGkpgo",[],[]
862324228430991361,2017-05-10 15:11:31,False,Preparando el partido contra Las Palmas! Força Barça!! https://t.co/CsToRpvh78,[],[]
861662876796411904,2017-05-08 19:23:33,True,RT @BodegaIniesta: ¡Nuestros rosados vuelven a escena! Nuevos premios para nuestros vinos en el concurso Mondial Du Rosé 2017 ¡Gracias por…,[],"[{u'id': 574405058, u'indices': [3, 17], u'id_str': u'574405058', u'screen_name': u'BodegaIniesta', u'name': u'Bodega Iniesta'}]"
861334136216276992,2017-05-07 21:37:15,False,Mami!!! Felicidades!!! Gracias por querernos como lo haces!!! Gracias por todo!!! Te queremos @AnnaOrtiz34 https://t.co/LMxldKfuBf,[],"[{u'id': 1211153370, u'indices': [94, 106], u'id_str': u'1211153370', u'screen_name': u'AnnaOrtiz34', u'name': u'Anna Ortiz'}]"
861241766716071938,2017-05-07 15:30:12,False,Un año más celebrando este día tan especial junto a ti! Te quiero madre! Gracias!!! https://t.co/JtndtIFjAN,[],[]
860962694744199168,2017-05-06 21:01:16,False,Día especial en todos los sentidos. Seguimos!!! Força Barça! https://t.co/OQbGTBPtUz,[],[]
860523060360863744,2017-05-05 15:54:19,False,3 Jornadas para el final!!! Mañana contra un gran equipo a por otros tres puntos!!! Força Barça!!! https://t.co/fDy4y9cDaD,[],[]
860227954894393344,2017-05-04 20:21:41,False,"Gracias @TAGHeuer por hacerme parte de vuestra familia!
Proud to be part of the @TAGHeuer family! #DontCrackUnderPressure https://t.co/ZUkHrvOZm8","[{u'indices': [98, 121], u'text': u'DontCrackUnderPressure'}]","[{u'id': 92245322, u'indices': [8, 17], u'id_str': u'92245322', u'screen_name': u'TAGHeuer', u'name': u'TAG Heuer'}, {u'id': 92245322, u'indices': [80, 89], u'id_str': u'92245322', u'screen_name': u'TAGHeuer', u'name': u'TAG Heuer'}]"
859739388024107008,2017-05-03 12:00:17,False,En el entrenamiento preparando el partido contra el Villarreal con el gran @DenisSuarez6! https://t.co/zNFCfXKXBD,[],"[{u'id': 473229373, u'indices': [75, 88], u'id_str': u'473229373', u'screen_name': u'DenisSuarez6', u'name': u'Denis Suarez'}]"
859478655369719812,2017-05-02 18:44:14,False,The top #PES European players competed against each other to qualify for the @PESLeague World Finals! Watch it here: https://t.co/WueSsPDXS9 https://t.co/30vXclJjz4,"[{u'indices': [8, 12], u'text': u'PES'}]","[{u'id': 4148547814, u'indices': [77, 87], u'id_str': u'4148547814', u'screen_name': u'pesleague', u'name': u'PES League'}]"
859478494933331969,2017-05-02 18:43:36,False,Los mejores jugadores #PES Europeos compitieron para llegar a las Finales Mundiales del @pesleague!! Revívelo aquí: https://t.co/WueSsPDXS9 https://t.co/7o7W7NQxHg,"[{u'indices': [22, 26], u'text': u'PES'}]","[{u'id': 4148547814, u'indices': [88, 98], u'id_str': u'4148547814', u'screen_name': u'pesleague', u'name': u'PES League'}]"
858434359078129666,2017-04-29 21:34:34,False,"Tres puntos más para seguir en la pelea! Felicidades compañeros, siempre especial ganar el derbi! Força Barça!!",[],[]
857587898471911424,2017-04-27 13:31:02,False,"Muy orgulloso de poder presentaros mi metodología. Con ganas de enseñar lo aprendido... Os espero en 
https://t.co/RLFklmIWeh",[],[]
857336592142389248,2017-04-26 20:52:26,False,3 puntos más para seguir en la pelea! Felicidades @Mascherano bien merecido 😊😊! https://t.co/LYYF8C4BQP,[],"[{u'id': 313913938, u'indices': [50, 61], u'id_str': u'313913938', u'screen_name': u'Mascherano', u'name': u'Javier Mascherano'}]"
856958017404895232,2017-04-25 19:48:07,False,Con mi compi y fenómeno @ivanrakitic en el entreno de hoy. Mañana partido contra el @CAOsasuna ! Força Barça!! https://t.co/XzF2cIXwkn,[],"[{u'id': 3087039231, u'indices': [24, 36], u'id_str': u'3087039231', u'screen_name': u'ivanrakitic', u'name': u'Ivan Rakitic'}, {u'id': 177890401, u'indices': [84, 94], u'id_str': u'177890401', u'screen_name': u'CAOsasuna', u'name': u'C. A. OSASUNA'}]"
856876157173628929,2017-04-25 14:22:50,False,"Tres años sin ti, pero estarás siempre en nuestros corazones. #Tito https://t.co/GpgCbXdyRB","[{u'indices': [62, 67], u'text': u'Tito'}]",[]
856488186507272192,2017-04-24 12:41:11,False,Sin comentarios!!! Felicidades!!! Un privilegio!! https://t.co/y5TABL1Opb,[],[]
856255781250977795,2017-04-23 21:17:41,False,Un 10 para todos!!!! Grandioso equipo!!!! Força Barça! https://t.co/RDC6viafaL,[],[]
854822761512022018,2017-04-19 22:23:22,False,"Es un momento difícil, nos tenemos que levantar. Gracias afición por vuestro apoyo, sois increíbles! Hoy y siempre equipo. Força Barça! https://t.co/LkFMDc8kpG",[],[]
854409626586148865,2017-04-18 19:01:43,False,Todo preparado para mañana! Juntos como siempre! Força barca! https://t.co/vSZHdvCRHW,[],[]
854049788744134656,2017-04-17 19:11:51,False,Gran día en familia @AnnaOrtiz34!!! Os queremos!!! Gracias a estos padrinos #maribel #marta #familias https://t.co/ECkDQ1CJLo,"[{u'indices': [76, 84], u'text': u'maribel'}, {u'indices': [85, 91], u'text': u'marta'}, {u'indices': [92, 101], u'text': u'familias'}]","[{u'id': 1211153370, u'indices': [20, 32], u'id_str': u'1211153370', u'screen_name': u'AnnaOrtiz34', u'name': u'Anna Ortiz'}]"
853375356694409218,2017-04-15 22:31:54,False,"Tres puntos más para seguir en la pelea. Ahora sí, todos los sentidos en el miércoles. Força Barça!! https://t.co/qkuJYdaKWW",[],[]
852913883723509762,2017-04-14 15:58:10,False,Último entreno antes del partido de mañana. Vuelve la #Liga. Força Barça! https://t.co/BcYUD1fzJC,"[{u'indices': [54, 59], u'text': u'Liga'}]",[]
851435166123819010,2017-04-10 14:02:17,False,Llegada a Turín!!! Esta tarde entrenamiento. Força barça!! https://t.co/2vXHFizDm3,[],[]
850083206670028800,2017-04-06 20:30:04,False,Mis inicios... feliz noche! https://t.co/hrtymbmT24,[],[]
849710605200175110,2017-04-05 19:49:29,False,Con mi compi!! Gran victoria! 👌 https://t.co/5t6SlBgAuw,[],[]
848960989022310400,2017-04-03 18:10:47,False,6 añazos para la princesa de la casa!!!! Lo mejor de la vida!!!! https://t.co/VBckrHt2o3,[],[]
848652092462034945,2017-04-02 21:43:20,False,Seguimos sumando y con buenas sensaciones! Força Barça!! https://t.co/tWFc5Sba2h,[],[]
848461727532556288,2017-04-02 09:06:54,False,Vuelve la Liga!!! Força Barça! https://t.co/6pggrD5rTI,[],[]
847453494474809346,2017-03-30 14:20:32,False,Vuelta a los entrenamientos y pensando en el próximo partido!!! https://t.co/wzQMfWp0lW,[],[]
847170542016892929,2017-03-29 19:36:11,False,Muchas felicidades @FCBfemeni ¡A semifinales! #FCBFemeni https://t.co/F7kWbSAYrv,"[{u'indices': [46, 56], u'text': u'FCBFemeni'}]","[{u'id': 2196387576, u'indices': [19, 29], u'id_str': u'2196387576', u'screen_name': u'FCBfemeni', u'name': u'FCB Femen\xed'}]"
846835816135626753,2017-03-28 21:26:06,False,"Gran partido, @Sefutbol!! Volvemos a casa con muy buenas sensaciones!! https://t.co/Hbnw458c0h",[],"[{u'id': 1139001474, u'indices': [14, 23], u'id_str': u'1139001474', u'screen_name': u'SeFutbol', u'name': u'Selecci\xf3n Espa\xf1ola de F\xfatbol'}]"
846477094313971712,2017-03-27 21:40:40,False,Preparados para el partido de mañana! Vamos @SeFutbol! https://t.co/yrdgC7ZhGg,[],"[{u'id': 1139001474, u'indices': [44, 53], u'id_str': u'1139001474', u'screen_name': u'SeFutbol', u'name': u'Selecci\xf3n Espa\xf1ola'}]"
845412820925763589,2017-03-24 23:11:38,False,Gran partido @SeFutbol!!! Gran esfuerzo!!!! Gracias Gijón!! https://t.co/zYCmKTa7y2,[],"[{u'id': 1139001474, u'indices': [13, 22], u'id_str': u'1139001474', u'screen_name': u'SeFutbol', u'name': u'Selecci\xf3n Espa\xf1ola'}]"
845029413288886272,2017-03-23 21:48:06,False,Mañana importante partido contra Israel!!! A dar otro paso más en la clasificación para el Mundial! https://t.co/NDdlhzlNxB,[],[]
844944906577727488,2017-03-23 16:12:18,False,Hola a todos! Siento este error en la informática/persona. Prefiero estar en Gijón con la selección que jugar a baloncesto. Un abrazo!,[],[]
844669514755313664,2017-03-22 21:58:00,False,"Season 08/09 version of me is still available for your PES2017 myClub team! #PES2017 #myClub
https://t.co/Qa76NK3NTv https://t.co/D3hovHBtoL","[{u'indices': [76, 84], u'text': u'PES2017'}, {u'indices': [85, 92], u'text': u'myClub'}]",[]
844669435516465153,2017-03-22 21:57:41,False,"Aún podéis jugar con mi versión de la temporada 08/09 para vuestro equipo del #myClub! #PES2017
https://t.co/Qa76NK3NTv https://t.co/p1FP17fFZA","[{u'indices': [78, 85], u'text': u'myClub'}, {u'indices': [87, 95], u'text': u'PES2017'}]",[]
844242528098508800,2017-03-21 17:41:18,False,"#DiaMundialSindromeDeDown 
@annetavives https://t.co/cedGC7eTnH","[{u'indices': [0, 25], u'text': u'DiaMundialSindromeDeDown'}]","[{u'id': 472988890, u'indices': [27, 39], u'id_str': u'472988890', u'screen_name': u'annetavives', u'name': u'Anna Vives'}]"
844193202877976576,2017-03-21 14:25:18,False,Felicidades hermano!!! Eres especial!!! Un placer compartir tantos momentos contigo! Por muchos más @JordiAlba https://t.co/FgtexCJkxf,[],"[{u'id': 2239961994, u'indices': [100, 110], u'id_str': u'2239961994', u'screen_name': u'JordiAlba', u'name': u'Jordi Alba'}]"
843947266817871872,2017-03-20 22:08:02,False,"Gran reencuentro con la selección!!!
@gerardeulofeu https://t.co/vyOjs03dPJ",[],"[{u'id': 280458883, u'indices': [37, 51], u'id_str': u'280458883', u'screen_name': u'gerardeulofeu', u'name': u'Gerard Deulofeu'}]"
843627033351610368,2017-03-20 00:55:33,False,The best! https://t.co/POw90t0wWl,[],[]
843590394478845952,2017-03-19 22:29:57,False,Grande equipo! 3 puntos más para seguir sumando. Força Barça https://t.co/qhsUwFGoZC,[],[]
843196358655950850,2017-03-18 20:24:12,False,Partido mañana en casa contra el Valencia! Força Barça! https://t.co/A9kWJPhynx,[],[]
842852089554501632,2017-03-17 21:36:12,False,Compartiendo charla con mi amigo @Mascherano! Grande! https://t.co/3ie1GmrOWI,[],"[{u'id': 313913938, u'indices': [33, 44], u'id_str': u'313913938', u'screen_name': u'Mascherano', u'name': u'Javier Mascherano'}]"
842710515306651648,2017-03-17 12:13:38,False,Será una eliminatoria muy disputada y emocionante. Con la ilusión de dar otro paso más!! Força Barça!! https://t.co/kNvN2Dc4tp,[],[]
842475170677821445,2017-03-16 20:38:27,False,"It's a pleasure to join the @TAGHeuer family. Thank you for the trust!
#DontCrackUnderPressure https://t.co/azFZCXdzIW","[{u'indices': [71, 94], u'text': u'DontCrackUnderPressure'}]","[{u'id': 92245322, u'indices': [28, 37], u'id_str': u'92245322', u'screen_name': u'TAGHeuer', u'name': u'TAG Heuer'}]"
842474886719324160,2017-03-16 20:37:20,False,Un placer unirme a la familia @TAGHeuer. Gracias por la confianza!#DontCrackUnderPressure https://t.co/3JEOcOr69b,"[{u'indices': [66, 89], u'text': u'DontCrackUnderPressure'}]","[{u'id': 92245322, u'indices': [30, 39], u'id_str': u'92245322', u'screen_name': u'TAGHeuer', u'name': u'TAG Heuer'}]"
841983198536032256,2017-03-15 12:03:32,False,Un orgullo ser Embajador Honorario de la marca España. Muchas gracias! https://t.co/EisUhH8F0l,[],[]
808288874590011392,2016-12-12 12:34:19,True,"[último día]
#Encuentro con @andresiniesta8 / 14-dic en @Malpasolibreria *Sólo 4 plazas Participa aquí:… https://t.co/5ujxI9UYPs","[{u'indices': [28, 38], u'text': u'Encuentro'}]","[{u'id': 952214874, u'indices': [3, 13], u'id_str': u'952214874', u'screen_name': u'MalpasoEd', u'name': u'MALPASO'}, {u'id': 90836187, u'indices': [43, 58], u'id_str': u'90836187', u'screen_name': u'andresiniesta8', u'name': u'Andr\xe9s Iniesta'}, {u'id': 775329642844659712, u'indices': [71, 87], u'id_str': u'775329642844659712', u'screen_name': u'Malpasolibreria', u'name': u'Malpaso Librer\xeda'}]"
797137610430881792,2016-11-11 18:03:11,True,"🏃 💪
@andresiniesta8  
Força Barça! https://t.co/3XTjK4TmC1",[],"[{u'id': 112764971, u'indices': [3, 18], u'id_str': u'112764971', u'screen_name': u'FCBarcelona_es', u'name': u'FC Barcelona'}, {u'id': 90836187, u'indices': [24, 39], u'id_str': u'90836187', u'screen_name': u'andresiniesta8', u'name': u'Andr\xe9s Iniesta'}]"
796649186863312896,2016-11-10 09:42:21,True,📝 La crónica del FC Barcelona Femenino - FC Twente: 'Primer escalón hacia cuartos superado con éxito (1-0)'… https://t.co/1eqs8gt4se,[],"[{u'id': 2196387576, u'indices': [3, 13], u'id_str': u'2196387576', u'screen_name': u'FCBfemeni', u'name': u'FCB Femen\xed'}]"
784837588876222465,2016-10-08 19:27:17,True,📺 Con la mente puesta en los 3 puntos ante Albania. ¡Así ha sido el entrenamiento de la @SeFutbol en el Loro Boriçi… https://t.co/zoeZ6MzYz2,[],"[{u'id': 1139001474, u'indices': [3, 12], u'id_str': u'1139001474', u'screen_name': u'SeFutbol', u'name': u'Selecci\xf3n Espa\xf1ola'}, {u'id': 1139001474, u'indices': [102, 111], u'id_str': u'1139001474', u'screen_name': u'SeFutbol', u'name': u'Selecci\xf3n Espa\xf1ola'}]"
777975085546213376,2016-09-19 20:58:09,True,Ya estamos montando @ElTransistorOC en casa de @andresiniesta8 No te lo pierdas https://t.co/2GAvtUZkQK,[],"[{u'id': 210551474, u'indices': [3, 16], u'id_str': u'210551474', u'screen_name': u'jrdelamorena', u'name': u'JRam\xf3n de la Morena'}, {u'id': 732871539515895808, u'indices': [38, 53], u'id_str': u'732871539515895808', u'screen_name': u'ElTransistorOC', u'name': u'El Transistor'}, {u'id': 90836187, u'indices': [65, 80], u'id_str': u'90836187', u'screen_name': u'andresiniesta8', u'name': u'Andr\xe9s Iniesta'}]"
773594207940468737,2016-09-07 18:50:06,True,Cambia tu manera de vivir el deporte con Olyseum. ¡Descarga ahora la app! https://t.co/uQdrb5CsSi #JoinTheMatch! https://t.co/y2rCwKivSh,"[{u'indices': [111, 124], u'text': u'JoinTheMatch'}]","[{u'id': 3353852019, u'indices': [3, 11], u'id_str': u'3353852019', u'screen_name': u'olyseum', u'name': u'Olyseum'}]"
756439506656567296,2016-07-22 10:43:27,True,Encuentro corporativo de #accionistasCABK en @bodegaIniesta acompañados de @andresiniesta8 https://t.co/5sBG6r2R7h https://t.co/1INuzbIzIp,"[{u'indices': [46, 62], u'text': u'accionistasCABK'}]","[{u'id': 1860942805, u'indices': [3, 19], u'id_str': u'1860942805', u'screen_name': u'AccionistasCABK', u'name': u'Accionista CaixaBank'}, {u'id': 574405058, u'indices': [66, 80], u'id_str': u'574405058', u'screen_name': u'BodegaIniesta', u'name': u'Bodega Iniesta'}, {u'id': 90836187, u'indices': [96, 111], u'id_str': u'90836187', u'screen_name': u'andresiniesta8', u'name': u'Andr\xe9s Iniesta'}]"
739539932436418561,2016-06-05 19:30:34,True,📷 ¡#4Fotos únicas! ¡Imágenes para la HISTORIA! ¡Ellos nos representarán en la #EURO2016! #VamosEspaña 🇪🇸 https://t.co/08x36AAnEC,"[{u'indices': [17, 24], u'text': u'4Fotos'}, {u'indices': [92, 101], u'text': u'EURO2016'}, {u'indices': [103, 115], u'text': u'VamosEspa\xf1a'}]","[{u'id': 1139001474, u'indices': [3, 12], u'id_str': u'1139001474', u'screen_name': u'SeFutbol', u'name': u'Selecci\xf3n Espa\xf1ola de F\xfatbol'}]"
704307072247209984,2016-02-29 14:07:46,True,Hoy día mundial de las #EnfermedadesRaras os animamos a ayudar a @FEDER_ONG y os suméis a #creandoredesdeesperanza https://t.co/UvzDmIPdjj,"[{u'indices': [42, 60], u'text': u'EnfermedadesRaras'}, {u'indices': [109, 133], u'text': u'creandoredesdeesperanza'}]","[{u'id': 574405058, u'indices': [3, 17], u'id_str': u'574405058', u'screen_name': u'BodegaIniesta', u'name': u'Bodega Iniesta'}, {u'id': 19394390, u'indices': [84, 94], u'id_str': u'19394390', u'screen_name': u'FEDER_ONG', u'name': u'FEDER'}]"
703351903883808768,2016-02-26 22:52:16,True,"🎥 @andresiniesta8 y @M_unzue6, de capitán a capitán: ""El domingo, todos al Mini!"" #FCBFemeni https://t.co/YAjFZT4jDm https://t.co/0HueOnA2FW","[{u'indices': [97, 107], u'text': u'FCBFemeni'}]","[{u'id': 2196387576, u'indices': [3, 13], u'id_str': u'2196387576', u'screen_name': u'FCBfemeni', u'name': u'FCB Femen\xed'}, {u'id': 90836187, u'indices': [17, 32], u'id_str': u'90836187', u'screen_name': u'andresiniesta8', u'name': u'Andr\xe9s Iniesta'}, {u'id': 596651715, u'indices': [35, 44], u'id_str': u'596651715', u'screen_name': u'M_unzue6', u'name': u'Marta Unzue'}]"
703351756462362624,2016-02-26 22:51:41,True,"🔴🔵 @andresiniesta8, al lado del @FCBfemeni. ¡El domingo, todos en el Mini! https://t.co/yibsNEFA0C #FCBlive https://t.co/3AG6Lqo7Dd","[{u'indices': [119, 127], u'text': u'FCBlive'}]","[{u'id': 112764971, u'indices': [3, 18], u'id_str': u'112764971', u'screen_name': u'FCBarcelona_es', u'name': u'FC Barcelona'}, {u'id': 90836187, u'indices': [23, 38], u'id_str': u'90836187', u'screen_name': u'andresiniesta8', u'name': u'Andr\xe9s Iniesta'}, {u'id': 2196387576, u'indices': [52, 62], u'id_str': u'2196387576', u'screen_name': u'FCBfemeni', u'name': u'FCB Femen\xed'}]"
678645875179134976,2015-12-20 18:39:19,True,".@andresiniesta8 es el jugador con más títulos en la historia del @FCBarcelona_es. Orgullosos de ti, Andrés!! https://t.co/53vF0Uhl3V",[],"[{u'id': 3492646577, u'indices': [3, 19], u'id_str': u'3492646577', u'screen_name': u'MediaBaseSports', u'name': u'Media Base Sports'}, {u'id': 90836187, u'indices': [22, 37], u'id_str': u'90836187', u'screen_name': u'andresiniesta8', u'name': u'Andr\xe9s Iniesta'}, {u'id': 112764971, u'indices': [87, 102], u'id_str': u'112764971', u'screen_name': u'FCBarcelona_es', u'name': u'FC Barcelona'}]"
653929077632573440,2015-10-13 13:43:36,True,Este miércoles vuelve la @UWCL a Barcelona. Da tu apoyo al equipo ante el BIIK haciendo RT del vídeo #FCBFemeni http://t.co/hc0fKz2Zk8,"[{u'indices': [116, 126], u'text': u'FCBFemeni'}]","[{u'id': 2196387576, u'indices': [3, 13], u'id_str': u'2196387576', u'screen_name': u'FCBfemeni', u'name': u'FCB Femen\xed'}, {u'id': 1870965888, u'indices': [40, 45], u'id_str': u'1870965888', u'screen_name': u'UWCL', u'name': u""UEFA Women's CL""}]"
644927106296754176,2015-09-18 17:32:58,True,"Presentada la campaña ‘Tant se val d’on venim’ en ayuda de los refugiados llegados a Europa http://t.co/zdxcva5ba8
https://t.co/K4hHMpZhql",[],"[{u'id': 112764971, u'indices': [3, 18], u'id_str': u'112764971', u'screen_name': u'FCBarcelona_es', u'name': u'FC Barcelona'}]"
609069722521493506,2015-06-11 18:48:32,True,Para tod@s l@s que hemos hecho #iniestademivida ha sido un placer enorme y único. Hoy a medianoche en TeleCinco http://t.co/kUxUHPVKj4,"[{u'indices': [49, 65], u'text': u'iniestademivida'}]","[{u'id': 282438222, u'indices': [3, 16], u'id_str': u'282438222', u'screen_name': u'Rafa13Vargas', u'name': u'Rafa Vargas'}]"
578918306909929474,2015-03-20 13:57:34,True,Looking forward to it! #PSGFCB http://t.co/sf8gyVOv11,"[{u'indices': [41, 48], u'text': u'PSGFCB'}]","[{u'id': 707086860, u'indices': [3, 16], u'id_str': u'707086860', u'screen_name': u'NissanEurope', u'name': u'Nissan Europe'}]"
575311860800622592,2015-03-10 15:06:51,True,"¡Únete a @sfw_tweets y a la @rfef
en la lucha contra la obesidad infantil y viaja a Holanda a ver a la @SeFutbol! http://t.co/24ezQ3HEUE",[],"[{u'id': 1139001474, u'indices': [3, 12], u'id_str': u'1139001474', u'screen_name': u'SeFutbol', u'name': u'Selecci\xf3n Espa\xf1ola'}, {u'id': 289315873, u'indices': [23, 34], u'id_str': u'289315873', u'screen_name': u'sfw_tweets', u'name': u'streetfootballworld'}, {u'id': 137415452, u'indices': [42, 47], u'id_str': u'137415452', u'screen_name': u'rfef', u'name': u'RFEF'}, {u'id': 1139001474, u'indices': [117, 126], u'id_str': u'1139001474', u'screen_name': u'SeFutbol', u'name': u'Selecci\xf3n Espa\xf1ola'}]"
558731705801277440,2015-01-23 21:03:14,True,Crea un estilo en tu mesa..encuentra los elementos que te ayudan a hacerlo @cotonetbois  #interiorismo #decoración http://t.co/yh5ANVlbOg,"[{u'indices': [106, 119], u'text': u'interiorismo'}, {u'indices': [120, 131], u'text': u'decoraci\xf3n'}]","[{u'id': 1211153370, u'indices': [3, 15], u'id_str': u'1211153370', u'screen_name': u'AnnaOrtiz34', u'name': u'Anna Ortiz'}, {u'id': 225147503, u'indices': [92, 104], u'id_str': u'225147503', u'screen_name': u'cotonetbois', u'name': u'Coton et Bois'}]"
543061799445471233,2014-12-11 15:16:37,True,#TeamNissan have quite the line-up! Congratulations to our engineers of excitement for making the final-16 #UCL http://t.co/B257ExU7zT,"[{u'indices': [18, 29], u'text': u'TeamNissan'}, {u'indices': [125, 129], u'text': u'UCL'}]","[{u'id': 707086860, u'indices': [3, 16], u'id_str': u'707086860', u'screen_name': u'NissanEurope', u'name': u'Nissan Europe'}]"
535143399364763648,2014-11-19 18:51:43,True,"Gracias @andresiniesta8, contigo daremos a conocer la investigación del @VHIR_ en nuestro #20VHIR aniversario http://t.co/2VWACruedv","[{u'indices': [101, 108], u'text': u'20VHIR'}]","[{u'id': 215939224, u'indices': [3, 9], u'id_str': u'215939224', u'screen_name': u'VHIR_', u'name': u""VHIR Vall d'Hebron""}, {u'id': 90836187, u'indices': [19, 34], u'id_str': u'90836187', u'screen_name': u'andresiniesta8', u'name': u'Andr\xe9s Iniesta'}, {u'id': 215939224, u'indices': [83, 89], u'id_str': u'215939224', u'screen_name': u'VHIR_', u'name': u""VHIR Vall d'Hebron""}]"
499280260631105536,2014-08-12 19:44:25,True,Say hello to Nissan’s newest teammates @AndresIniesta8 and @ThiagoSilvaOff! #genius #UCL http://t.co/9GbJgmk7c5,"[{u'indices': [88, 95], u'text': u'genius'}, {u'indices': [96, 100], u'text': u'UCL'}]","[{u'id': 258730549, u'indices': [3, 10], u'id_str': u'258730549', u'screen_name': u'Nissan', u'name': u'Nissan'}, {u'id': 90836187, u'indices': [51, 66], u'id_str': u'90836187', u'screen_name': u'andresiniesta8', u'name': u'Andr\xe9s Iniesta'}, {u'id': 2424510447, u'indices': [71, 86], u'id_str': u'2424510447', u'screen_name': u'thiagosilvaoff', u'name': u'Thiago Silva'}]"
486165555666509824,2014-07-07 15:11:15,True,"Nuestros atletas están ready para cumplir en la travesía a Mallorca. Compra brazadas a 0,03€ para la ONG@pallapupas: http://t.co/oiiidaWBij",[],"[{u'id': 1566014444, u'indices': [3, 18], u'id_str': u'1566014444', u'screen_name': u'sempremeslluny', u'name': u'Travessia solid\xe0ria'}]"
402819000184610816,2013-11-19 15:21:48,True,"Hey @andresiniesta8, last time Spain was in the country, I opened the scoring for the world. #CTR360 http://t.co/cebg5TBbgf","[{u'indices': [112, 119], u'text': u'CTR360'}]","[{u'id': 912419682, u'indices': [3, 17], u'id_str': u'912419682', u'screen_name': u'siphiweshabba', u'name': u'Siphiwe Tshabalala'}, {u'id': 90836187, u'indices': [23, 38], u'id_str': u'90836187', u'screen_name': u'andresiniesta8', u'name': u'Andr\xe9s Iniesta'}]"
395341498751131648,2013-10-30 00:08:53,True,Gran victoria. 3 puntos más. Felicitaciones @andresiniesta8 por estos 11 años de mágia!!!! http://t.co/8KEZvDwKjY,[],"[{u'id': 313913938, u'indices': [3, 14], u'id_str': u'313913938', u'screen_name': u'Mascherano', u'name': u'Javier Mascherano'}, {u'id': 90836187, u'indices': [60, 75], u'id_str': u'90836187', u'screen_name': u'andresiniesta8', u'name': u'Andr\xe9s Iniesta'}]"
389740403471450112,2013-10-14 13:12:07,True,En la tierra de un grande.. @andresiniesta8!! In the land of a great man.. http://t.co/1FZlsZsnF8,[],"[{u'id': 151123001, u'indices': [3, 15], u'id_str': u'151123001', u'screen_name': u'SergioRamos', u'name': u'Sergio Ramos'}, {u'id': 90836187, u'indices': [45, 60], u'id_str': u'90836187', u'screen_name': u'andresiniesta8', u'name': u'Andr\xe9s Iniesta'}]"
320272458382991363,2013-04-05 20:31:19,True,Humor 100 % Albacete http://t.co/MFDjJC0ShX,[],"[{u'id': 321922181, u'indices': [3, 17], u'id_str': u'321922181', u'screen_name': u'AlbaceteBPSAD', u'name': u'Albacete Balompi\xe9'}]"
308652842984546304,2013-03-04 18:59:06,True,Aquí la foto de equipo con los primeros compradores de #XperiaZ http://t.co/gU6dGkUMR6,"[{u'indices': [73, 81], u'text': u'XperiaZ'}]","[{u'id': 73372670, u'indices': [3, 16], u'id_str': u'73372670', u'screen_name': u'sonyxperiaes', u'name': u'Sony Xperia ES'}]"
220511648631365633,2012-07-04 13:37:28,True,We just learned that Andres Iniesta ( EURO2012’s MVP) will be LIVE today at 1 PM ET! Follow him: @andresiniesta8 for the link to join.,[],"[{u'id': 9938852, u'indices': [3, 11], u'id_str': u'9938852', u'screen_name': u'twitcam', u'name': u'twitcam'}, {u'id': 90836187, u'indices': [110, 125], u'id_str': u'90836187', u'screen_name': u'andresiniesta8', u'name': u'Andr\xe9s Iniesta'}]"
70773359553679360,2011-05-18 08:50:58,True,18/5/11 20h #salabikini concert benèfic #pepsala x la fundació CAT del #lupus. Sorteig samarretes #barça signades. www.vimeo.com/23145189,"[{u'indices': [24, 35], u'text': u'salabikini'}, {u'indices': [52, 60], u'text': u'pepsala'}, {u'indices': [83, 89], u'text': u'lupus'}, {u'indices': [110, 116], u'text': u'bar\xe7a'}]","[{u'id': 20392266, u'indices': [3, 10], u'id_str': u'20392266', u'screen_name': u'lopeix', u'name': u'Lopeix ||*||'}]"
