id,created_at,retweet,text,hashtags,user_mentions
928797660693352448,2017-11-10 01:33:13,False,Thanks to Will Ferrell and @mark_wahlberg for coming all the way to #ConanNYC to talk about Boston. https://t.co/dIAgFc9py7,"[{u'indices': [68, 77], u'text': u'ConanNYC'}]","[{u'id': 124335068, u'indices': [27, 41], u'id_str': u'124335068', u'screen_name': u'mark_wahlberg', u'name': u'Mark Wahlberg'}]"
928732745957855232,2017-11-09 21:15:16,False,I saw the most beautiful thing in Manhattan today: a Chase Bank giving birth to a litter of baby Chase Banks. #ConanNYC,"[{u'indices': [110, 119], u'text': u'ConanNYC'}]",[]
928452439275196416,2017-11-09 02:41:25,False,Honored to have President @BillClinton join me at The @ApolloTheater. #ConanNYC https://t.co/dQvrpFyQ6c,"[{u'indices': [70, 79], u'text': u'ConanNYC'}]","[{u'id': 1330457336, u'indices': [26, 38], u'id_str': u'1330457336', u'screen_name': u'BillClinton', u'name': u'Bill Clinton'}, {u'id': 59541948, u'indices': [54, 68], u'id_str': u'59541948', u'screen_name': u'ApolloTheater', u'name': u'Apollo Theater'}]"
928352746683715584,2017-11-08 20:05:17,False,Gorgeous New York City! How I have missed your empty apartments owned by Russians laundering money. #ConanNYC,"[{u'indices': [100, 109], u'text': u'ConanNYC'}]",[]
928268222553407488,2017-11-08 14:29:25,False,Thanks to Jon Stewart for helping me launch my @Omaze campaign to benefit @nextforautism. Enter to be my co-host for a night @ https://t.co/lRasL5BhcH https://t.co/IbvWKD0PfV,[],"[{u'id': 359110231, u'indices': [47, 53], u'id_str': u'359110231', u'screen_name': u'omaze', u'name': u'Omaze'}, {u'id': 236954384, u'indices': [74, 88], u'id_str': u'236954384', u'screen_name': u'NEXTforAUTISM', u'name': u'NEXT for AUTISM'}]"
928072986703298563,2017-11-08 01:33:37,False,"Tonight on #ConanNYC, Jon Stewart and I ask each other some bullshit questions. https://t.co/nZ7cHwAgMr","[{u'indices': [11, 20], u'text': u'ConanNYC'}]",[]
928064591074086912,2017-11-08 01:00:15,False,Our heroes in uniform stood up for us. It's now our turn to #Stand4Heroes with the Bob Woodruff Foundation. https://t.co/PaVF2o4z9e https://t.co/OpHebaCFum,"[{u'indices': [60, 73], u'text': u'Stand4Heroes'}]",[]
927969442973306881,2017-11-07 18:42:10,False,I came back to NYC to tape my show at The Apollo and retrieve this bag of Cheez-Its I left on the L train last year. #ConanNYC https://t.co/YZWwN5WFnj,"[{u'indices': [117, 126], u'text': u'ConanNYC'}]",[]
927751343560851458,2017-11-07 04:15:31,False,Thanks to Harlem style icon @DapperDanHarlem for swagging me up and down. https://t.co/jUOrT89Bda #ConanNYC,"[{u'indices': [98, 107], u'text': u'ConanNYC'}]","[{u'id': 582305979, u'indices': [28, 44], u'id_str': u'582305979', u'screen_name': u'DapperDanHarlem', u'name': u'Dapper Dan'}]"
927617883554885632,2017-11-06 19:25:12,False,First day back in New York and I've already received dirty looks from 7 different police horses. #ConanNYC,"[{u'indices': [97, 106], u'text': u'ConanNYC'}]",[]
926934610231119872,2017-11-04 22:10:07,False,So glad my younger self did not know that my older self would be drinking canned water from France.,[],[]
926504293393424389,2017-11-03 17:40:11,False,"A real man should know how to order whiskey: on the rocks, in a stemmed glass, and replaced with white wine.",[],[]
926164964548608001,2017-11-02 19:11:49,True,RT @jaketapper: A cool way to help wounded veterans: watch this video about our celebrity auction! https://t.co/5ejEHEWxKM https://t.co/eNJ…,[],"[{u'id': 14529929, u'indices': [3, 14], u'id_str': u'14529929', u'screen_name': u'jaketapper', u'name': u'Jake Tapper'}]"
926129319818252288,2017-11-02 16:50:11,False,"“The Terminator,” but he goes back in time to sleep with John Connor’s mom, so he can later just keep reminding John about it.",[],[]
925800940006969344,2017-11-01 19:05:19,False,"This Halloween, I served tricks over treats. I will remember the beatings for the rest of my days.",[],[]
925521545761558528,2017-11-01 00:35:06,False,"The next kid who knocks on my door gets a VHS copy of ""RoboCop 3.""",[],[]
925063572085985280,2017-10-30 18:15:17,False,Pretty excited about my Halloween costume: French Maid With Intimacy Issues Due To Her Recent Breakup With Steve.,[],[]
924781003843031041,2017-10-29 23:32:27,False,Just had a nightmare that I was Justin Turners' shower drain. https://t.co/gJ02mJrYaz,[],[]
924357702725271553,2017-10-28 19:30:24,False,This year for Halloween I’m giving out Canadian passports.,[],[]
924011615233691649,2017-10-27 20:35:11,False,"""Clayton Kershaw"" is the sound you make when you cough and sneeze at the same time.",[],[]
923725598022701056,2017-10-27 01:38:39,False,Watch @AaronRodgers12 and I discuss his injury and fight off feral hippos. #CluelessGamer #AssassinsCreedOrigins https://t.co/8jn6jROBUM,"[{u'indices': [75, 89], u'text': u'CluelessGamer'}, {u'indices': [90, 112], u'text': u'AssassinsCreedOrigins'}]","[{u'id': 130997057, u'indices': [6, 21], u'id_str': u'130997057', u'screen_name': u'AaronRodgers12', u'name': u'Aaron Rodgers'}]"
923615270756810754,2017-10-26 18:20:15,False,The only way Trump will pardon the White House Thanksgiving turkey is if it promises to do the same for him in a few months.,[],[]
923245322050134017,2017-10-25 17:50:12,False,Just saw the updated Charlie Brown special where they grind up the Great Pumpkin to flavor someone’s latte.,[],[]
923002445709447168,2017-10-25 01:45:06,False,It’s only the fifth inning but both the Astros and the Dodgers just left early to beat the traffic.,[],[]
922952561467957248,2017-10-24 22:26:52,False,I get off on pouring good milk down the sink. https://t.co/innOdmSjOj,[],[]
922529371818266625,2017-10-23 18:25:16,False,Just got 49 flu shots for $1.99 at Costco.,[],[]
922193379433295872,2017-10-22 20:10:09,False,"It’s exciting that the LA Dodgers will be playing in the World Series, unless of course their pilots get picked up.",[],[]
921844821484072961,2017-10-21 21:05:07,False,We all done with artichokes?  Yeah?  Everyone?  Full consensus?  Good.,[],[]
921469915567190016,2017-10-20 20:15:22,False,"I love autumn in L.A., when the leaves change on my screensaver photos.",[],[]
921138847349538817,2017-10-19 22:19:49,False,"Rest easy America, I just heroically solved the Dave the Horse crisis. https://t.co/ZiG1XMy5Br",[],[]
920722486794301440,2017-10-18 18:45:21,False,"This is a terrible day to be on Twitter, please log off. #evergreen","[{u'indices': [57, 67], u'text': u'evergreen'}]",[]
920373110712369152,2017-10-17 19:37:03,False,"Look, Steve Bannon has a good twin https://t.co/Ee3RRlTMv5",[],[]
920002737386983424,2017-10-16 19:05:20,False,"The latest trailer for The Last Jedi blew me away, but why were the first 30 seconds about car insurance?",[],[]
919661756804403200,2017-10-15 20:30:23,False,I liked Blade Runner 2049 but its view of the future was too positive.,[],[]
919239022249152513,2017-10-14 16:30:36,False,Just read another Harvey Weinstein article and now my brain wants an Altoid.,[],[]
918984184273575936,2017-10-13 23:37:58,False,"Tonight on @colbertlateshow, two sex symbols talk shop. https://t.co/h8y13GgVol",[],"[{u'id': 2835886194, u'indices': [11, 27], u'id_str': u'2835886194', u'screen_name': u'colbertlateshow', u'name': u'The Late Show'}]"
918920639959797760,2017-10-13 19:25:27,False,"Backstage for my appearance on @ColbertLateShow tonight. They told me to take a photo, so I did. https://t.co/7K4mUkaiEj",[],"[{u'id': 2835886194, u'indices': [31, 47], u'id_str': u'2835886194', u'screen_name': u'colbertlateshow', u'name': u'The Late Show'}]"
918504970051231744,2017-10-12 15:53:44,False,"The White Stripes sang ""We're Going To Be Friends"" on my last ""Late Night"" show. It's one of my favorite memories. https://t.co/EKCofdNe9h",[],[]
918194556046323712,2017-10-11 19:20:16,False,The name Red Lobster is helpful if you totally forgot what color lobsters are.,[],[]
917848502633365504,2017-10-10 20:25:10,False,Trying to binge-watch all of the Geico commercials. I’m up to season 117.,[],[]
917502825554481152,2017-10-09 21:31:34,False,Got styled by #Harlem #fashion icon @DapperDanHarlem. This is the before picture. #ConanNYC https://t.co/Av6pt3ectO,"[{u'indices': [14, 21], u'text': u'Harlem'}, {u'indices': [22, 30], u'text': u'fashion'}, {u'indices': [82, 91], u'text': u'ConanNYC'}]","[{u'id': 582305979, u'indices': [36, 52], u'id_str': u'582305979', u'screen_name': u'DapperDanHarlem', u'name': u'Dapper Dan'}]"
917467131830292480,2017-10-09 19:09:44,False,"At @SylviasSoulFood in #Harlem today, I learned that no hairnet can tame me. #ConanNYC https://t.co/6G2dvzKncr","[{u'indices': [23, 30], u'text': u'Harlem'}, {u'indices': [77, 86], u'text': u'ConanNYC'}]","[{u'id': 56761009, u'indices': [3, 19], u'id_str': u'56761009', u'screen_name': u'SylviasSoulFood', u'name': u""Sylvia's Restaurant""}]"
917439588192391169,2017-10-09 17:20:17,False,Just found out all of my childhood bullies were Russian bots.,[],[]
917117472775573504,2017-10-08 20:00:19,False,Will box office numbers adjust for all the men who buy Blade Runner 2049 tickets then “accidentally” walk into My Little Pony: The Movie?,[],[]
916743744212348933,2017-10-07 19:15:15,False,"It’s time Dress Barn updated their name to something cool. Like, Gown Silo.",[],[]
916412794261639168,2017-10-06 21:20:10,False,I’m so glad they’re going to make a new Blade Runner movie every 35 years.,[],[]
916323634397904901,2017-10-06 15:25:53,False,Performed last night with the hilarious @WildHorsesShow. That face I'm making is the first sign of a massive stroke. https://t.co/5ewiX2C6BE,[],"[{u'id': 2332811292, u'indices': [40, 55], u'id_str': u'2332811292', u'screen_name': u'WildHorsesShow', u'name': u'Wild Horses'}]"
916123594740002816,2017-10-06 02:11:00,False,"I explored a land of moist wood, no railings, and British Orcs with @kumailn. #CluelessGamer #ShadowOfWar https://t.co/GdErFRHpO1","[{u'indices': [78, 92], u'text': u'CluelessGamer'}, {u'indices': [93, 105], u'text': u'ShadowOfWar'}]","[{u'id': 28406270, u'indices': [68, 76], u'id_str': u'28406270', u'screen_name': u'kumailn', u'name': u'Kumail Nanjiani'}]"
916030568571293696,2017-10-05 20:01:21,False,The most disturbing detail about Trump's new tax plan is the requirement that The Rich audibly click their heels with every million saved.,[],[]
915803166381268992,2017-10-05 04:57:44,False,"I was forced to do this by those pricks in Finland. Finland if you're still reading this, I love you. https://t.co/GJtYzA0JJD",[],[]
915654093003255809,2017-10-04 19:05:22,False,Just got my flu shot. Took three nurses and a guy from the gym.,[],[]
915284105876639744,2017-10-03 18:35:10,False,I used to clear my head of the news by lying back &amp; staring at the clouds but now Trump officials keep flying through them in private jets.,[],[]
914556802469105664,2017-10-01 18:25:08,False,Now I finally get why our national anthem was written by a lawyer.,[],[]
914279970456981504,2017-10-01 00:05:06,False,Best wishes to my Jewish friends who are fasting for Yom Kippur or because they’re trying to make it in Hollywood,[],[]
914258583856062464,2017-09-30 22:40:07,False,I am trying to fire my mime. It’s not going well.,[],[]
913841228894101507,2017-09-29 19:01:41,False,The cops raided the nail salon in my neighborhood and discovered a better nail salon operating in the back.,[],[]
913574214413647872,2017-09-29 01:20:40,False,"Hey @nickkroll and @StephenAtHome, this photo was taken the day I replaced
David Letterman. #PuberMe #PuertoRicoRelief https://t.co/J1013j4rbr","[{u'indices': [92, 100], u'text': u'PuberMe'}, {u'indices': [101, 118], u'text': u'PuertoRicoRelief'}]","[{u'id': 23027237, u'indices': [4, 14], u'id_str': u'23027237', u'screen_name': u'nickkroll', u'name': u'nick kroll'}, {u'id': 16303106, u'indices': [19, 33], u'id_str': u'16303106', u'screen_name': u'StephenAtHome', u'name': u'Stephen Colbert'}]"
913472189155954691,2017-09-28 18:35:16,False,"Reminder: If your knees are scraped and bleeding, you are playing the oboe incorrectly.",[],[]
913198250479325185,2017-09-28 00:26:43,False,"I'm taking the stage at Stand Up for Heroes on Nov 7, but you can help #Give2Veterans now. @Stand4Heroes gets a dollar for every retweet.","[{u'indices': [71, 85], u'text': u'Give2Veterans'}]","[{u'id': 22650870, u'indices': [91, 104], u'id_str': u'22650870', u'screen_name': u'Stand4Heroes', u'name': u'Bob Woodruff Foundation'}]"
913148792886693889,2017-09-27 21:10:12,False,There is nothing more or less worse than when you're not unable to determinate a tweet's meaning or not.,[],[]
912879786560602112,2017-09-27 03:21:16,False,Watch me take @TomCruise for a drive and blow his mind. https://t.co/1nWMttDRaB,[],"[{u'id': 48410093, u'indices': [14, 24], u'id_str': u'48410093', u'screen_name': u'TomCruise', u'name': u'Tom Cruise'}]"
912821022130192384,2017-09-26 23:27:45,False,"Tonight on @TBSNetwork, I unveil a revolutionary idea with @TomCruise. Yes, revolutionary.",[],"[{u'id': 15981547, u'indices': [11, 22], u'id_str': u'15981547', u'screen_name': u'TBSNetwork', u'name': u'TBS Network'}, {u'id': 48410093, u'indices': [59, 69], u'id_str': u'48410093', u'screen_name': u'TomCruise', u'name': u'Tom Cruise'}]"
912417718443417607,2017-09-25 20:45:10,False,"Since the word ""brink"" gets a raw deal, I'm going to use it in a positive way: I am on the brink of eating a nice fruit salad.",[],[]
912392647943192576,2017-09-25 19:05:33,False,Help my friend @diegoluna_ get funds to those who need it most in Mexico. https://t.co/zw8PZd6JUf,[],"[{u'id': 126672013, u'indices': [15, 26], u'id_str': u'126672013', u'screen_name': u'diegoluna_', u'name': u'diego luna'}]"
912015014571249665,2017-09-24 18:04:58,False,"I’m starting to regret naming my son “Donald Trump, Jr.” It seemed okay 11 years ago.",[],[]
911655207922229249,2017-09-23 18:15:13,False,"Graham Cassidy: terrible healthcare bill, great name for a folk singer.",[],[]
911321509305606144,2017-09-22 20:09:14,False,"Melania Trump may sue over this Croatian billboard. Yesterday she said, “little bit of English? I happen to know a lottle bit of English.” https://t.co/TtzDnUiii2",[],[]
910943048699346945,2017-09-21 19:05:21,False,"Happy Rosh Hashanah to @carlreiner and @MelBrooks, if they’re Jewish.",[],"[{u'id': 637338906, u'indices': [23, 34], u'id_str': u'637338906', u'screen_name': u'carlreiner', u'name': u'carl reiner'}, {u'id': 1373486120, u'indices': [39, 49], u'id_str': u'1373486120', u'screen_name': u'MelBrooks', u'name': u'Mel Brooks'}]"
910906038060122113,2017-09-21 16:38:17,False,"For my friends in Israel and worldwide, you can watch every clip from #ConanIsrael @ https://t.co/KvcDYmryHd","[{u'indices': [70, 82], u'text': u'ConanIsrael'}]",[]
910572696831852544,2017-09-20 18:33:43,False,I'm live on YouTube taking your questions and fawning compliments about #ConanIsrael. https://t.co/xiEMIygeTc,"[{u'indices': [72, 84], u'text': u'ConanIsrael'}]",[]
910535982033788930,2017-09-20 16:07:49,False,Thinking of the great people of Mexico today and of ways to help. https://t.co/9PwDmWnHjy,[],[]
910311206270910465,2017-09-20 01:14:38,False,#ConanIsrael premieres tonight @ 10/9c on @TBSNetwork. Thanks to the people of Israel for tolerating this creepy goy.,"[{u'indices': [0, 12], u'text': u'ConanIsrael'}]","[{u'id': 15981547, u'indices': [42, 53], u'id_str': u'15981547', u'screen_name': u'TBSNetwork', u'name': u'TBS Network'}]"
910190585201426432,2017-09-19 17:15:20,False,It’s sad to realize that those dancing gangs in “West Side Story” could have just settled their differences through fighting.,[],[]
909907918606053376,2017-09-18 22:32:07,False,"Thoughts and prayers go out to Lay’s Potato Chips, who are clearly having a nervous breakdown: https://t.co/vt5WXXx9UW",[],[]
909542516025958400,2017-09-17 22:20:08,False,"At home alone, no one here but me and Amazon Alexa. Says she doesn't want to talk.",[],[]
909112188689899520,2017-09-16 17:50:10,False,There is nothing wrong with exploring one's sexuality--and that is my message to the California Highway Patrol.,[],[]
908412715747676160,2017-09-14 19:30:43,False,You can tell the summer is officially over when my dermatologist gives the order to “Retract Shields.”,[],[]
908008725658652672,2017-09-13 16:45:24,False,I am now seriously regretting that time I told Equifax how old I actually was when I finally lost my virginity.,[],[]
907721824229715968,2017-09-12 21:45:22,False,"Hey, wait, I thought I was America’s favorite scary clown.",[],[]
906917670817193984,2017-09-10 16:29:57,False,"Autumn in California, where the leaves change color if you use the right Instagram filter. https://t.co/x9vkI5DUhl",[],[]
906608374627926016,2017-09-09 20:00:55,False,"Knowing me, when the nuclear bombs fall, I’ll be at CVS, reading the back of a bottle of exfoliating soap.",[],[]
906280502344073216,2017-09-08 22:18:04,False,Ahora mismo estoy pensando en todos mis buenos amigos en Mexico.,[],[]
906218144812994562,2017-09-08 18:10:17,False,"For a guy with a billion dollars and a cool car, Elon Musk is kind of a downer.",[],[]
905828867373391874,2017-09-07 16:23:26,False,I think I found a way to get President Trump to read Obama’s powerful statement about #DACA: https://t.co/lEPIeV67O3,"[{u'indices': [86, 91], u'text': u'DACA'}]",[]
905537398729310208,2017-09-06 21:05:14,False,"I won’t kill you with kindness, but I will mace you with charm.",[],[]
905503431313563648,2017-09-06 18:50:16,False,"“First of all, Your Honor, I prefer the term ‘penis portraits’....”",[],[]
905137256096305153,2017-09-05 18:35:13,False,Remember how enthralling and distracting it could be to play with a bubble machine on a lazy summer’s day?  Can we get Trump one of those?,[],[]
904532201013886976,2017-09-04 02:30:56,False,"Toda/Shukran/Thank You to my Israeli, Palestinian &amp; American crews. This show is only possible because of all you fine people. #ConanIsrael https://t.co/oMShKrE0wQ","[{u'indices': [131, 143], u'text': u'ConanIsrael'}]",[]
904084411594964992,2017-09-02 20:51:35,False,Enjoyed a beautiful day in #TelAvivJaffa picnicking  with an Israeli Arab family. #ConanIsrael #Israel https://t.co/Bg3Rio0Fgo,"[{u'indices': [27, 40], u'text': u'TelAvivJaffa'}, {u'indices': [82, 94], u'text': u'ConanIsrael'}, {u'indices': [95, 102], u'text': u'Israel'}]",[]
903997962405240832,2017-09-02 15:08:04,False,"Besides being beautiful and talented, @GalGadot is easily the nicest superhero I've ever met. #ConanIsrael #Israel #WonderWoman https://t.co/akb7hqgQc6","[{u'indices': [94, 106], u'text': u'ConanIsrael'}, {u'indices': [107, 114], u'text': u'Israel'}, {u'indices': [115, 127], u'text': u'WonderWoman'}]","[{u'id': 35031708, u'indices': [38, 47], u'id_str': u'35031708', u'screen_name': u'GalGadot', u'name': u'Gal Gadot'}]"
903713813521874944,2017-09-01 20:18:57,False,When in Tel-Aviv... #ConanIsrael https://t.co/A4wlOVZUto,"[{u'indices': [20, 32], u'text': u'ConanIsrael'}]",[]
903631836462682114,2017-09-01 14:53:13,False,Talking to Israeli talk show host @alfiguri neck deep in the #SeaofGalilee. I'm the woman on the left. #ConanIsrael #HayomBalayla https://t.co/t280Fby8fZ,"[{u'indices': [61, 74], u'text': u'SeaofGalilee'}, {u'indices': [103, 115], u'text': u'ConanIsrael'}, {u'indices': [116, 129], u'text': u'HayomBalayla'}]","[{u'id': 316291431, u'indices': [34, 43], u'id_str': u'316291431', u'screen_name': u'AlfiGuri', u'name': u'Guri Alfi'}]"
903363717789761536,2017-08-31 21:07:48,False,"This is my 7th day in #Israel, my body is 62% hummus. #ConanIsrael https://t.co/kQRdknjgTa","[{u'indices': [22, 29], u'text': u'Israel'}, {u'indices': [54, 66], u'text': u'ConanIsrael'}]",[]
903325719522103297,2017-08-31 18:36:49,False,Filming on the Syrian border where you can hear gunfire between rebels and regime forces. https://t.co/s32IlYZwkS,[],[]
903268763319103489,2017-08-31 14:50:29,False,Meeting Syrian victims of the civil war being treated at an Israeli hospital near the border. Faces blurred for their safety. https://t.co/MvghboAl80,[],[]
902972047957127172,2017-08-30 19:11:27,False,Today I had my butt kicked by the women of the #IDF Karkl Battalion. That's me in the middle. #SquadGoals #ConanIsrael #Israel https://t.co/ddCm9nZA8D,"[{u'indices': [47, 51], u'text': u'IDF'}, {u'indices': [94, 105], u'text': u'SquadGoals'}, {u'indices': [106, 118], u'text': u'ConanIsrael'}, {u'indices': [119, 126], u'text': u'Israel'}]",[]
902906064118714372,2017-08-30 14:49:15,False,Floating in the #DeadSea and enjoying Garfield in Hebrew. #ConanIsrael #Israel https://t.co/qW1c32sBRl,"[{u'indices': [16, 24], u'text': u'DeadSea'}, {u'indices': [58, 70], u'text': u'ConanIsrael'}, {u'indices': [71, 78], u'text': u'Israel'}]",[]
902701782085668864,2017-08-30 01:17:30,False,Had a great time shooting a scene in one of my favorite shows #Fauda. #ConanIsrael https://t.co/JxVrHxEPkP,"[{u'indices': [62, 68], u'text': u'Fauda'}, {u'indices': [70, 82], u'text': u'ConanIsrael'}]",[]
902644678369083394,2017-08-29 21:30:36,False,Learned to dance the #Palestinian way. #Salam #Palestine #Bethlehem https://t.co/r24j1JfNg2,"[{u'indices': [21, 33], u'text': u'Palestinian'}, {u'indices': [39, 45], u'text': u'Salam'}, {u'indices': [46, 56], u'text': u'Palestine'}, {u'indices': [57, 67], u'text': u'Bethlehem'}]",[]
902551821583081472,2017-08-29 15:21:37,False,Hanging with some Palestinian children in the West Bank Aida Refugee Camp. They are not impressed with my showbiz stories. #Palestine https://t.co/QKTkVp9KD5,"[{u'indices': [123, 133], u'text': u'Palestine'}]",[]
902456993033662464,2017-08-29 09:04:48,False,Smoking #hookah and making friends in the West Bank. #Bethlehem #Palestine https://t.co/rSbUoOSpPU,"[{u'indices': [8, 15], u'text': u'hookah'}, {u'indices': [53, 63], u'text': u'Bethlehem'}, {u'indices': [64, 74], u'text': u'Palestine'}]",[]
902414862084657152,2017-08-29 06:17:23,False,"Visited an Arab Market and became an expert at haggling. If ""haggling"" means ""paying full retail and then crying."" #ConanIsrael #Jerusalem https://t.co/5X7av7pHPh","[{u'indices': [115, 127], u'text': u'ConanIsrael'}, {u'indices': [128, 138], u'text': u'Jerusalem'}]",[]
902186355106750464,2017-08-28 15:09:23,False,I met this man David on the streets of the Old City. He invited me and my camera crew up for a coffee. So we went. #ConanIsrael https://t.co/YYsWxUf4NY,"[{u'indices': [115, 127], u'text': u'ConanIsrael'}]",[]
901966981741535232,2017-08-28 00:37:40,False,I got an exclusive preview of tonight's extra long #GameofThrones finale. https://t.co/RaMC1LHTra,"[{u'indices': [51, 65], u'text': u'GameofThrones'}]",[]
901950455353188352,2017-08-27 23:32:00,False,Help those affected by Hurricane Harvey by visiting https://t.co/4Wn9MKv6pU or texting HARVEY to 90999 to make a $10 donation.,[],[]
901917028721639424,2017-08-27 21:19:11,False,I asked for the craziest drink in #TelAviv and I got it. #ConanIsrael https://t.co/6yb5vz70wT,"[{u'indices': [34, 42], u'text': u'TelAviv'}, {u'indices': [57, 69], u'text': u'ConanIsrael'}]",[]
901545289764360192,2017-08-26 20:42:01,False,"Good luck tonight, @TheNotoriousMMA. Can't wait to see you in those shorts. #MayweatherMcGregor https://t.co/1LmsRD4s7D","[{u'indices': [76, 95], u'text': u'MayweatherMcGregor'}]","[{u'id': 369583954, u'indices': [19, 35], u'id_str': u'369583954', u'screen_name': u'TheNotoriousMMA', u'name': u'Conor McGregor'}]"
901408157934682112,2017-08-26 11:37:06,False,Shalom #Israel. #ConanIsrael https://t.co/JWxyvIAJJ2,"[{u'indices': [7, 14], u'text': u'Israel'}, {u'indices': [16, 28], u'text': u'ConanIsrael'}]",[]
901157368733483009,2017-08-25 19:00:34,False,Brushing up on my Hebrew on my El-Al flight to Israel. #ConanIsrael #Israel #Shalom שלום# https://t.co/sI09fuXOHD,"[{u'indices': [55, 67], u'text': u'ConanIsrael'}, {u'indices': [68, 75], u'text': u'Israel'}, {u'indices': [76, 83], u'text': u'Shalom'}]",[]
900796194464702468,2017-08-24 19:05:23,False,Just searched “Trump psychological profile” and crashed WebMD.,[],[]
900418682697994242,2017-08-23 18:05:17,False,"Even if Big Ben does go silent, I bet it won’t shut up about its new juice cleanse.",[],[]
900042459396362240,2017-08-22 17:10:18,False,"Just think, 100 years from now, our grandchildren will be taking down Senator Kid Rock statues.",[],[]
899677931106172929,2017-08-21 17:01:48,False,When the eclipse comes I’m going to borrow the special glasses my wife uses when I’m shirtless.,[],[]
899371296785547264,2017-08-20 20:43:21,False,"Once asked SNL legend Herb Sargent what's the funniest thing you ever saw? He instantly said, ""Martin and Lewis, 1940's, in a club.""",[],[]
898961549032906752,2017-08-19 17:35:09,False,Can’t we just go back to being on the brink of nuclear war?,[],[]
898607910611148800,2017-08-18 18:09:55,False,"A big hello to new White House communications director Hope Hic--what, fired?",[],[]
898339939615514625,2017-08-18 00:25:06,False,I heard the iPhone 15 won't have any ports or jacks or a screen and it will just be a smooth steel ball and finally we'll all be happy.,[],[]
898017270726668288,2017-08-17 03:02:56,False,I'm leaving America during this divisive time for the relative peace and quiet of the Middle East. https://t.co/RnVTythuzI #ConanIsrael,"[{u'indices': [123, 135], u'text': u'ConanIsrael'}]",[]
897999442137055232,2017-08-17 01:52:05,False,".@TheNotoriousMMA joined us to explain how he's going to ""dismantle"" @FloydMayweather. https://t.co/BHD0aP14Ld #MayweatherMcGregor","[{u'indices': [111, 130], u'text': u'MayweatherMcGregor'}]","[{u'id': 369583954, u'indices': [1, 17], u'id_str': u'369583954', u'screen_name': u'TheNotoriousMMA', u'name': u'Conor McGregor'}, {u'id': 42519612, u'indices': [69, 85], u'id_str': u'42519612', u'screen_name': u'FloydMayweather', u'name': u'Floyd Mayweather'}]"
897865873205194753,2017-08-16 17:01:20,False,"On August 21st, there will be a total eclipse - which will look amazing after you miss it and see pics of it online the next day.",[],[]
897520824223223808,2017-08-15 18:10:14,False,"Had that nightmare where my chute doesn’t open and I hit the ground, and the last thing I hear is a cannibal shouting “5-second rule!”",[],[]
896135174978641921,2017-08-11 22:24:09,False,Breaking: Conan O’Brien sends Conan O’Brien to Israel to help Jared Kushner. Stay tuned. #ConanIsrael #ConanWithoutBorders https://t.co/7ystp6aMqR,"[{u'indices': [89, 101], u'text': u'ConanIsrael'}, {u'indices': [102, 122], u'text': u'ConanWithoutBorders'}]",[]
896076420849389569,2017-08-11 18:30:41,False,Remember when all we had to worry about was Ebola?  Good times.,[],[]
895745655053762560,2017-08-10 20:36:20,True,RT @congenitalhi: One of the most revered television hosts &amp; comedians of all time @ConanOBrien will host #SugarSoiree2017! Tickets: https:…,"[{u'indices': [110, 126], u'text': u'SugarSoiree2017'}]","[{u'id': 392854414, u'indices': [3, 16], u'id_str': u'392854414', u'screen_name': u'congenitalhi', u'name': u'CHI'}, {u'id': 115485051, u'indices': [87, 99], u'id_str': u'115485051', u'screen_name': u'ConanOBrien', u'name': u""Conan O'Brien""}]"
895688756539396096,2017-08-10 16:50:15,False,"Just think, we’ll be able to tell our grandchildren, “I remember the day President Trump tweeted the nuclear launch codes.”",[],[]
895299043433353217,2017-08-09 15:01:40,False,Never been so nostalgic for Kim Jong-il.,[],[]
894633035102027776,2017-08-07 18:55:11,False,"The only tan I’m getting this summer is a caftan!* 
*Excerpted from my Golden Girls spec script.",[],[]
894310885514244096,2017-08-06 21:35:05,False,"I think it’s wrong to just steal honey from the bees, so I always make sure to leave behind a few “Late Night with Conan O’Brien” DVDs.",[],[]
893895669961936897,2017-08-05 18:05:10,False,"You call it day drinking, I call it something unintelligible because I’m day drinking.",[],[]
893558472389804032,2017-08-04 19:45:15,False,"There are three ways to cook a hot dog: Boil, grill, and, I just discovered by accident, dry clean.",[],[]
893213676991377408,2017-08-03 20:55:10,False,Does this man bun make my unicycle look big?,[],[]
892821104594739200,2017-08-02 18:55:13,False,"I still remember summer as a child, when my parents shipped me off to camp for 12 years.",[],[]
892436069551136768,2017-08-01 17:25:14,False,"It’s not fair, people are getting fired so fast at the White House that I don’t get a chance to make fun of them #theMooch","[{u'indices': [113, 122], u'text': u'theMooch'}]",[]
892105217717805056,2017-07-31 19:30:33,False,"Sooner or later, Trump is going to realize that’s just a sack of potatoes in Melania’s bed.",[],[]
891833951198863361,2017-07-31 01:32:38,False,"People are complaining that Beyoncé’s wax likeness doesn’t look like her, but it’s a much closer match than mine: https://t.co/G13ARbcYOr",[],[]
891405503150120960,2017-07-29 21:10:08,False,Pokémon announced that Legendary Pokémon will appear in gyms in the form of Legendary Eggs.  And guess what…nobody gives a legendary crap.,[],[]
891029300769697792,2017-07-28 20:15:14,False,I had the craziest dream last night. I dreamt the Republicans managed to pass a piece of legislation.,[],[]
890644287985025024,2017-07-27 18:45:20,False,Just heard Chris Christie got booed while performing CPR on a choking victim.,[],[]
890286017433022464,2017-07-26 19:01:41,False,“OJ Simpson Paroled” is by far the worst reboot of the summer.,[],[]
889896879550595072,2017-07-25 17:15:24,False,"Trump hired Anthony Scaramucci because he thought his tan qualified him as a ""person of color.""",[],[]
889591287543988224,2017-07-24 21:01:05,False,I miss Comic-Con so much today I went to the DMV just to wait in line.,[],[]
889334430652923905,2017-07-24 04:00:25,False,"So long Comic-Con! After seeing Marvel and DC people coexist in peace, I have hope for the Democrats and Republicans. #SDCC #ConanCon #Hope","[{u'indices': [118, 123], u'text': u'SDCC'}, {u'indices': [124, 133], u'text': u'ConanCon'}, {u'indices': [134, 139], u'text': u'Hope'}]",[]
889311729007677440,2017-07-24 02:30:13,False,"No, that’s not a White Walker interviewing the cast of @GameOfThrones tonight. #ConanCon","[{u'indices': [79, 88], u'text': u'ConanCon'}]","[{u'id': 180463340, u'indices': [55, 69], u'id_str': u'180463340', u'screen_name': u'GameOfThrones', u'name': u'Game Of Thrones'}]"
889287045876637696,2017-07-24 00:52:08,False,"In honor of tonight's #GameOfThrones cast show, @nottjmiller welded himself inside an Iron Throne. https://t.co/FPLui7M0pN #ConanCon","[{u'indices': [22, 36], u'text': u'GameOfThrones'}, {u'indices': [123, 132], u'text': u'ConanCon'}]","[{u'id': 20035593, u'indices': [48, 60], u'id_str': u'20035593', u'screen_name': u'nottjmiller', u'name': u't.j. miller'}]"
889228235434852353,2017-07-23 20:58:27,False,I hereby pardon myself for tweeting this tweet about Trump wanting to pardon himself.,[],[]
888959358775697408,2017-07-23 03:10:01,False,They're fools if they don't cast Aubrey Plaza as Teen Dumbledore. #ConanCon #Pollock https://t.co/96aBLUwEDj,"[{u'indices': [66, 75], u'text': u'ConanCon'}, {u'indices': [76, 84], u'text': u'Pollock'}]",[]
888934241245040641,2017-07-23 01:30:13,False,"Tonight, I ask the cast of #LEGONINJAGOMovie where the hell ""The LEGO Conan Movie"" is. #ConanCon","[{u'indices': [27, 44], u'text': u'LEGONINJAGOMovie'}, {u'indices': [87, 96], u'text': u'ConanCon'}]",[]
888821187769507842,2017-07-22 18:00:59,False,"A female Doctor Who? What's next? (And DON'T say ""a male Conan"")",[],[]
888511516273553408,2017-07-21 21:30:27,False,"Careful out there: If a cosplay Marvel character has sex with a cosplay DC character, the universe explodes. #SDCC","[{u'indices': [109, 114], u'text': u'SDCC'}]",[]
888453485640826881,2017-07-21 17:39:52,False,"Last year I unveiled my superhero suit, but a superhero needs his ride… https://t.co/nfF3iiO2P3 #ConanCon","[{u'indices': [96, 105], u'text': u'ConanCon'}]",[]
888202043294461953,2017-07-21 01:00:43,False,"We have the entire cast of #Kingsman: The Golden Circle on tonight's show, including Storm, Mr. Darcy, The Dude and Magic Mike. #ConanCon","[{u'indices': [27, 36], u'text': u'Kingsman'}, {u'indices': [128, 137], u'text': u'ConanCon'}]",[]
887880828847497216,2017-07-20 03:44:20,False,".@AndyRichter kicked me out of his truck, so I was forced to find alternate transportation to #ConanCon. https://t.co/pqI5SPpdRz","[{u'indices': [94, 103], u'text': u'ConanCon'}]","[{u'id': 165511377, u'indices': [1, 13], u'id_str': u'165511377', u'screen_name': u'AndyRichter', u'name': u'Andy Richter'}]"
887839640706789381,2017-07-20 01:00:40,False,I can’t believe I get to sit down with Will Smith tonight. We haven’t done that since we co-wrote “Summertime” with Jazzy Jeff. #ConanCon,"[{u'indices': [128, 137], u'text': u'ConanCon'}]",[]
887734081366241281,2017-07-19 18:01:12,False,"I just saw a Dumbledore, a Gandalf, and a Doctor Strange make a bag of Cool Ranch Doritos disappear! #Magic #SDCC","[{u'indices': [101, 107], u'text': u'Magic'}, {u'indices': [108, 113], u'text': u'SDCC'}]",[]
887416960010551298,2017-07-18 21:01:05,False,"#SDCC's Hall H holds 6,500 people, almost enough room for a meeting with Donald Trump Jr.","[{u'indices': [0, 5], u'text': u'SDCC'}]",[]
887024448284622849,2017-07-17 19:01:23,False,"Finally, the one week a year when I can walk around dressed like Harley Quinn and not be judged. #SDCC","[{u'indices': [97, 102], u'text': u'SDCC'}]",[]
886737358422454274,2017-07-17 00:00:35,False,"I'm headed to #SDCC to host 4 shows, and promote my new movie, ""Atomic Ginger.” #ConanCon","[{u'indices': [14, 19], u'text': u'SDCC'}, {u'indices': [80, 89], u'text': u'ConanCon'}]",[]
886345920434102272,2017-07-15 22:05:09,False,Has anyone ever bothered to suggest to Amazon what it might like?,[],[]
885963426060804096,2017-07-14 20:45:15,False,"If machines become truly self-aware, that means humanity could still defeat them through “shaming.”    #HeyFatBot","[{u'indices': [103, 113], u'text': u'HeyFatBot'}]",[]
885552001194631174,2017-07-13 17:30:24,False,"The former president of Brazil was just sent to prison.  He was brought down by leaked emails from his son, Former President of Brazil Jr.",[],[]
885310724896989185,2017-07-13 01:31:39,False,.@FullFrontalSamB is so close to raising $1 million for @PPact. Help put them over the top. https://t.co/BNW8bNWmCz,[],"[{u'id': 3420477195, u'indices': [1, 17], u'id_str': u'3420477195', u'screen_name': u'FullFrontalSamB', u'name': u'Full Frontal'}, {u'id': 22162854, u'indices': [56, 62], u'id_str': u'22162854', u'screen_name': u'PPact', u'name': u'Planned Parenthood'}]"
885189686389616641,2017-07-12 17:30:41,False,"The bad news: 22 million people will lose health coverage under the Senate’s plan. The good news: Karen Pence’s 20,000 bees are covered.",[],[]
884867456619212800,2017-07-11 20:10:16,False,I bet 12-year-old Bruce Wayne gave that movie theater a terrible Yelp review.,[],[]
884525241195737090,2017-07-10 21:30:25,False,"Even though we’re in the same time zone, my wife is always one hour ahead of me.",[],[]
884117529718923269,2017-07-09 18:30:19,False,Trump just fulfilled a campaign promise by quietly draining a small swamp outside Tallahassee.,[],[]
883781528597254146,2017-07-08 20:15:10,False,I just completed 100 push-ups. (I started last November.),[],[]
883383911455260672,2017-07-07 17:55:11,False,"Astronomers have discovered 10 new Earth-like planets, 8 of them recently taken over by talking apes.",[],[]
883041688058552320,2017-07-06 19:15:19,False,"Say what you will about the new Ken dolls, I think they’re summer’s most insertable toy!",[],[]
882661700390064128,2017-07-05 18:05:23,False,I keep trying to think of a funny tweet about North Korea having nuclear missiles.  It’s not coming.,[],[]
882274098847547392,2017-07-04 16:25:11,False,"Today, we Americans celebrate our independence from Britain while planning our escape to Canada.",[],[]
881931861089554433,2017-07-03 17:45:15,False,Our country was founded by people who were mad at King George because he refused to show us his taxation statements.,[],[]
881619772408033280,2017-07-02 21:05:08,False,"Fireworks safety tip: blow your fingers off this year, before the AHCA passes.",[],[]
881223410235387905,2017-07-01 18:50:07,False,I think the Russians' ability to hack the internet is vastly overrat-Конан О'Брайен - такой мудак,[],[]
880878070458048512,2017-06-30 19:57:52,False,"You helped us pass 5 million subscribers on YouTube! And to think it all started in this empty office: 
https://t.co/KSKphUOcMX",[],[]
880496363884171269,2017-06-29 18:41:06,False,"Been checking Twitter every five minutes, but thank God, so far @realdonaldtrump hasn't mentioned my facelift.",[],"[{u'id': 25073877, u'indices': [64, 80], u'id_str': u'25073877', u'screen_name': u'realDonaldTrump', u'name': u'Donald J. Trump'}]"
880179847363952640,2017-06-28 21:43:23,False,I’m trying to convince my Seattle in-laws the new travel ban means we can’t visit them this summer.,[],[]
879759766964383744,2017-06-27 17:54:08,False,My Uber driver has a man-bun Ken doll hanging from his rear view mirror.,[],[]
879451110808924162,2017-06-26 21:27:38,False,Mitch McConnell constantly looks like a kid who just stole all the gum.,[],[]
879088083358109697,2017-06-25 21:25:06,False,How long until we can pay for groceries by simply waving a hand over the register? It's already been an hour but they're asking me to leave.,[],[]
879025847784452097,2017-06-25 17:17:48,False,Good luck tonight @Lesdoggg. #BETAwards https://t.co/TAyIAt3ypa,"[{u'indices': [29, 39], u'text': u'BETAwards'}]","[{u'id': 47216804, u'indices': [18, 27], u'id_str': u'47216804', u'screen_name': u'Lesdoggg', u'name': u'Leslie Jones'}]"
878706841269743616,2017-06-24 20:10:11,False,Grilling tip: order in.,[],[]
878305455298289670,2017-06-23 17:35:13,False,ARE YOU SHITTING ME WITH THIS????!!!??? #EvergreenTweet,"[{u'indices': [40, 55], u'text': u'EvergreenTweet'}]",[]
878092289918226432,2017-06-23 03:28:10,False,.@ArnettWill and I traded sick burns and bad puns in the latest #CluelessGamer. #ARMS https://t.co/Cqj3eIsek9,"[{u'indices': [64, 78], u'text': u'CluelessGamer'}, {u'indices': [80, 85], u'text': u'ARMS'}]","[{u'id': 1228516999, u'indices': [1, 12], u'id_str': u'1228516999', u'screen_name': u'arnettwill', u'name': u'Will Arnett\u2122'}]"
877930512366452736,2017-06-22 16:45:19,False,My kids think Edvard Munch is the guy who did a painting of the scream emoji.,[],[]
877584615715852289,2017-06-21 17:50:51,False,"Some say Steve Bannon is the real president, others say he's a Galapagos marine iguana.",[],[]
877239919894290432,2017-06-20 19:01:09,False,Secret Service Fun Fact: 3 out of 4 people caught scaling the White House fence are process servers.,[],[]
876867214225412096,2017-06-19 18:20:09,False,"Amazon bought Whole Foods, so soon I’ll be up late at night drunk-ordering spelt.",[],[]
876504823788601345,2017-06-18 18:20:09,False,My body is a temple in that people lower their heads and cross themselves when they see it.,[],[]
876176390420410369,2017-06-17 20:35:04,False,"From now on, rather than a gendered pronoun, I would like to be referred to as the elusive fifth flavor “umami.”",[],[]
875846800736997376,2017-06-16 22:45:24,False,Dear Mr. Bezos: There are less expensive ways to check out women in yoga pants.,[],[]
875777852087480321,2017-06-16 18:11:25,False,"From photos of Trump’s personal attorney and personal doctor, I’m starting to think he hires people solely based on hair density: https://t.co/ZFHwSj8AGC",[],[]
875431526636412928,2017-06-15 19:15:15,False,Wait a minute. Taylor Swift dropped her entire catalogue on Spotify last week and I'm supposed to think of funny tweets right now? No.,[],[]
874678667137261568,2017-06-13 17:23:39,False,"Just in time for Father's Day, the perfect gift from Jeff Sessions. https://t.co/NtbJK5tZqD",[],[]
874339328901730304,2017-06-12 18:55:15,False,"Just when I thought he couldn’t get any cooler, @JustinTrudeau just showed up in my home and offered to make me crab cakes.",[],"[{u'id': 14260960, u'indices': [48, 62], u'id_str': u'14260960', u'screen_name': u'JustinTrudeau', u'name': u'Justin Trudeau'}]"
874007116096430085,2017-06-11 20:55:09,False,"Before the invention of popcorn, people would just eat dried kernels of corn, then stick their face in a fire until their teeth exploded.",[],[]
873600132830318592,2017-06-10 17:57:57,False,God Bless Adam West https://t.co/9OK7kHNZHS,[],[]
873272292062711810,2017-06-09 20:15:13,False,I’m organizing a “creeps-only” screening of Wonder Woman in my rented storage container.,[],[]
872898657288368129,2017-06-08 19:30:32,False,"Trump wakes up every morning and says, ""Today I'll act like a president."" But then his thumbs say, ""Oh, no, you won't.""",[],[]
872499705736986624,2017-06-07 17:05:14,False,"Tomorrow, me and 12 friends are going to an ESPN Zone to watch the former head of the FBI testify before Congress.",[],[]
872163706322526209,2017-06-06 18:50:06,False,Trump said he plans to privatize air traffic control so I look forward to overhearing my drive-thru cashier landing a plane between orders.,[],[]
826622930675077120,2017-02-01 02:47:19,True,Had a blast stopping by @ConanOBrien today. Hooked him up with the first ever Social Autograph on a @Surface… https://t.co/OQhFC0r0LG,[],"[{u'id': 512613427, u'indices': [3, 19], u'id_str': u'512613427', u'screen_name': u'DangeRussWilson', u'name': u'Russell Wilson'}, {u'id': 115485051, u'indices': [45, 57], u'id_str': u'115485051', u'screen_name': u'ConanOBrien', u'name': u""Conan O'Brien""}, {u'id': 612076511, u'indices': [121, 129], u'id_str': u'612076511', u'screen_name': u'surface', u'name': u'Microsoft Surface'}]"
700150963097571329,2016-02-18 02:52:52,True,LIVE on #Periscope: Talk to #Conan &amp; @SteveYeun live from the set of their K-Pop music video in #Korea! #ConanKorea… https://t.co/eFLPd4vtEp,"[{u'indices': [22, 32], u'text': u'Periscope'}, {u'indices': [42, 48], u'text': u'Conan'}, {u'indices': [114, 120], u'text': u'Korea'}, {u'indices': [122, 133], u'text': u'ConanKorea'}]","[{u'id': 113897988, u'indices': [3, 12], u'id_str': u'113897988', u'screen_name': u'TeamCoco', u'name': u'Team Coco'}, {u'id': 16409285, u'indices': [55, 65], u'id_str': u'16409285', u'screen_name': u'steveyeun', u'name': u'steven yeun'}]"
661631350236053504,2015-11-03 19:49:41,True,"So grateful to our troops. That's why I brought @ConanOBrien to Qatar and he brought @JimmyVMusic, @GracePotter, &amp; @Mulaney. Great show! -mo",[],"[{u'id': 818876014390603776, u'indices': [3, 10], u'id_str': u'818876014390603776', u'screen_name': u'FLOTUS', u'name': u'Melania Trump'}, {u'id': 115485051, u'indices': [60, 72], u'id_str': u'115485051', u'screen_name': u'ConanOBrien', u'name': u""Conan O'Brien""}, {u'id': 2901177544, u'indices': [97, 109], u'id_str': u'2901177544', u'screen_name': u'JimmyVMusic', u'name': u'Jimmy Vivino'}, {u'id': 29859415, u'indices': [111, 123], u'id_str': u'29859415', u'screen_name': u'gracepotter', u'name': u'Grace Potter'}, {u'id': 72423061, u'indices': [131, 139], u'id_str': u'72423061', u'screen_name': u'mulaney', u'name': u'John Mulaney'}]"
661613451601514497,2015-11-03 18:38:33,True,LIVE on #Periscope: #Conan and @GracePotter perform for the troops at Al Udeid Air Base in Qatar. #MissionConan @gr… https://t.co/T9AMnMGsZ9,"[{u'indices': [22, 32], u'text': u'Periscope'}, {u'indices': [34, 40], u'text': u'Conan'}, {u'indices': [112, 125], u'text': u'MissionConan'}]","[{u'id': 113897988, u'indices': [3, 12], u'id_str': u'113897988', u'screen_name': u'TeamCoco', u'name': u'Team Coco'}, {u'id': 29859415, u'indices': [45, 57], u'id_str': u'29859415', u'screen_name': u'gracepotter', u'name': u'Grace Potter'}, {u'id': 1995871, u'indices': [126, 129], u'id_str': u'1995871', u'screen_name': u'gr', u'name': u'Gabriel Radic'}]"
661594309859241984,2015-11-03 17:22:29,True,LIVE on #Periscope: .@FLOTUS Addresses Troops at Al-Udeid Air Base #JoiningForces #MissionConan https://t.co/9RpU6DtnIo,"[{u'indices': [22, 32], u'text': u'Periscope'}, {u'indices': [81, 95], u'text': u'JoiningForces'}, {u'indices': [96, 109], u'text': u'MissionConan'}]","[{u'id': 113897988, u'indices': [3, 12], u'id_str': u'113897988', u'screen_name': u'TeamCoco', u'name': u'Team Coco'}, {u'id': 818876014390603776, u'indices': [35, 42], u'id_str': u'818876014390603776', u'screen_name': u'FLOTUS', u'name': u'Melania Trump'}]"
582982044478767106,2015-03-31 19:05:25,True,RT @TeamCoco: EXCLUSIVE WORLD PREMIERE: We've got @KeithUrban and @EricChurch's new music video #RaiseEmUp: http://t.co/5WH4Dethnd,"[{u'indices': [96, 106], u'text': u'RaiseEmUp'}]","[{u'id': 113897988, u'indices': [3, 12], u'id_str': u'113897988', u'screen_name': u'TeamCoco', u'name': u'Team Coco'}, {u'id': 14790817, u'indices': [50, 61], u'id_str': u'14790817', u'screen_name': u'KeithUrban', u'name': u'Keith Urban'}, {u'id': 18064372, u'indices': [66, 77], u'id_str': u'18064372', u'screen_name': u'ericchurch', u'name': u'Eric Church'}]"
573312500894048257,2015-03-05 02:42:06,True,#ConanCUBA is TONIGHT @ 11/10c on TBS.  Watch the first four minutes now @ http://t.co/WsGrYDcCUa,"[{u'indices': [14, 24], u'text': u'ConanCUBA'}]","[{u'id': 113897988, u'indices': [3, 12], u'id_str': u'113897988', u'screen_name': u'TeamCoco', u'name': u'Team Coco'}]"
529748018900500480,2014-11-04 21:32:24,True,"RT @AndyRichter ""URGENT: #GoVote #GoVote #GoVote http://t.co/YnVOAAoEA9"" http://t.co/BsRhRPJS4Z","[{u'indices': [25, 32], u'text': u'GoVote'}, {u'indices': [33, 40], u'text': u'GoVote'}, {u'indices': [41, 48], u'text': u'GoVote'}]","[{u'id': 165511377, u'indices': [3, 15], u'id_str': u'165511377', u'screen_name': u'AndyRichter', u'name': u'Andy Richter'}]"
345254867973050368,2013-06-13 19:02:29,True,"""Hey, I'm really mastering this Vine thing."" - @ConanOBrien #OneVineDay https://t.co/RdRaaexr2d","[{u'indices': [74, 85], u'text': u'OneVineDay'}]","[{u'id': 113897988, u'indices': [3, 12], u'id_str': u'113897988', u'screen_name': u'TeamCoco', u'name': u'Team Coco'}, {u'id': 115485051, u'indices': [61, 73], u'id_str': u'115485051', u'screen_name': u'ConanOBrien', u'name': u""Conan O'Brien""}]"
279359633771073536,2012-12-13 22:58:21,True,"By the way, I'm the one on the right. RT @Psy_Oppa ""with @ConanOBrien...nice guy and tall. lol http://t.co/jgdb6fas""",[],"[{u'id': 740216334, u'indices': [41, 50], u'id_str': u'740216334', u'screen_name': u'psy_oppa', u'name': u'PSY'}, {u'id': 115485051, u'indices': [57, 69], u'id_str': u'115485051', u'screen_name': u'ConanOBrien', u'name': u""Conan O'Brien""}]"
266365741362708480,2012-11-08 02:25:16,True,"Twitter Exclusive.
The Winner of the @JustSayinApp Stand-Up Contest is @SamuelJComroe. Sam will appear on @ConanOBrien on Nov 13. Cheers.",[],"[{u'id': 20015311, u'indices': [3, 16], u'id_str': u'20015311', u'screen_name': u'rickygervais', u'name': u'Ricky Gervais'}, {u'id': 485124571, u'indices': [55, 68], u'id_str': u'485124571', u'screen_name': u'JustSayinApp', u'name': u'Just Sayin Messenger'}, {u'id': 71306819, u'indices': [89, 103], u'id_str': u'71306819', u'screen_name': u'SamuelJComroe', u'name': u'Samuel J Comroe'}, {u'id': 115485051, u'indices': [124, 136], u'id_str': u'115485051', u'screen_name': u'ConanOBrien', u'name': u""Conan O'Brien""}]"
