id,created_at,retweet,text,hashtags,user_mentions
929082177882505216,2017-11-10 20:23:47,False,This week's top search trends are just like the movies—complete with breakfast at Tiffany’s and uniting with wizards → https://t.co/r1SudDrxiv https://t.co/h3jy9QM8T1,[],[]
929060715796860928,2017-11-10 18:58:30,False,"@lufc4625 Hi Jay, thanks for the feedback about Google Assistant. You can also submit it in-app via Explore &gt; ⠇&gt; Send feedback.",[],"[{u'id': 1713084830, u'indices': [0, 9], u'id_str': u'1713084830', u'screen_name': u'lufc4625', u'name': u'Jay \U0001f60e'}]"
929060560171405314,2017-11-10 18:57:53,False,@bradleytroth Hi Brad. Let's try the steps in this guide to customize your feed in the Google app: https://t.co/7NzS0Zgd7p. Does that help?,[],"[{u'id': 386200623, u'indices': [0, 13], u'id_str': u'386200623', u'screen_name': u'bradleytroth', u'name': u'Brad'}]"
929051743123513344,2017-11-10 18:22:51,True,"RT @YouTube: This #VeteransDay, we want to say thank you to those who’ve served their country and shared their stories with the world → htt…","[{u'indices': [18, 30], u'text': u'VeteransDay'}]","[{u'id': 10228272, u'indices': [3, 11], u'id_str': u'10228272', u'screen_name': u'YouTube', u'name': u'YouTube'}]"
929045410752204802,2017-11-10 17:57:41,False,@dlew97 Hi David. Let's see if we can help. Look out for a DM with next steps.,[],"[{u'id': 28257004, u'indices': [0, 7], u'id_str': u'28257004', u'screen_name': u'dlew97', u'name': u'David Lew'}]"
929026117217820673,2017-11-10 16:41:01,False,Go from a sandstone palace in India to a pink staircase in Singapore with some of our favorite #teampixel finds from this week → https://t.co/JHdPnXKGsl https://t.co/FaEI7GoDbw,"[{u'indices': [95, 105], u'text': u'teampixel'}]",[]
928707404014817280,2017-11-09 19:34:34,False,“We want to go from thousands of organizations solving machine learning problems to millions.” - Google Senior Fellow Jeff Dean on how we're working to make AI accessible to more people. https://t.co/EF6m2EJBga,[],[]
928673459218952192,2017-11-09 17:19:41,False,"To support those affected by recent California wildfires, we're banding together and matching your donations for North Bay fire relief → https://t.co/GJJE8LUWn5 #BandTogetherBayArea https://t.co/akVC4zYARX","[{u'indices': [161, 181], u'text': u'BandTogetherBayArea'}]",[]
928410699600154624,2017-11-08 23:55:34,False,Simplicity is 🔑 for a successful portrait. Focus in on more tips for using portrait mode on the new Pixel 2 → https://t.co/d1iw4hw6QP https://t.co/4WQjmbnwVZ,[],[]
928393337144451072,2017-11-08 22:46:34,True,"RT @madewithcode: Did you know Ada Lovelace became the world’s first debugger by fixing her own error? 💪 🐞 This #STEMDay, take a cue from t…","[{u'indices': [112, 120], u'text': u'STEMDay'}]","[{u'id': 410537231, u'indices': [3, 16], u'id_str': u'410537231', u'screen_name': u'madewithcode', u'name': u'MadeWithCode'}]"
928367378844360704,2017-11-08 21:03:26,False,"122 years ago today, X-rays were discovered by German engineer and physicist Wilhelm Röntgen, who went on to win the first Nobel Prize in physics. https://t.co/Sdn7oUPU4l",[],[]
928339141405810688,2017-11-08 19:11:13,False,"From serving their countries to serving their communities, read how Google @studentvets scholars are using technology to help others → https://t.co/Tl8prEcGLN #HonoringVets https://t.co/Wbh3cngRxD","[{u'indices': [159, 172], u'text': u'HonoringVets'}]","[{u'id': 25430081, u'indices': [75, 87], u'id_str': u'25430081', u'screen_name': u'studentvets', u'name': u'Student Veterans'}]"
928321304242954240,2017-11-08 18:00:20,False,Hear what makes the machine learning makers of the Google Brain team geek out about deep-learning research and AI → https://t.co/Fay126P0Qj https://t.co/k4p9UCR12m,[],[]
928063411900026880,2017-11-08 00:55:34,False,Go the distance to create that perfect blurred background. Capture more tips for portrait mode on Pixel 2 here → https://t.co/TQOQ79Hwxm https://t.co/21wddlEIUX,[],[]
928054477646647296,2017-11-08 00:20:04,False,"@BenjaminMangold Hi Benjamin. Without stating your email address, can you confirm if this is a consumer account (ending in @gmail.com) or G Suite account?",[],"[{u'id': 64946383, u'indices': [0, 16], u'id_str': u'64946383', u'screen_name': u'BenjaminMangold', u'name': u'Benjamin Mangold'}, {u'id': 38679388, u'indices': [123, 129], u'id_str': u'38679388', u'screen_name': u'gmail', u'name': u'Gmail'}]"
928054342585896960,2017-11-08 00:19:32,False,@catologay Hi there. Are you getting a specific error message? Give us the exact wording &amp; we'll look into it.,[],[]
928053877085261824,2017-11-08 00:17:41,False,@AllTangled Hi there. Have you tried following these steps to regain access to the account: https://t.co/58jfArmz4G? Keep us posted.,[],"[{u'id': 594286147, u'indices': [0, 11], u'id_str': u'594286147', u'screen_name': u'AllTangled', u'name': u'AllThingsTangled'}]"
928053469675769856,2017-11-08 00:16:04,False,@Eliasxciv Hi there. It might be a good idea to check your recent activity: Go to https://t.co/0ka31rw2EP &amp; follow the steps to review.,[],"[{u'id': 315421225, u'indices': [0, 10], u'id_str': u'315421225', u'screen_name': u'Eliasxciv', u'name': u'Elias'}]"
928053131078000640,2017-11-08 00:14:43,False,@Kristol_ Hi Kristol. It might be a good idea to check your recent activity: Go to https://t.co/0ka31rw2EP &amp; follow the steps to review.,[],"[{u'id': 4775404393, u'indices': [0, 9], u'id_str': u'4775404393', u'screen_name': u'Kristol_', u'name': u'Kristol'}]"
928051421567692800,2017-11-08 00:07:55,False,@snxwcat Hi there. It might be a good idea to check your recent activity: Go to https://t.co/0ka31rw2EP &amp; follow the steps to review.,[],"[{u'id': 4051553639, u'indices': [0, 8], u'id_str': u'4051553639', u'screen_name': u'snxwcat', u'name': u'snowcat'}]"
928051257075486720,2017-11-08 00:07:16,False,"@Jejejs15 Got it. Just to confirm, did you try resetting your password w/ the steps on this page: https://t.co/58jfArmz4G? Let us know.",[],"[{u'id': 889595442299797504, u'indices': [0, 9], u'id_str': u'889595442299797504', u'screen_name': u'Jejejs15', u'name': u'Jejejs'}]"
928050984605159425,2017-11-08 00:06:11,False,@saurabhrijhwani Hi there. Are you getting a specific error message? Give us the exact wording &amp; we'll look into it.,[],"[{u'id': 237707143, u'indices': [0, 16], u'id_str': u'237707143', u'screen_name': u'saurabhrijhwani', u'name': u'Saurabh Rijhwani'}]"
928050747215876096,2017-11-08 00:05:15,False,"@nkah92117907 Hi there. By chance, did you already try recovering your account by going through these steps: https://t.co/58jfArmz4G? Let us know.",[],"[{u'id': 763737494382862341, u'indices': [0, 13], u'id_str': u'763737494382862341', u'screen_name': u'nkah92117907', u'name': u'Crazy'}]"
928050453941837824,2017-11-08 00:04:05,False,"@hill_imani Uh oh. Just to confirm, did you try resetting your password with the steps on this page: https://t.co/58jfArmz4G? Let us know.",[],"[{u'id': 1415869010, u'indices': [0, 11], u'id_str': u'1415869010', u'screen_name': u'hill_imani', u'name': u'They call me Ms.Hill'}]"
928050358877814785,2017-11-08 00:03:42,False,@sidnnneeeyy Hmm. Let's see if we can help. Please follow us and let us know when you have so we can share next steps through DM.,[],"[{u'id': 22254284, u'indices': [0, 12], u'id_str': u'22254284', u'screen_name': u'sidnnneeeyy', u'name': u'\U0001f9dc\U0001f3fd\u200d\u2642\ufe0f'}]"
928035675537948672,2017-11-07 23:05:21,False,"In a new collection with @EnglishHeritage, @googlearts shines a light on 5,000 years of England's history → https://t.co/rKdGJBCku5 https://t.co/ZExhMgT3Vz",[],"[{u'id': 3115678678, u'indices': [25, 41], u'id_str': u'3115678678', u'screen_name': u'EnglishHeritage', u'name': u'English Heritage'}, {u'id': 248965136, u'indices': [43, 54], u'id_str': u'248965136', u'screen_name': u'googlearts', u'name': u'Google Arts&Culture'}]"
928032788456108033,2017-11-07 22:53:53,False,"@LekdhenMusk Hi Lekdhen, thanks for the feedback. We recommend also suggesting this feature request within the Assistant via Menu &gt; Help &amp; feedback?",[],"[{u'id': 801855285493202944, u'indices': [0, 12], u'id_str': u'801855285493202944', u'screen_name': u'LekdhenMusk', u'name': u'Lekdhen Musk'}]"
928032358678302720,2017-11-07 22:52:10,False,"@Stripeh Hi there. Try tapping the 3-dot menu on your weather card and selecting ""Change temperature units to C"". Let us know if that works.",[],"[{u'id': 174747738, u'indices': [0, 8], u'id_str': u'174747738', u'screen_name': u'Stripeh', u'name': u'Stripe'}]"
928008290579238912,2017-11-07 21:16:32,False,Say goodbye to lines and hello to 🍝 🍣 🌮 🍕. Wait times for restaurants are rolling out soon on Search and Maps → https://t.co/iPt66uG8vi https://t.co/elnhZGT9EC,[],[]
927997026289246208,2017-11-07 20:31:47,False,@moriahdelrey Hi there. It might be a good idea to check your recent activity: Go to https://t.co/0ka31rw2EP &amp; follow the steps to review.,[],"[{u'id': 1340881213, u'indices': [0, 13], u'id_str': u'1340881213', u'screen_name': u'moriahdelrey', u'name': u'lil mo'}]"
927996888028205056,2017-11-07 20:31:14,False,@lynndryzer Hi there. Are you getting a specific message while trying to access your Google account? Give us the exact wording &amp; we'll look into it.,[],"[{u'id': 922081987, u'indices': [0, 11], u'id_str': u'922081987', u'screen_name': u'lynndryzer', u'name': u'Lynn Dryzer'}]"
927996769581051905,2017-11-07 20:30:45,False,@speedboiae86 Glad you're back in. We suggest setting up recovery options to prevent losing access in the future: https://t.co/s6o6KiLrTO.,[],"[{u'id': 610158655, u'indices': [0, 13], u'id_str': u'610158655', u'screen_name': u'speedboiae86', u'name': u'Travis Swain'}]"
927996706830118912,2017-11-07 20:30:30,False,"@genabena39 Hi Gena. Just to confirm, did you try resetting your password w/ the steps on this page: https://t.co/58jfArmz4G? Let us know.",[],"[{u'id': 2942362084, u'indices': [0, 11], u'id_str': u'2942362084', u'screen_name': u'genabena39', u'name': u'Gena Brown MetalMama'}]"
927994919528038401,2017-11-07 20:23:24,False,@eyecandyatlanta Hi there. Are you getting a specific message while trying to access your Google account? Give us the exact wording &amp; we'll look into it.,[],"[{u'id': 182709031, u'indices': [0, 16], u'id_str': u'182709031', u'screen_name': u'eyecandyatlanta', u'name': u'Taron Latson'}]"
927994760660471815,2017-11-07 20:22:46,False,@shrinerp Hi Paul. We suggest adding extra layers of security to your Google account w/ these tips: https://t.co/4iM0oCSLgp. Hope this helps.,[],"[{u'id': 18772294, u'indices': [0, 9], u'id_str': u'18772294', u'screen_name': u'shrinerp', u'name': u'Paul Shriner'}]"
927994470771150849,2017-11-07 20:21:37,False,"@Donovanfrank121 Hi Francis. Just to confirm, have you completed these steps to regain access to the account: https://t.co/58jfArmz4G? Let us know.",[],"[{u'id': 755398878694748160, u'indices': [0, 16], u'id_str': u'755398878694748160', u'screen_name': u'Donovanfrank121', u'name': u'Francis R Donovan'}]"
927994202654498828,2017-11-07 20:20:33,False,@ESTHARACHIE Hi Rachel. We'd like to move the conversation to DM. Please follow us and let us know when you have.,[],"[{u'id': 916935534823464960, u'indices': [0, 12], u'id_str': u'916935534823464960', u'screen_name': u'ESTHARACHIE', u'name': u'Rachel LEE DELLERMAN'}]"
927994074921095168,2017-11-07 20:20:03,False,@carlw79 Hmm. We can only help the account's owner in recovery. Have her reach out to us on Twitter or post to our forums at https://t.co/SdMkqWFfXB.,[],"[{u'id': 230384491, u'indices': [0, 8], u'id_str': u'230384491', u'screen_name': u'carlw79', u'name': u'Carl Wright'}]"
927993582530723841,2017-11-07 20:18:06,False,@IamTHEDiDi Glad it was caught in time! You might want to add these extra security layers to your Google account: https://t.co/4iM0oCSLgp.,[],"[{u'id': 634909239, u'indices': [0, 11], u'id_str': u'634909239', u'screen_name': u'IamTHEDiDi', u'name': u'The DiDi \u10e6\u266c\u266a\u266b\u30c4\U0001f389'}]"
927993115209883652,2017-11-07 20:16:14,False,@XxRaiderxX12 Hi there. We'd like to help. Did you already try resetting your Google acct password with these steps: https://t.co/58jfArmz4G? Let us know.,[],"[{u'id': 771774619606855680, u'indices': [0, 13], u'id_str': u'771774619606855680', u'screen_name': u'XxRaiderxX12', u'name': u'MarshAden'}]"
927992944648491010,2017-11-07 20:15:33,False,@Thebodytechnic1 Oh no! Are you getting a specific error message? Give us the exact wording &amp; we'll look into it.,[],"[{u'id': 907817708208738306, u'indices': [0, 16], u'id_str': u'907817708208738306', u'screen_name': u'Thebodytechnic1', u'name': u'Thebodytechnician'}]"
927992816759959554,2017-11-07 20:15:03,False,@swanzmatt Hi there. Could you tell us more about what's going on? We'll see what we can do to help.,[],"[{u'id': 127258023, u'indices': [0, 10], u'id_str': u'127258023', u'screen_name': u'swanzmatt', u'name': u'Matt'}]"
927992195000492032,2017-11-07 20:12:35,False,@ohsixoneoh Hi there. It might be a good idea to check your recent activity. Follow these steps to review: https://t.co/0ka31rw2EP.,[],"[{u'id': 501464548, u'indices': [0, 11], u'id_str': u'501464548', u'screen_name': u'ohsixoneoh', u'name': u'ohsixoneoh'}]"
927982512047054848,2017-11-07 19:34:06,False,Today we’re sharing new hyper-local air quality findings from 100K miles of #StreetView car data across California → https://t.co/tbtzyvaKif https://t.co/OpDG8up8vE,"[{u'indices': [76, 87], u'text': u'StreetView'}]",[]
927980074741231616,2017-11-07 19:24:25,False,"@Imdino320 Hi Dinesh. Just to confirm, did you try resetting your password w/ the steps on this page: https://t.co/58jfArmz4G? Let us know.",[],"[{u'id': 744121680302317568, u'indices': [0, 10], u'id_str': u'744121680302317568', u'screen_name': u'Imdino320', u'name': u'Dinesh'}]"
927979855219654658,2017-11-07 19:23:33,False,@ricsethi Hi again. We've sent you a DM with the next steps. Please check and let us know if you have any questions.,[],"[{u'id': 2421881689, u'indices': [0, 9], u'id_str': u'2421881689', u'screen_name': u'ricsethi', u'name': u'R!cha'}]"
927979684670918657,2017-11-07 19:22:52,False,@lefezza Hi there. We'd like to move the conversation to DM. Please follow us and let us know when you have.,[],"[{u'id': 491277635, u'indices': [0, 8], u'id_str': u'491277635', u'screen_name': u'lefezza', u'name': u'Irfizzanov'}]"
927979121229037569,2017-11-07 19:20:38,False,@Livyben Hi there. It might be a good idea to check your recent activity: Go to https://t.co/0ka31rw2EP &amp; follow the steps to review.,[],"[{u'id': 118336607, u'indices': [0, 8], u'id_str': u'118336607', u'screen_name': u'Livyben', u'name': u'livv'}]"
927979003314614283,2017-11-07 19:20:10,False,@tylerparsons09 Glad you're back in. Feel free to reach out if you ever have any Google account questions in the future.,[],"[{u'id': 2513529211, u'indices': [0, 15], u'id_str': u'2513529211', u'screen_name': u'tylerparsons09', u'name': u'tpar69/Tyler P.'}]"
927978494340091905,2017-11-07 19:18:08,False,@UcantBMorelock Hi there. Do you have 2-Step Verification enabled? Try these tips if you're unable to receive codes: https://t.co/fX9yYNBcpx.,[],"[{u'id': 355556079, u'indices': [0, 15], u'id_str': u'355556079', u'screen_name': u'UcantBMorelock', u'name': u'Brian James Morelock'}]"
927978355542118401,2017-11-07 19:17:35,False,"@Candycorex Hmm. Just to confirm, have you completed these steps to regain access to the account: https://t.co/58jfArmz4G? Keep us posted.",[],"[{u'id': 255097821, u'indices': [0, 11], u'id_str': u'255097821', u'screen_name': u'Candycorex', u'name': u'Kaylee Candycore'}]"
927978156656676865,2017-11-07 19:16:48,False,"@AnemicVamp76 Hi there. Just to confirm, have you tried following these steps to regain access to the account: https://t.co/58jfArmz4G? Let us know.",[],"[{u'id': 3353921452, u'indices': [0, 13], u'id_str': u'3353921452', u'screen_name': u'AnemicVamp76', u'name': u'Cadkins'}]"
927978019309924353,2017-11-07 19:16:15,False,"@skyhardy1000 Hi Sachin. Just to confirm, have you tried following these steps to regain access to the account: https://t.co/58jfArmz4G? Let us know.",[],"[{u'id': 924858615529275392, u'indices': [0, 13], u'id_str': u'924858615529275392', u'screen_name': u'skyhardy1000', u'name': u'Sachin Kumar'}]"
927977258584891397,2017-11-07 19:13:14,False,@Ahmedka1323 Hi Ahmed. Are you getting a specific error message when you try to sign in? Give us the exact wording &amp; we'll look into it.,[],"[{u'id': 861380250932047875, u'indices': [0, 12], u'id_str': u'861380250932047875', u'screen_name': u'Ahmedka1323', u'name': u'Ahmed'}]"
927977077646790656,2017-11-07 19:12:30,False,@tayloreputasyon Hi there. Tell us more about what's going on with your Google account. We'll see what we can do to help.,[],[]
927976936596484101,2017-11-07 19:11:57,False,@schwerd Mind if we jump in? Are you getting a specific error message? Give us the exact wording &amp; we'll look into it.,[],"[{u'id': 755411, u'indices': [0, 8], u'id_str': u'755411', u'screen_name': u'schwerd', u'name': u'Stephen Schwerdfeger'}]"
927976762314838020,2017-11-07 19:11:15,False,@DennoeP Hi there. Let's see if we can help. Look out for a DM with next steps.,[],"[{u'id': 396493896, u'indices': [0, 8], u'id_str': u'396493896', u'screen_name': u'DennoeP', u'name': u'Dennoe'}]"
927976541811871744,2017-11-07 19:10:23,False,@jacks7girl Hi there. Have you tried following these steps to regain access to the account: https://t.co/58jfArmz4G? Keep us posted.,[],"[{u'id': 1368439099, u'indices': [0, 11], u'id_str': u'1368439099', u'screen_name': u'jacks7girl', u'name': u'tameikae'}]"
927976279147778055,2017-11-07 19:09:20,False,"@MichaelR8783 Hi Michael. Just to confirm, have you tried following these steps to regain access to the account: https://t.co/58jfArmz4G? Let us know.",[],"[{u'id': 1873617486, u'indices': [0, 13], u'id_str': u'1873617486', u'screen_name': u'MichaelR8783', u'name': u'Michael Rivera'}]"
927976017444163584,2017-11-07 19:08:18,False,@netstoke Hi there. Tell us more about what's going on with your Google account. We'll see what we can do to help.,[],"[{u'id': 719369391507263488, u'indices': [0, 9], u'id_str': u'719369391507263488', u'screen_name': u'netstoke', u'name': u'N\u20acT \u2638 $T\xd6K\u20ac\u2122'}]"
927975802431508480,2017-11-07 19:07:26,False,"@JacobHorner94 Hi Jacob. Just to confirm, have you tried following these steps to regain access to the account: https://t.co/58jfArmz4G? Let us know.",[],"[{u'id': 581361775, u'indices': [0, 14], u'id_str': u'581361775', u'screen_name': u'JacobHorner94', u'name': u'Jacob Horner'}]"
927975673397960704,2017-11-07 19:06:56,False,"@JohronJetSon Hi Johron. You can skip that Q, but we suggest going through as many steps as you can: https://t.co/58jfArmz4G. Have you done this already?",[],"[{u'id': 259585987, u'indices': [0, 13], u'id_str': u'259585987', u'screen_name': u'JohronJetSon', u'name': u'Johron Jet$on'}]"
927975533555736576,2017-11-07 19:06:22,False,@kendrickkim2000 Hi Kendrick. Here's some advice for determining if an email is genuine: https://t.co/KyILICsKXi. Hope this helps.,[],"[{u'id': 24004575, u'indices': [0, 16], u'id_str': u'24004575', u'screen_name': u'kendrickkim2000', u'name': u'Kendrick Kim'}]"
927975362423869440,2017-11-07 19:05:42,False,@Emusicismylife3 Hi there. Are you getting a specific error message? Give us the exact wording &amp; we'll look into it.,[],"[{u'id': 3908244089, u'indices': [0, 16], u'id_str': u'3908244089', u'screen_name': u'Emusicismylife3', u'name': u'E_musicismylife'}]"
927975292941062145,2017-11-07 19:05:25,False,@ian_poligrates Hi Christian. It might be a good idea to check your recent activity: Go to https://t.co/0ka31rw2EP &amp; follow the steps to review.,[],"[{u'id': 79368358, u'indices': [0, 15], u'id_str': u'79368358', u'screen_name': u'ian_poligrates', u'name': u'Christian Poligrates'}]"
927975186560897027,2017-11-07 19:05:00,False,@Dougie4415 Hi there. Could you tell us more about what's going on with your Google account? We'll see what w can do to help.,[],"[{u'id': 838616300, u'indices': [0, 11], u'id_str': u'838616300', u'screen_name': u'Dougie4415', u'name': u'Dougie'}]"
927974723979567104,2017-11-07 19:03:09,False,"@stevezieskidoo Mind if we jump in? If there's something different about how you're signing in, we may need to verify it's you: https://t.co/bc7pnDU40d.",[],"[{u'id': 91111937, u'indices': [0, 15], u'id_str': u'91111937', u'screen_name': u'stevezieskidoo', u'name': u'allhustlenohands'}]"
927974662700748800,2017-11-07 19:02:55,False,@akllewellyn You're welcome! We'd also suggest adding extra layers of security to your Google account with these tips: https://t.co/4iM0oCSLgp.,[],"[{u'id': 749202704120049664, u'indices': [0, 12], u'id_str': u'749202704120049664', u'screen_name': u'akllewellyn', u'name': u'Alex Llewellyn'}]"
927974597873537024,2017-11-07 19:02:39,False,@Ronp203 Hmm. Let's see if we can help. Look out for a DM with next steps.,[],"[{u'id': 800700910569521152, u'indices': [0, 8], u'id_str': u'800700910569521152', u'screen_name': u'Ronp203', u'name': u'Ya Boy RonP!'}]"
927974465715232770,2017-11-07 19:02:08,False,@iDudeDeveloper Hmm. Let's see if we can help. Please follow us and let us know when you have so we can share next steps through DM.,[],"[{u'id': 878965858076426240, u'indices': [0, 15], u'id_str': u'878965858076426240', u'screen_name': u'iDudeDeveloper', u'name': u'Dude\U0001f913'}]"
927969129981796352,2017-11-07 18:40:56,False,Hope you're hungry—today's #GoogleDoodle is the perfect combination of sweet and salty in celebration of Pad Thai → https://t.co/sMXqLsrk3L https://t.co/CuezeNbxI2,"[{u'indices': [27, 40], u'text': u'GoogleDoodle'}]",[]
927951227194826754,2017-11-07 17:29:47,False,"All of the elements to wish a HBD to physicist and chemist Marie Curie, the first woman to win a Nobel Prize—and first person to win twice. https://t.co/Y9PgwFRHUi",[],[]
927779351889874945,2017-11-07 06:06:49,False,"@Shwnwz Hi there. Just to confirm, did you try resetting your password with the steps on this page: https://t.co/58jfArmz4G? Let us know.",[],"[{u'id': 1858755506, u'indices': [0, 7], u'id_str': u'1858755506', u'screen_name': u'Shwnwz', u'name': u'Shwnwz'}]"
927778991137787904,2017-11-07 06:05:23,False,@jlrezac Hi Jess. It might be a good idea to check your recent activity: Go to https://t.co/0ka31rw2EP &amp; follow the steps to review.,[],"[{u'id': 12928202, u'indices': [0, 8], u'id_str': u'12928202', u'screen_name': u'jlrezac', u'name': u'Jess Rezac'}]"
927776930476232704,2017-11-07 05:57:12,False,@DJ_REL Hi there. Are you getting a specific error message? Give us the exact wording &amp; we'll look into it.,[],"[{u'id': 309273194, u'indices': [0, 7], u'id_str': u'309273194', u'screen_name': u'DJ_REL', u'name': u'REL'}]"
927774690126585856,2017-11-07 05:48:18,False,"@julie_cain_71 Hi Julie. Have her send us a tweet &amp; we'll look into this. In the meantime, make sure she's tried https://t.co/58jfArmz4G.",[],"[{u'id': 4228020614, u'indices': [0, 14], u'id_str': u'4228020614', u'screen_name': u'julie_cain_71', u'name': u'Julie Cain'}]"
927774372689072129,2017-11-07 05:47:02,False,@stache4stache Hi there. Are you getting a specific error message? Give us the exact wording &amp; we'll look into it.,[],"[{u'id': 2850903436, u'indices': [0, 14], u'id_str': u'2850903436', u'screen_name': u'stache4stache', u'name': u'Stache4Stache'}]"
927774181231652864,2017-11-07 05:46:16,False,"@DannnMSP Hi there. Just to confirm, did you try resetting your password w/ the steps on this page: https://t.co/58jfArmz4G? Let us know.",[],"[{u'id': 925340461828468736, u'indices': [0, 9], u'id_str': u'925340461828468736', u'screen_name': u'DannnMSP', u'name': u'Dan MSP'}]"
927773876171485184,2017-11-07 05:45:03,False,@Hannah_Baker11 Hi Hannah. It might be a good idea to check your recent activity: Go to https://t.co/0ka31rw2EP &amp; follow the steps to review.,[],"[{u'id': 2804797114, u'indices': [0, 15], u'id_str': u'2804797114', u'screen_name': u'Hannah_Baker11', u'name': u'Hannah Baker'}]"
927773322636541952,2017-11-07 05:42:51,False,@rsiwala Hi Rommel. Are you getting a specific error message when you try to sign in? Give us the exact wording &amp; we'll look into it.,[],"[{u'id': 103236188, u'indices': [0, 8], u'id_str': u'103236188', u'screen_name': u'rsiwala', u'name': u'Rommel Raleigh'}]"
927773228092874753,2017-11-07 05:42:29,False,@heather_call Hi Heather. Tell us more about what's going on with your Google account. We'd be glad to try and help.,[],"[{u'id': 503767880, u'indices': [0, 13], u'id_str': u'503767880', u'screen_name': u'heather_call', u'name': u'Heather Call'}]"
927773105329704960,2017-11-07 05:42:00,False,"@ranjith_k_kumar Hi Ranjith. Just to confirm, have you tried following these steps to regain access to the account: https://t.co/58jfArmz4G? Let us know.",[],"[{u'id': 281967307, u'indices': [0, 16], u'id_str': u'281967307', u'screen_name': u'ranjith_k_kumar', u'name': u'Ranjith'}]"
927772928120369152,2017-11-07 05:41:17,False,@arjayorjing Got it. This guide may help recover your account: https://t.co/cmG49R4sWa. Let us know how it goes.,[],"[{u'id': 3302183784, u'indices': [0, 12], u'id_str': u'3302183784', u'screen_name': u'arjayorjing', u'name': u'Jing Arjay'}]"
927772593049837569,2017-11-07 05:39:58,False,@AnthonyDelucV Hi Anthony. It might be a good idea to check your recent activity: Go to https://t.co/0ka31rNDwn &amp; follow the steps to review.,[],"[{u'id': 350261828, u'indices': [0, 14], u'id_str': u'350261828', u'screen_name': u'AnthonyDelucV', u'name': u'Anthony Deluca'}]"
927772498745323520,2017-11-07 05:39:35,False,"@kumomaikeru Hi Mikeel. Just to confirm, have you tried following these steps to regain access to the account: https://t.co/58jfArmz4G? Let us know.",[],"[{u'id': 226023559, u'indices': [0, 12], u'id_str': u'226023559', u'screen_name': u'kumomaikeru', u'name': u'Mikeel Ara\xf1a'}]"
927772260554944513,2017-11-07 05:38:38,False,@McoyiMthokozisi Mind if we jump in? Did you try following these steps to regain access to the account: https://t.co/58jfArmz4G? Keep us posted.,[],"[{u'id': 919692829349294081, u'indices': [0, 16], u'id_str': u'919692829349294081', u'screen_name': u'McoyiMthokozisi', u'name': u'Mthokozisi Mcoyi'}]"
927770563212402689,2017-11-07 05:31:54,False,"@hannahlucyxo Hi Hannah. If he sends us a tweet, we'll see what we can do to help. In the meantime, have him try: https://t.co/58jfArmz4G.",[],"[{u'id': 722115147817435136, u'indices': [0, 13], u'id_str': u'722115147817435136', u'screen_name': u'hannahlucyxo', u'name': u'hannah'}]"
927770171560820736,2017-11-07 05:30:20,False,@BabyGotTrolls Hi there. Do you have 2-Step Verification enabled? Try these tips if you're unable to receive codes: https://t.co/fX9yYNBcpx.,[],"[{u'id': 872814187201806337, u'indices': [0, 14], u'id_str': u'872814187201806337', u'screen_name': u'BabyGotTrolls', u'name': u'Scoopski Potatoes'}]"
927769633708478464,2017-11-07 05:28:12,False,@kmbrlyhcktt Hi Kimberley. We suggest adding extra layers of security to your Google account w/ these tips: https://t.co/4iM0oCSLgp. Hope this helps.,[],"[{u'id': 69061303, u'indices': [0, 12], u'id_str': u'69061303', u'screen_name': u'kmbrlyhcktt', u'name': u'kimberley'}]"
927769577039294465,2017-11-07 05:27:58,False,@9Baron9 Hi there. Try these tips if you're unable to receive 2-Step Verification Codes: https://t.co/iFT0OBqbkN. Hope that helps.,[],"[{u'id': 610280481, u'indices': [0, 8], u'id_str': u'610280481', u'screen_name': u'9Baron9', u'name': u'BARON9'}]"
927769522085548033,2017-11-07 05:27:45,False,@SeanLP_ Glad it was caught in time! You might want to add these extra security layers to your Google account: https://t.co/4iM0oCSLgp.,[],"[{u'id': 2802381837, u'indices': [0, 8], u'id_str': u'2802381837', u'screen_name': u'SeanLP_', u'name': u'Sean Lewis'}]"
927769447984660480,2017-11-07 05:27:28,False,"@babjivictor124 Hmm. Just to confirm, have you tried following these steps to regain access to the account: https://t.co/58jfArmz4G? Let us know.",[],"[{u'id': 885877233218457604, u'indices': [0, 15], u'id_str': u'885877233218457604', u'screen_name': u'babjivictor124', u'name': u'Victor Opiyo'}]"
927768944382967808,2017-11-07 05:25:28,False,@atelierLANCE Hi there. Let's see if we can help. Please follow us and let us know when you have so we can share next steps through DM.,[],"[{u'id': 121470572, u'indices': [0, 13], u'id_str': u'121470572', u'screen_name': u'atelierLANCE', u'name': u'Lance Mobley'}]"
927768438923235328,2017-11-07 05:23:27,False,@AndyDHigginson Hi Andy. Have you tried following these steps to regain access to the account: https://t.co/58jfArmz4G? Keep us posted.,[],"[{u'id': 809332847857254400, u'indices': [0, 15], u'id_str': u'809332847857254400', u'screen_name': u'AndyDHigginson', u'name': u'Andy D Higginson'}]"
927768174778572800,2017-11-07 05:22:24,False,@jjackson235 Glad it was caught! We suggest adding extra layers of security to your Google account w/ these tips: https://t.co/4iM0oCSLgp.,[],"[{u'id': 145153049, u'indices': [0, 12], u'id_str': u'145153049', u'screen_name': u'jjackson235', u'name': u'Jarred Jackson'}]"
927768029668298752,2017-11-07 05:21:50,False,@narincorporated Hmm. Let's see if we can help. Please follow us and let us know when you have so we can share next steps through DM.,[],"[{u'id': 3362807763, u'indices': [0, 16], u'id_str': u'3362807763', u'screen_name': u'narincorporated', u'name': u'n'}]"
927767885585571840,2017-11-07 05:21:15,False,@ToshibaLaptops3 Hi Julian. Tell us more about what's going on with your Google account. We'd be glad to try and help.,[],"[{u'id': 2395232887, u'indices': [0, 16], u'id_str': u'2395232887', u'screen_name': u'ToshibaLaptops3', u'name': u'Julian Robbins'}]"
927766380241440768,2017-11-07 05:15:16,False,@unshaethenaag Understood. We suggest reaching out to the Gmail forum community for further support: https://t.co/IARrPxsqps. Hope that helps.,[],"[{u'id': 633822913, u'indices': [0, 14], u'id_str': u'633822913', u'screen_name': u'unshaethenaag', u'name': u'Anshay Nagpaul'}]"
927765833258070016,2017-11-07 05:13:06,False,"@cannabisdeluxe Got it. If the account was deleted recently, try the steps at https://t.co/5uOjmZCfGJ to restore your account. Hope this helps.",[],"[{u'id': 882701166626443264, u'indices': [0, 15], u'id_str': u'882701166626443264', u'screen_name': u'cannabisdeluxe', u'name': u'goddess.'}]"
927765273855381504,2017-11-07 05:10:52,False,@ragenth16 Hmm. Are you getting any specific error message when you try to sign into your account? Keep us posted.,[],"[{u'id': 106706703, u'indices': [0, 10], u'id_str': u'106706703', u'screen_name': u'ragenth16', u'name': u'Joseph Ragenth Kumar'}]"
927765090979508224,2017-11-07 05:10:09,False,@fadian_t Hmm. Let's see if we can help. Look out for a DM with next steps.,[],"[{u'id': 1295048190, u'indices': [0, 9], u'id_str': u'1295048190', u'screen_name': u'fadian_t', u'name': u'Elgordo66'}]"
927764470528643072,2017-11-07 05:07:41,False,@whoisabbyber Hmm. Let's see if we can help. Please follow us and let us know when you have so we can share next steps through DM.,[],"[{u'id': 141002985, u'indices': [0, 13], u'id_str': u'141002985', u'screen_name': u'whoisabbyber', u'name': u'\u03b1 \u0432 \u03b9 g \u03b1 \u0454 \u2113'}]"
927764362881896453,2017-11-07 05:07:15,False,"@NitinGoundaje Hmm. Just to confirm, did you try resetting your password w/ the steps on this page: https://t.co/58jfArmz4G? Let us know.",[],"[{u'id': 921613083122036737, u'indices': [0, 14], u'id_str': u'921613083122036737', u'screen_name': u'NitinGoundaje', u'name': u'Nitin Goundaje'}]"
927764093888548864,2017-11-07 05:06:11,False,@mandhare_sanjay Hi there. Are you getting a specific error message when you try to sign in? Give us the exact wording &amp; we'll look into it.,[],"[{u'id': 311361072, u'indices': [0, 16], u'id_str': u'311361072', u'screen_name': u'mandhare_sanjay', u'name': u'SANJ'}]"
927763997746753536,2017-11-07 05:05:48,False,@Billy_Allison Hmm. Let's see if we can help. Look out for a DM with next steps.,[],"[{u'id': 23970971, u'indices': [0, 14], u'id_str': u'23970971', u'screen_name': u'Billy_Allison', u'name': u'Billy Allison'}]"
927763813667147776,2017-11-07 05:05:04,False,@Mzettel Glad you're back in. We suggest setting up recovery options to prevent losing access in the future: https://t.co/s6o6KiLrTO.,[],"[{u'id': 29460636, u'indices': [0, 8], u'id_str': u'29460636', u'screen_name': u'Mzettel', u'name': u'Missy Zettel'}]"
927694892272373760,2017-11-07 00:31:12,False,@ashleynicole237 Glad you're back in. We suggest setting up recovery options to prevent losing access in the future: https://t.co/s6o6KiLrTO.,[],"[{u'id': 458936970, u'indices': [0, 16], u'id_str': u'458936970', u'screen_name': u'ashleynicole237', u'name': u'Ashley \U0001f343'}]"
927694816816885761,2017-11-07 00:30:54,False,"@ChandlerTheodo3 Hi there. Just to confirm, have you tried following these steps to regain access to the account: https://t.co/58jfArmz4G? Let us know.",[],"[{u'id': 917132780332515329, u'indices': [0, 16], u'id_str': u'917132780332515329', u'screen_name': u'ChandlerTheodo3', u'name': u'Chandler Theodore Pa'}]"
927694577951281152,2017-11-07 00:29:57,False,"@sarcastic0909 Hi Arbaz. Just to confirm, have you tried following these steps to regain access to the account: https://t.co/58jfArmz4G? Let us know.",[],"[{u'id': 925009215323742214, u'indices': [0, 14], u'id_str': u'925009215323742214', u'screen_name': u'sarcastic0909', u'name': u'Arbaz Shaikh'}]"
927694362267541505,2017-11-07 00:29:06,False,@Eridiantiger Glad it was caught in time! You might want to add these extra security layers to your Google account: https://t.co/4iM0oCSLgp.,[],"[{u'id': 1857052938, u'indices': [0, 13], u'id_str': u'1857052938', u'screen_name': u'Eridiantiger', u'name': u'Eridian'}]"
927694219501867008,2017-11-07 00:28:32,False,@Pengumile Hi Travis. It might be a good idea to check your recent Google account activity. Follow these steps to review: https://t.co/0ka31rw2EP.,[],"[{u'id': 168728088, u'indices': [0, 10], u'id_str': u'168728088', u'screen_name': u'Pengumile', u'name': u'Travis'}]"
927694029311168512,2017-11-07 00:27:46,False,"@Candycorex Hi Kaylee. Just to confirm, are you still able to sign into your Google account? Let us know.",[],"[{u'id': 255097821, u'indices': [0, 11], u'id_str': u'255097821', u'screen_name': u'Candycorex', u'name': u'Kaylee Candycore'}]"
927692681391853570,2017-11-07 00:22:25,False,"@iefke2 Hmm. If the username you want isn't available, we suggest trying another username. See here for more information: https://t.co/4XE6EsvKKk.",[],"[{u'id': 2768693129, u'indices': [0, 7], u'id_str': u'2768693129', u'screen_name': u'iefke2', u'name': u'Iefke'}]"
927692499879104512,2017-11-07 00:21:42,False,"@manoj_deiv Hi Manoj. For security, you can't reuse recent passwords. For more info, see Password requirements here: https://t.co/InROaG51hI.",[],"[{u'id': 2875655696, u'indices': [0, 11], u'id_str': u'2875655696', u'screen_name': u'manoj_deiv', u'name': u'manoj_ deiv'}]"
927692313224269824,2017-11-07 00:20:57,False,"@sydney_fischer_ Hi there. Just to confirm, are you still able to sign into your account? Let us know.",[],"[{u'id': 3004991628, u'indices': [0, 16], u'id_str': u'3004991628', u'screen_name': u'sydney_fischer_', u'name': u'Syd\U0001f342'}]"
927685489678790656,2017-11-06 23:53:50,False,@explorewithjess Hi there. Glad it was caught! We suggest adding extra layers of security to your Google account w/ these tips: https://t.co/4iM0oCSLgp.,[],"[{u'id': 823222209695117312, u'indices': [0, 16], u'id_str': u'823222209695117312', u'screen_name': u'explorewithjess', u'name': u'Jess(ica)'}]"
927685263857541120,2017-11-06 23:52:57,False,"@maxwellmax72_mr Hi Max. Just to confirm, did you try resetting your password w/ the steps on this page: https://t.co/58jfArmz4G? Let us know.",[],"[{u'id': 4747780942, u'indices': [0, 16], u'id_str': u'4747780942', u'screen_name': u'maxwellmax72_mr', u'name': u'Max'}]"
927646211481333760,2017-11-06 21:17:46,True,"RT @googlecloud: We’re partnering with @salesforce to enable smarter, more connected experiences for our customers #DF17 → https://t.co/rcT…","[{u'indices': [115, 120], u'text': u'DF17'}]","[{u'id': 15813140, u'indices': [3, 15], u'id_str': u'15813140', u'screen_name': u'googlecloud', u'name': u'Google Cloud'}, {u'id': 33612317, u'indices': [39, 50], u'id_str': u'33612317', u'screen_name': u'salesforce', u'name': u'Salesforce'}]"
927623910392258560,2017-11-06 19:49:09,False,In focus: portrait mode. We're sharing 10 tips on how to take great shots with the new feature on Pixel 2 → https://t.co/HoNH9TbR1R https://t.co/zZQeEBW89W,[],[]
927603267651211264,2017-11-06 18:27:07,False,@Bowale_G Glad you're back in. We suggest setting up recovery options to prevent losing access in the future: https://t.co/s6o6KiLrTO.,[],"[{u'id': 1242404822, u'indices': [0, 9], u'id_str': u'1242404822', u'screen_name': u'Bowale_G', u'name': u'Gabby'}]"
927603127775367175,2017-11-06 18:26:34,False,@Aten_SA Hi there. We'd like to move the conversation to DM. Please follow us and let us know when you have.,[],"[{u'id': 760725028614836224, u'indices': [0, 8], u'id_str': u'760725028614836224', u'screen_name': u'Aten_SA', u'name': u'Thokozani'}]"
927602736467726337,2017-11-06 18:25:01,False,"@VioletteNyx1 Hi Violette. If you don't have a mobile phone, you may want to use a recovery email instead. More info: https://t.co/CWUT8KnydA.",[],"[{u'id': 28962223, u'indices': [0, 13], u'id_str': u'28962223', u'screen_name': u'VioletteNyx1', u'name': u'Violette'}]"
927602587905470464,2017-11-06 18:24:25,False,"@laineyniitani Hi Lainerz. Just to confirm, did you try resetting your password w/ the steps on this page: https://t.co/58jfArmz4G? Let us know.",[],"[{u'id': 4710728760, u'indices': [0, 14], u'id_str': u'4710728760', u'screen_name': u'laineyniitani', u'name': u'lainerz'}]"
927602244975058944,2017-11-06 18:23:03,False,"@Lady_Xaviera Hi there. Just to confirm, did you try resetting your password w/ the steps on this page: https://t.co/58jfArmz4G? Let us know.",[],"[{u'id': 2652752810, u'indices': [0, 13], u'id_str': u'2652752810', u'screen_name': u'Lady_Xaviera', u'name': u'Determined Dadcat'}]"
927602096328847360,2017-11-06 18:22:28,False,"@1t513RAND0 Hi there. Have him send us a tweet, we'll see what we can do to help. In the meantime, make sure he's tried: https://t.co/58jfArmz4G.",[],"[{u'id': 102217325, u'indices': [0, 11], u'id_str': u'102217325', u'screen_name': u'1t513RAND0', u'name': u'Brando'}]"
927601947980521472,2017-11-06 18:21:53,False,"@ShadowGamerFX Hi there. Just to confirm, are you still able to sign into your Google account? Let us know.",[],"[{u'id': 865793250107510784, u'indices': [0, 14], u'id_str': u'865793250107510784', u'screen_name': u'ShadowGamerFX', u'name': u'\u0455\u043d\u03b1\u2202\u03bf\u03c9g\u03b1\u043c\u0454\u044f#\u03b9\u03c4'}]"
927601635173552129,2017-11-06 18:20:38,False,@Shiverwar Hi there. Glad it was caught! We suggest adding extra layers of security to your Google account w/ these tips: https://t.co/4iM0oCSLgp.,[],"[{u'id': 123854374, u'indices': [0, 10], u'id_str': u'123854374', u'screen_name': u'Shiverwar', u'name': u'Shiverwar'}]"
927601563304067072,2017-11-06 18:20:21,False,@JaredFilms Hi Jared. It might be a good idea to check your recent activity: Go to https://t.co/0ka31rw2EP &amp; follow the steps to review.,[],"[{u'id': 881645604757262337, u'indices': [0, 11], u'id_str': u'881645604757262337', u'screen_name': u'JaredFilms', u'name': u'\u200fJared'}]"
927600810489536519,2017-11-06 18:17:21,False,"@Chickenmane666 Hi there. Just to confirm, have you completed these steps to regain access to the account: https://t.co/58jfArmz4G? Let us know.",[],[]
927599433847529474,2017-11-06 18:11:53,True,"RT @googlearts: This week, we honor US Veterans. Check out our new page filled with interviews, photography and more: https://t.co/Nt22Iypa…",[],"[{u'id': 248965136, u'indices': [3, 14], u'id_str': u'248965136', u'screen_name': u'googlearts', u'name': u'Google Arts&Culture'}]"
927593395635326976,2017-11-06 17:47:54,False,@JunMissle Hi there. Tell us more about what's going on with your Google account. We'll see what we can do to help.,[],"[{u'id': 772680923640762370, u'indices': [0, 10], u'id_str': u'772680923640762370', u'screen_name': u'JunMissle', u'name': u'Jun Mark Lugsanay'}]"
927592975525470212,2017-11-06 17:46:13,False,"@true_pictsie Hi Doris. If he sends us a tweet, we'll see what we can do to help. In the meantime, have him try: https://t.co/58jfArmz4G.",[],"[{u'id': 352525326, u'indices': [0, 13], u'id_str': u'352525326', u'screen_name': u'true_pictsie', u'name': u'Doris'}]"
927592578664550401,2017-11-06 17:44:39,False,"@anees_kmd Hi there. Just to confirm, did you try resetting your password w/ the steps on this page: https://t.co/58jfArmz4G? Let us know.",[],"[{u'id': 1379067434, u'indices': [0, 10], u'id_str': u'1379067434', u'screen_name': u'anees_kmd', u'name': u'Anees_kmd'}]"
927592438193061888,2017-11-06 17:44:05,False,@EnginnSpy Hi there. Have you tried following these steps to regain access to the account: https://t.co/58jfArmz4G? Keep us posted.,[],"[{u'id': 4671730274, u'indices': [0, 10], u'id_str': u'4671730274', u'screen_name': u'EnginnSpy', u'name': u'EnginnSpy'}]"
927591546773491713,2017-11-06 17:40:33,False,@barb_a_keane Hi Barbara. Have you tried restoring your account? This guide may help: https://t.co/5uOjmZCfGJ. Any luck?,[],"[{u'id': 924496057186373635, u'indices': [0, 13], u'id_str': u'924496057186373635', u'screen_name': u'barb_a_keane', u'name': u'Barbara Keane'}]"
927591085169364994,2017-11-06 17:38:43,False,@veeramanilaw Hi there. We'd like to move the conversation to DM. Please follow us and let us know when you have.,[],"[{u'id': 448090155, u'indices': [0, 13], u'id_str': u'448090155', u'screen_name': u'veeramanilaw', u'name': u'Veeramanikandan'}]"
927590972099309568,2017-11-06 17:38:16,False,"@i_am_janardhan Hi Janardhan. Just to confirm, did you try resetting your password w/ the steps on this page: https://t.co/58jfArmz4G? Let us know.",[],"[{u'id': 2879193943, u'indices': [0, 15], u'id_str': u'2879193943', u'screen_name': u'i_am_janardhan', u'name': u'Janardhan'}]"
927590449887444992,2017-11-06 17:36:11,False,"@ShauryaCentral Hi Shaurya. Just to confirm, have you tried following these steps to regain access to the account: https://t.co/58jfArmz4G? Let us know.",[],"[{u'id': 422252105, u'indices': [0, 15], u'id_str': u'422252105', u'screen_name': u'ShauryaCentral', u'name': u'Shaurya Rai'}]"
927589478910365696,2017-11-06 17:32:20,False,@GDanzker Hi Gregory. Let's see if we can help. Please follow us and let us know when you have so we can share next steps through DM.,[],"[{u'id': 921407950186524673, u'indices': [0, 9], u'id_str': u'921407950186524673', u'screen_name': u'GDanzker', u'name': u'gregory danzker'}]"
927588927363526656,2017-11-06 17:30:08,False,@tiamalise Hi there. It might be a good idea to check your recent activity: Go to https://t.co/0ka31rw2EP &amp; follow the steps to review.,[],"[{u'id': 378851428, u'indices': [0, 10], u'id_str': u'378851428', u'screen_name': u'tiamalise', u'name': u'T'}]"
927588660203130881,2017-11-06 17:29:05,False,"@zabboud Hi Ziad. Just to confirm, have you tried following these steps to regain access to the account: https://t.co/58jfArmz4G? Let us know.",[],"[{u'id': 128983619, u'indices': [0, 8], u'id_str': u'128983619', u'screen_name': u'zabboud', u'name': u'Ziad Abboud'}]"
927588425326264322,2017-11-06 17:28:09,False,"@Romantheist Hi there. Just to confirm, did you try resetting your password w/ the steps on this page: https://t.co/58jfArmz4G? Let us know.",[],"[{u'id': 1471845217, u'indices': [0, 12], u'id_str': u'1471845217', u'screen_name': u'Romantheist', u'name': u'elle \U0001f384'}]"
927588301133041664,2017-11-06 17:27:39,False,@Andrew___Bar Hi Andrew. It might be a good idea to check your recent activity: Go to https://t.co/0ka31rw2EP &amp; follow the steps to review.,[],"[{u'id': 2302693312, u'indices': [0, 13], u'id_str': u'2302693312', u'screen_name': u'Andrew___Bar', u'name': u'Andrew (7-3)'}]"
927573731597172736,2017-11-06 16:29:45,False,"If you’re over the old way of doing things, you’re ready for the all-new #Chromebook. https://t.co/31GU4lvN2a","[{u'indices': [73, 84], u'text': u'Chromebook'}]",[]
927420337482067968,2017-11-06 06:20:13,False,"@fristedt Hi Peter. Just to confirm, did you try resetting your password w/ the steps on this page: https://t.co/58jfArmz4G? Let us know.",[],"[{u'id': 18958284, u'indices': [0, 9], u'id_str': u'18958284', u'screen_name': u'fristedt', u'name': u'Peter Fristedt'}]"
927420203159445504,2017-11-06 06:19:41,False,@BurntStrawberry Hi Gabrielle. Glad it was caught! We suggest adding extra layers of security to your Google account w/ these tips: https://t.co/4iM0oCSLgp.,[],"[{u'id': 1912020756, u'indices': [0, 16], u'id_str': u'1912020756', u'screen_name': u'BurntStrawberry', u'name': u'Gabrielle Morin'}]"
927420085026918405,2017-11-06 06:19:13,False,"@charul0101 Hi Charul. Just to confirm, have you tried following these steps to regain access to the account: https://t.co/58jfArmz4G? Let us know.",[],"[{u'id': 924171053215113216, u'indices': [0, 11], u'id_str': u'924171053215113216', u'screen_name': u'charul0101', u'name': u'charul'}]"
927419684164722689,2017-11-06 06:17:37,False,@BenitoSyJ Hi David. Are you getting a specific error message when you try to sign in? Give us the exact wording &amp; we'll look into it.,[],"[{u'id': 2406069396, u'indices': [0, 10], u'id_str': u'2406069396', u'screen_name': u'BenitoSyJ', u'name': u'David Jimenez'}]"
927419520616198144,2017-11-06 06:16:58,False,"@Juliannekelsch Hi Julianne. Just to confirm, have you tried following these steps to regain access to the account: https://t.co/58jfArmz4G? Let us know.",[],"[{u'id': 2557898028, u'indices': [0, 15], u'id_str': u'2557898028', u'screen_name': u'Juliannekelsch', u'name': u'Julianne Kelsch'}]"
927419392719286272,2017-11-06 06:16:28,False,@Anneeeeeeyy Hi Sairee. Have you tried following these steps to regain access to the account: https://t.co/58jfArmz4G? Keep us posted.,[],"[{u'id': 769349387092832256, u'indices': [0, 12], u'id_str': u'769349387092832256', u'screen_name': u'Anneeeeeeyy', u'name': u'Sairee'}]"
927419237034893312,2017-11-06 06:15:51,False,@jammygummy Hi there. Are you getting a specific error message? Give us the exact wording &amp; we'll look into it.,[],"[{u'id': 383055521, u'indices': [0, 11], u'id_str': u'383055521', u'screen_name': u'jammygummy', u'name': u'# B O N D O C'}]"
927419184815976448,2017-11-06 06:15:38,False,"@CMLandrus Hi there. Have her send us a tweet &amp; we'll look into this. In the meantime, make sure she's tried https://t.co/58jfArmz4G.",[],"[{u'id': 46185493, u'indices': [0, 10], u'id_str': u'46185493', u'screen_name': u'CMLandrus', u'name': u'C.M. Landrus'}]"
927418849401757696,2017-11-06 06:14:18,False,@TheSmf12345 Hi there. Are you getting a specific error message? Give us the exact wording &amp; we'll look into it.,[],"[{u'id': 867956737151713282, u'indices': [0, 12], u'id_str': u'867956737151713282', u'screen_name': u'TheSmf12345', u'name': u'SuperMarioFan12345'}]"
927418779952406528,2017-11-06 06:14:02,False,@NetWangst Hi Ignacio. Have you tried clearing your browser's cache and cookies: https://t.co/icAanVeH2i? Let us know if that helps.,[],"[{u'id': 2932046877, u'indices': [0, 10], u'id_str': u'2932046877', u'screen_name': u'NetWangst', u'name': u'Ignacio Vazquez'}]"
927418615480991744,2017-11-06 06:13:23,False,"@Dustin55785633 Mind if we jump in? Just to confirm, have you completed these steps to regain access to the account: https://t.co/58jfAr4XG6? Let us know.",[],"[{u'id': 880979015204556800, u'indices': [0, 15], u'id_str': u'880979015204556800', u'screen_name': u'Dustin55785633', u'name': u'Dustin'}]"
927418532555407360,2017-11-06 06:13:03,False,@PinkkParadise Hi there. Are you getting a specific error message when you try to sign in? Give us the exact wording &amp; we'll look into it.,[],"[{u'id': 30695441, u'indices': [0, 14], u'id_str': u'30695441', u'screen_name': u'PinkkParadise', u'name': u'M \u2665'}]"
927418077670764544,2017-11-06 06:11:14,False,@Jejejs15 Hi there. Are you getting a specific error message? Give us the exact wording &amp; we'll look into it.,[],"[{u'id': 889595442299797504, u'indices': [0, 9], u'id_str': u'889595442299797504', u'screen_name': u'Jejejs15', u'name': u'Jejejs'}]"
927417940307148800,2017-11-06 06:10:42,False,"@ErinPDooley Hi Erin. Without stating your email address, can you confirm if this is a consumer account (ending in @gmail.com) or G Suite account?",[],"[{u'id': 565634810, u'indices': [0, 12], u'id_str': u'565634810', u'screen_name': u'ErinPDooley', u'name': u'Erin P. Dooley'}, {u'id': 38679388, u'indices': [115, 121], u'id_str': u'38679388', u'screen_name': u'gmail', u'name': u'Gmail'}]"
927417297668411392,2017-11-06 06:08:09,False,"@MahimaShresth10 Hi there. Just to confirm, have you completed these steps to regain access to the account: https://t.co/58jfAr4XG6? Let us know.",[],"[{u'id': 923865257117761541, u'indices': [0, 16], u'id_str': u'923865257117761541', u'screen_name': u'MahimaShresth10', u'name': u'Mahima Shrestha'}]"
927417094551035905,2017-11-06 06:07:20,False,@hapticlou Hi there. It might be a good idea to check your recent activity. Follow these steps to review: https://t.co/0ka31rw2EP.,[],"[{u'id': 818182537, u'indices': [0, 10], u'id_str': u'818182537', u'screen_name': u'hapticlou', u'name': u'mh'}]"
927416953215500288,2017-11-06 06:06:46,False,"@paupersgrave Hi there. Just to confirm, are you able to sign into your Google account on another device/browser? Let us know.",[],"[{u'id': 1316301391, u'indices': [0, 13], u'id_str': u'1316301391', u'screen_name': u'paupersgrave', u'name': u'justapeasant'}]"
927416813054504960,2017-11-06 06:06:13,False,"@At_Publications Hi there. For security purposes, you may sometimes need to verify an account by phone. More info: https://t.co/Ho3VLwquwk.",[],"[{u'id': 276032907, u'indices': [0, 16], u'id_str': u'276032907', u'screen_name': u'At_Publications', u'name': u'@ Publications'}]"
927416585840742400,2017-11-06 06:05:19,False,@talk_to_pushan Hi Pushan. Did you try resetting your password with the steps on this page: https://t.co/58jfArmz4G? Keep us posted.,[],"[{u'id': 814966183631863808, u'indices': [0, 15], u'id_str': u'814966183631863808', u'screen_name': u'talk_to_pushan', u'name': u'Pushan Mishra'}]"
927416412137820160,2017-11-06 06:04:37,False,"@masaldaan Hi Sidharth. Just to confirm, have you tried following these steps to restore your account: https://t.co/5uOjmZCfGJ? Let us know.",[],"[{u'id': 2451257888, u'indices': [0, 10], u'id_str': u'2451257888', u'screen_name': u'masaldaan', u'name': u'Sidharth Masaldaan'}]"
927416224681791495,2017-11-06 06:03:53,False,@Born_Gujrati Hi there. Let's see if we can help. Please follow us and let us know when you have so we can share next steps through DM.,[],"[{u'id': 3196949906, u'indices': [0, 13], u'id_str': u'3196949906', u'screen_name': u'Born_Gujrati', u'name': u'Lalit Chauhan'}]"
927416084948328449,2017-11-06 06:03:19,False,@skaushik2025 Hi Sandeep. Did you try resetting your password with the steps on this page: https://t.co/58jfAr4XG6? Keep us posted.,[],"[{u'id': 98340445, u'indices': [0, 13], u'id_str': u'98340445', u'screen_name': u'skaushik2025', u'name': u'Sandeep Kaushik'}]"
927415962369970176,2017-11-06 06:02:50,False,"@fabnguyen91 Hi there. Just to confirm, have you tried following these steps to regain access to the account: https://t.co/58jfArmz4G? Let us know.",[],"[{u'id': 844504656202141696, u'indices': [0, 12], u'id_str': u'844504656202141696', u'screen_name': u'fabnguyen91', u'name': u'Fabnguyen91'}]"
927415440468406275,2017-11-06 06:00:46,False,@AndreaaaPadilla Hi there. Are you getting a specific error message? Give us the exact wording &amp; we'll look into it.,[],"[{u'id': 267300570, u'indices': [0, 16], u'id_str': u'267300570', u'screen_name': u'AndreaaaPadilla', u'name': u'Andrea'}]"
927415360772599809,2017-11-06 06:00:27,False,@dfsjunkie87 Hi Jay. We'd like to hear more before moving to DM. You can also reach out to the Gmail forum here: https://t.co/qNHdp8dpU2.,[],"[{u'id': 815410523009228800, u'indices': [0, 12], u'id_str': u'815410523009228800', u'screen_name': u'dfsjunkie87', u'name': u'Jay B'}]"
927415224277143553,2017-11-06 05:59:54,False,@dynamicdesignsl Hi. Entering the last password you remember helps us verify your ownership. Have you already done all the steps at https://t.co/58jfAr4XG6?,[],"[{u'id': 1135942364, u'indices': [0, 16], u'id_str': u'1135942364', u'screen_name': u'dynamicdesignsl', u'name': u'Dynamic Designs Live'}]"
926584187670298625,2017-11-03 22:57:40,False,Visions became augmented reality today as #MyFutureMe finalists coded @Snapchat Lenses with help from Google + Snap engineers at #TEDWomen. https://t.co/6OylRaG8ny,"[{u'indices': [42, 53], u'text': u'MyFutureMe'}, {u'indices': [129, 138], u'text': u'TEDWomen'}]","[{u'id': 376502929, u'indices': [70, 79], u'id_str': u'376502929', u'screen_name': u'Snapchat', u'name': u'Snapchat'}]"
926581077996646401,2017-11-03 22:45:18,False,@Exlipse_v2 Hi there. Have you tried following these steps to regain access to the account: https://t.co/58jfArmz4G? Keep us posted.,[],"[{u'id': 2910641564, u'indices': [0, 11], u'id_str': u'2910641564', u'screen_name': u'Exlipse_v2', u'name': u'Papi Exlipse'}]"
926580954000478210,2017-11-03 22:44:49,False,@topazcoh Hi there. Do you have 2-Step Verification enabled? Try these tips if you're unable to receive codes: https://t.co/fX9yYNBcpx.,[],"[{u'id': 1514236399, u'indices': [0, 9], u'id_str': u'1514236399', u'screen_name': u'topazcoh', u'name': u'\u05d8\u05d5\u05e4\u05d6'}]"
926580805597614080,2017-11-03 22:44:13,False,@RockyRockyMilk Hi there. Try these tips if you're unable to receive 2-Step Verification Codes: https://t.co/iFT0OBqbkN. Hope that helps.,[],"[{u'id': 48951767, u'indices': [0, 15], u'id_str': u'48951767', u'screen_name': u'RockyRockyMilk', u'name': u'Ziegfield \U0001f415\U0001f4a8'}]"
926580499946065926,2017-11-03 22:43:00,False,@GTTruesavage Hi there. We'd like to move the conversation to DM. Please follow us and let us know when you have.,[],"[{u'id': 892220734734385153, u'indices': [0, 13], u'id_str': u'892220734734385153', u'screen_name': u'GTTruesavage', u'name': u'Da Street Beat'}]"
926580207087218688,2017-11-03 22:41:51,False,"@jackisme09 Hi Jack. Have her send us a tweet &amp; we'll look into this. In the meantime, make sure she's tried https://t.co/58jfArmz4G.",[],"[{u'id': 2489970571, u'indices': [0, 11], u'id_str': u'2489970571', u'screen_name': u'jackisme09', u'name': u'Jack ..'}]"
926579960529158145,2017-11-03 22:40:52,False,"@thechicksworld Hi there. Just to confirm, did you try resetting your password with the steps on this page: https://t.co/58jfArmz4G? Let us know.",[],"[{u'id': 742127865114832896, u'indices': [0, 15], u'id_str': u'742127865114832896', u'screen_name': u'thechicksworld', u'name': u'\u0646\u0648\u0641'}]"
926579808754196480,2017-11-03 22:40:16,False,"@GentleBolshevik Hi there. Just to confirm, did you try resetting your password with the steps on this page: https://t.co/58jfArmz4G? Let us know.",[],"[{u'id': 4918588094, u'indices': [0, 16], u'id_str': u'4918588094', u'screen_name': u'GentleBolshevik', u'name': u'\u262dCivil Proletariat\u262d'}]"
926579648754012160,2017-11-03 22:39:37,False,@mintedcs Hi there. Let's see what we can do to help. Please follow us and let us know when you have so we can share next steps through DM.,[],"[{u'id': 848657193570271232, u'indices': [0, 9], u'id_str': u'848657193570271232', u'screen_name': u'mintedcs', u'name': u'Minted'}]"
926579496043638784,2017-11-03 22:39:01,False,@drizzt_71 Hi there. It might be a good idea to check your recent activity: Go to https://t.co/0ka31rw2EP &amp; follow the steps to review.,[],"[{u'id': 3077101819, u'indices': [0, 10], u'id_str': u'3077101819', u'screen_name': u'drizzt_71', u'name': u'Drizzt DoUrden'}]"
926579233773772800,2017-11-03 22:37:58,False,@VS002526 Hi Svishal. We'd like to move the conversation to DM. Look out for a message with next steps.,[],"[{u'id': 779375827083558912, u'indices': [0, 9], u'id_str': u'779375827083558912', u'screen_name': u'VS002526', u'name': u'Svishal Sharma'}]"
926577754384068608,2017-11-03 22:32:06,False,@Jeissonrd Hi Jason. We'd like to move the conversation to DM. Please follow us and let us know when you have.,[],"[{u'id': 283611421, u'indices': [0, 10], u'id_str': u'283611421', u'screen_name': u'Jeissonrd', u'name': u'Jason Ruiz'}]"
926577601740771333,2017-11-03 22:31:29,False,"@AlwaysOnFstFwd Hi there. Just to confirm, have you tried following these steps to regain access to the account: https://t.co/58jfArmz4G? Let us know.",[],"[{u'id': 243038279, u'indices': [0, 15], u'id_str': u'243038279', u'screen_name': u'AlwaysOnFstFwd', u'name': u'Hi, My Name Is...'}]"
926577539249827840,2017-11-03 22:31:14,False,@mariavillaaaaa Hi there. We'd like to help. Did you already try resetting your Google acct password with these steps: https://t.co/58jfArmz4G? Let us know.,[],"[{u'id': 1124620675, u'indices': [0, 15], u'id_str': u'1124620675', u'screen_name': u'mariavillaaaaa', u'name': u'Mervs'}]"
926577390050054144,2017-11-03 22:30:39,False,@_anammahmood Hi Anam. Tell us more about what's going on with your Google account. We'll see what we can do to help.,[],"[{u'id': 464759046, u'indices': [0, 13], u'id_str': u'464759046', u'screen_name': u'_anammahmood', u'name': u'\u2605 Anam Mahmood \u2605'}]"
926577264946565120,2017-11-03 22:30:09,False,@TroyRedstone Hi there. This guide may help recover your account: https://t.co/cmG49R4sWa. Hope this helps.,[],"[{u'id': 4882172260, u'indices': [0, 13], u'id_str': u'4882172260', u'screen_name': u'TroyRedstone', u'name': u'TroyRedstone'}]"
926575119673249793,2017-11-03 22:21:38,False,@MASKEDMAINIAK Hi there. You may want to look into our new Advanced Protection feature. More info: https://t.co/I1z8rqJJ7o.,[],"[{u'id': 3115015957, u'indices': [0, 14], u'id_str': u'3115015957', u'screen_name': u'MASKEDMAINIAK', u'name': u'MASKED MAINIAK'}]"
926574221467234304,2017-11-03 22:18:03,False,@ometeanassi Hi there. That doesn't sound like us. Have you already tried these steps to regain access to the acct: https://t.co/58jfArmz4G? Let us know.,[],"[{u'id': 160270283, u'indices': [0, 12], u'id_str': u'160270283', u'screen_name': u'ometeanassi', u'name': u'Omete'}]"
926574081356587008,2017-11-03 22:17:30,False,@Greatafridi Hi Muhammad. We'd like to move the conversation to DM. Look out for a message with next steps.,[],"[{u'id': 144161521, u'indices': [0, 12], u'id_str': u'144161521', u'screen_name': u'Greatafridi', u'name': u'Muhammad azam Afridi'}]"
926567732593623040,2017-11-03 21:52:16,False,"Searches for New York, news, and more. With @googlenewslab data, here are a few of the week’s top search trends. https://t.co/xUCplNCdzp",[],"[{u'id': 3245142196, u'indices': [44, 58], u'id_str': u'3245142196', u'screen_name': u'googlenewslab', u'name': u'Google News Lab'}]"
926546462850408449,2017-11-03 20:27:45,False,"Get a fresh perspective on the world with a new VR video series we created in partnership with @Discovery, TRVLR → https://t.co/hZRwFJ9Xgr https://t.co/SCQazT1vMs",[],"[{u'id': 17842366, u'indices': [95, 105], u'id_str': u'17842366', u'screen_name': u'Discovery', u'name': u'Discovery'}]"
926500670210838530,2017-11-03 17:25:47,False,"Working to expand creativity in VR, Googler @tory_voight shares how she's climbed through her career: https://t.co/cvHZ0TFFak 🎨 by @teekmach https://t.co/MMcDKYrw52",[],"[{u'id': 715919166608248832, u'indices': [44, 56], u'id_str': u'715919166608248832', u'screen_name': u'tory_voight', u'name': u'Tory Voight'}, {u'id': 27393245, u'indices': [131, 140], u'id_str': u'27393245', u'screen_name': u'teekmach', u'name': u'teek'}]"
926451474066001920,2017-11-03 14:10:18,False,"@spicyomelettes Hi there. Try tapping the 3-dot menu on your weather card and selecting ""Change temperature units to C"". Let us know if that helps.",[],"[{u'id': 497672877, u'indices': [0, 15], u'id_str': u'497672877', u'screen_name': u'spicyomelettes', u'name': u""that's how it is on this bitch of an earth""}]"
926451403081637888,2017-11-03 14:10:01,False,"@honeymilkbun Hi there. Try tapping the 3-dot menu on your weather card and selecting ""Change temperature units to C"". Let us know if that helps.",[],"[{u'id': 40423965, u'indices': [0, 13], u'id_str': u'40423965', u'screen_name': u'honeymilkbun', u'name': u'river \U0001f36d foxes'}]"
926451337201684481,2017-11-03 14:09:46,False,@jspwrites Hmm. Let's see if we can help. Please follow us and let us know when you have so we can share next steps through DM.,[],"[{u'id': 32909103, u'indices': [0, 10], u'id_str': u'32909103', u'screen_name': u'jspwrites', u'name': u'Jiten Soni'}]"
926451285725007873,2017-11-03 14:09:33,False,"@TyinsDarkwulf Hi there. Try tapping the 3-dot menu on your weather card and selecting ""Change temperature units to C"". Let us know if that works.",[],"[{u'id': 617828294, u'indices': [0, 14], u'id_str': u'617828294', u'screen_name': u'TyinsDarkwulf', u'name': u'tyins'}]"
926231427166932992,2017-11-02 23:35:55,False,"From urban art adventures to ancient exploration, here's how we're playing in the leaves this week with #teampixel → https://t.co/ha1jBqfzxk https://t.co/cv0WesF6O1","[{u'indices': [104, 114], u'text': u'teampixel'}]",[]
926230885942177792,2017-11-02 23:33:46,False,"@craiganssle Hi Craig, your organization’s admin might need to adjust settings for your group in the Admin console. Here's how: https://t.co/f86ZXHkP9m",[],"[{u'id': 219502785, u'indices': [0, 12], u'id_str': u'219502785', u'screen_name': u'craiganssle', u'name': u'Craig Ganssle'}]"
926220244850561024,2017-11-02 22:51:29,False,"@abrol_abhishek Hi Abhishek. You can skip that Qs, but we suggest going through as many steps as you can: https://t.co/58jfArmz4G. Keep us posted.",[],"[{u'id': 2647642885, u'indices': [0, 15], u'id_str': u'2647642885', u'screen_name': u'abrol_abhishek', u'name': u'Abhishek Abrol'}]"
926220092085596161,2017-11-02 22:50:52,False,"@3000crazier Hi there. Just to confirm, have you tried following these steps to regain access to the account: https://t.co/58jfArmz4G? Let us know.",[],"[{u'id': 2281005926, u'indices': [0, 12], u'id_str': u'2281005926', u'screen_name': u'3000crazier', u'name': u'Cold'}]"
926182748796076032,2017-11-02 20:22:29,True,Set your clock to Mexico's time zone and discover the traditions of #DayoftheDead! 💀 https://t.co/YxjwVZSdOH https://t.co/dgahPCkt78,"[{u'indices': [84, 97], u'text': u'DayoftheDead'}]","[{u'id': 248965136, u'indices': [3, 14], u'id_str': u'248965136', u'screen_name': u'googlearts', u'name': u'Google Arts&Culture'}]"
923601443969310720,2017-10-26 17:25:18,True,Your fave HBO shows streaming to your TV and controlled by your voice? Preeeeetttyy Good! https://t.co/IMfNgLrOtp https://t.co/AUyNsDJUE7,[],"[{u'id': 776196808909336577, u'indices': [3, 16], u'id_str': u'776196808909336577', u'screen_name': u'madebygoogle', u'name': u'Made by Google'}]"
921074571373002757,2017-10-19 18:04:25,True,The picture perfect phone with a perfect picture camera. The new Pixel 2 is in stores today. https://t.co/BZPMsmfuva https://t.co/2Yy8NV5zaV,[],"[{u'id': 776196808909336577, u'indices': [3, 16], u'id_str': u'776196808909336577', u'screen_name': u'madebygoogle', u'name': u'Made by Google'}]"
918919184616005632,2017-10-13 19:19:40,True,Don't be too scared to check out these haunted places across #GoogleEarth: https://t.co/L9Sw8EkJPq 😱 😱 😱 https://t.co/FNnf1MWMfn,"[{u'indices': [78, 90], u'text': u'GoogleEarth'}]","[{u'id': 31285982, u'indices': [3, 15], u'id_str': u'31285982', u'screen_name': u'googleearth', u'name': u'Google Earth'}]"
918580561085698048,2017-10-12 20:54:06,True,We're honored to work with @GoodwillIntl to bring digital skills &amp; career coaching to Americans with #GrowWithGoogle https://t.co/hPrdmsdMez,"[{u'indices': [120, 135], u'text': u'GrowWithGoogle'}]","[{u'id': 2499289070, u'indices': [3, 13], u'id_str': u'2499289070', u'screen_name': u'Googleorg', u'name': u'Google.org'}, {u'id': 17880546, u'indices': [42, 55], u'id_str': u'17880546', u'screen_name': u'GoodwillIntl', u'name': u'Goodwill Industries'}]"
918538745711804416,2017-10-12 18:07:57,True,Nisha Blackwell learned to sew online to start a bowtie company from her apartment. Hear her story →… https://t.co/d6vkMDtKxB,[],"[{u'id': 175102903, u'indices': [3, 18], u'id_str': u'175102903', u'screen_name': u'GoogleSmallBiz', u'name': u'Google Small Biz'}]"
918204073622454272,2017-10-11 19:58:05,True,#GirlsCount! We’ve teamed with @ONECampaign on #DayOfTheGirl to help girls around the 🌎 get education →… https://t.co/6zHqjLb285,"[{u'indices': [13, 24], u'text': u'GirlsCount'}, {u'indices': [60, 73], u'text': u'DayOfTheGirl'}]","[{u'id': 10228272, u'indices': [3, 11], u'id_str': u'10228272', u'screen_name': u'YouTube', u'name': u'YouTube'}, {u'id': 16348549, u'indices': [44, 56], u'id_str': u'16348549', u'screen_name': u'ONECampaign', u'name': u'ONE'}]"
916371514135502848,2017-10-06 18:36:08,True,Curious how we built the Pixel 2 camera? Here's a behind the scenes look with @NatAndFriends. Full video here:… https://t.co/6JtQhpeNkB,[],"[{u'id': 776196808909336577, u'indices': [3, 16], u'id_str': u'776196808909336577', u'screen_name': u'madebygoogle', u'name': u'Made by Google'}, {u'id': 3270420139, u'indices': [96, 110], u'id_str': u'3270420139', u'screen_name': u'NatAndFriends', u'name': u'Nat and Friends'}]"
915712655863685120,2017-10-04 22:58:04,True,Taking my Pixel 2 for a spin on a beautiful SF day :) #nofilter #madebyGoogle https://t.co/SpDLHC6U5x,"[{u'indices': [72, 81], u'text': u'nofilter'}, {u'indices': [82, 95], u'text': u'madebyGoogle'}]","[{u'id': 14130366, u'indices': [3, 16], u'id_str': u'14130366', u'screen_name': u'sundarpichai', u'name': u'Sundar Pichai'}]"
915646308651720704,2017-10-04 18:34:26,True,"Today we launched our new donut-sized Google Home Mini, and we built a touring donut shop to celebrate. Get a taste… https://t.co/e4AI2DVOms",[],"[{u'id': 776196808909336577, u'indices': [3, 16], u'id_str': u'776196808909336577', u'screen_name': u'madebygoogle', u'name': u'Made by Google'}]"
915638649118588929,2017-10-04 18:04:00,True,Can you spot all the new Made by Google products? Learn more at: https://t.co/VniRaA0Q4t https://t.co/CQCf5pAsLj,[],"[{u'id': 776196808909336577, u'indices': [3, 16], u'id_str': u'776196808909336577', u'screen_name': u'madebygoogle', u'name': u'Made by Google'}]"
915632490336870400,2017-10-04 17:39:31,True,"A hands-free camera that helps snap, save and share like never before. Meet Google Clips. https://t.co/8eJge82W5f",[],"[{u'id': 776196808909336577, u'indices': [3, 16], u'id_str': u'776196808909336577', u'screen_name': u'madebygoogle', u'name': u'Made by Google'}]"
915631832489648128,2017-10-04 17:36:55,True,"Great sound, big help and real-time translation. Meet Google Pixel Buds. Coming soon. https://t.co/psVUJDQSz7",[],"[{u'id': 776196808909336577, u'indices': [3, 16], u'id_str': u'776196808909336577', u'screen_name': u'madebygoogle', u'name': u'Made by Google'}]"
915622629280583680,2017-10-04 17:00:20,True,It's here! Meet the new Google Pixel 2 and Pixel 2 XL. Highest rated smartphone camera. Again. https://t.co/8w9s8Z1VGd,[],"[{u'id': 776196808909336577, u'indices': [3, 16], u'id_str': u'776196808909336577', u'screen_name': u'madebygoogle', u'name': u'Made by Google'}]"
915619943390908416,2017-10-04 16:49:40,True,"Meet Pixelbook, the first laptop with the Google Assistant, and Pixelbook Pen. https://t.co/gnWuodoqi6",[],"[{u'id': 776196808909336577, u'indices': [3, 16], u'id_str': u'776196808909336577', u'screen_name': u'madebygoogle', u'name': u'Made by Google'}]"
915614078768373760,2017-10-04 16:26:22,True,"Same help, smaller size. Introducing the new Google Home Mini. https://t.co/spyE3sS4UH",[],"[{u'id': 776196808909336577, u'indices': [3, 16], u'id_str': u'776196808909336577', u'screen_name': u'madebygoogle', u'name': u'Made by Google'}]"
913108041729400832,2017-09-27 18:28:16,True,We’re hitting the road as we visit schools around the US to bring augmented reality to the classroom #ExpeditionsAR… https://t.co/BP4KKiThGV,"[{u'indices': [115, 129], u'text': u'ExpeditionsAR'}]","[{u'id': 2878812992, u'indices': [3, 12], u'id_str': u'2878812992', u'screen_name': u'googlevr', u'name': u'Google VR'}]"
912765349572964352,2017-09-26 19:46:32,True,Our hearts are with those affected by #HurricaneMaria. We’re committing $1M to support relief &amp; recovery efforts https://t.co/o54FvP6NBh,"[{u'indices': [56, 71], u'text': u'HurricaneMaria'}]","[{u'id': 14130366, u'indices': [3, 16], u'id_str': u'14130366', u'screen_name': u'sundarpichai', u'name': u'Sundar Pichai'}]"
908335484086005760,2017-09-14 14:23:50,True,Answers are coming. October 4. https://t.co/3CQrBcwi47,[],"[{u'id': 776196808909336577, u'indices': [3, 16], u'id_str': u'776196808909336577', u'screen_name': u'madebygoogle', u'name': u'Made by Google'}]"
905820219267923968,2017-09-07 15:49:04,True,"10 years ago:
✅ Spice Girls reunion
✅ Deathly Hallows released
✅ #StreetView launched

https://t.co/CEnulD0563 cc:… https://t.co/IudlccpYyG","[{u'indices': [81, 92], u'text': u'StreetView'}]","[{u'id': 31311757, u'indices': [3, 14], u'id_str': u'31311757', u'screen_name': u'googlemaps', u'name': u'Google Maps'}, {u'id': 1344951, u'indices': [131, 137], u'id_str': u'1344951', u'screen_name': u'WIRED', u'name': u'WIRED'}]"
905465099762012160,2017-09-06 16:17:57,True,"Ready for your next vacation? Destinations, Flights, and Trips are here to help more people travel to more places.… https://t.co/NFC77NBW7F",[],"[{u'id': 44886859, u'indices': [3, 16], u'id_str': u'44886859', u'screen_name': u'GoogleTravel', u'name': u'Google Travel'}]"
903065540561735680,2017-08-31 01:22:57,True,Our thoughts are with the millions of people affected by severe flooding in South Asia. We’re committing $1M to help https://t.co/Z0mJ5aKtKy,[],"[{u'id': 14130366, u'indices': [3, 16], u'id_str': u'14130366', u'screen_name': u'sundarpichai', u'name': u'Sundar Pichai'}]"
902580993302831104,2017-08-29 17:17:32,True,"Notice anything different about us? 💁

We have several ✨new updates✨ rolling out over the next few days!… https://t.co/111WC6HQ0h",[],"[{u'id': 10228272, u'indices': [3, 11], u'id_str': u'10228272', u'screen_name': u'YouTube', u'name': u'YouTube'}]"
900812975874785280,2017-08-24 20:12:04,True,"Check out featured user submissions to #DanceTonite, an ever-changing VR collaboration by @LCDSoundsystem and fans https://t.co/fDoIz9zT85","[{u'indices': [53, 65], u'text': u'DanceTonite'}]","[{u'id': 2878812992, u'indices': [3, 12], u'id_str': u'2878812992', u'screen_name': u'googlevr', u'name': u'Google VR'}, {u'id': 6208072, u'indices': [104, 119], u'id_str': u'6208072', u'screen_name': u'lcdsoundsystem', u'name': u'lcdsoundsystem'}]"
899671130998398977,2017-08-21 16:34:47,True,Turn around bright eyes...and don't forget your solar glasses. Here's how to experience #Eclipse2017 with Google →… https://t.co/QZTZVX4BPV,"[{u'indices': [100, 112], u'text': u'Eclipse2017'}]","[{u'id': 20536157, u'indices': [3, 10], u'id_str': u'20536157', u'screen_name': u'Google', u'name': u'Google'}]"
898582945891467265,2017-08-18 16:30:43,True,"A bird? A plane? No, it’s #AndroidO, touching down to Earth for #Eclipse2017 &amp; bringing super (sweet) new powers:… https://t.co/s3SAZV4q6j","[{u'indices': [39, 48], u'text': u'AndroidO'}, {u'indices': [77, 89], u'text': u'Eclipse2017'}]","[{u'id': 382267114, u'indices': [3, 11], u'id_str': u'382267114', u'screen_name': u'Android', u'name': u'Android'}]"
895671309820088320,2017-08-10 15:40:55,True,Dropping the mic &gt; dropping the ball. Keep track of your to-dos on the go with one click in Keep 🎙️… https://t.co/IlcsJFpciJ,[],"[{u'id': 17003765, u'indices': [3, 10], u'id_str': u'17003765', u'screen_name': u'gsuite', u'name': u'G Suite'}]"
892778073052991488,2017-08-02 16:04:14,True,#IceCreamSandwichDay trivia time: Do you remember the Easter Egg for this #Android OS? https://t.co/w5ZiMqMAit,"[{u'indices': [13, 33], u'text': u'IceCreamSandwichDay'}, {u'indices': [87, 95], u'text': u'Android'}]","[{u'id': 382267114, u'indices': [3, 11], u'id_str': u'382267114', u'screen_name': u'Android', u'name': u'Android'}]"
890694111384092672,2017-07-27 22:03:19,True,Huge shoutout to all the #GoogleInterns today on #NationalInternDay! Thanks for all you do to keep Google Googley 🤗 https://t.co/xvERr5ZNXX,"[{u'indices': [45, 59], u'text': u'GoogleInterns'}, {u'indices': [69, 87], u'text': u'NationalInternDay'}]","[{u'id': 30315557, u'indices': [3, 18], u'id_str': u'30315557', u'screen_name': u'googlestudents', u'name': u'Google Students'}]"
890586986364289024,2017-07-27 14:57:38,True,This is the big leagues. @MLB ⚾️ takes fans inside the world of baseball in a new VR video series with #GoogleJump.… https://t.co/oPpVN6FYCF,"[{u'indices': [117, 128], u'text': u'GoogleJump'}]","[{u'id': 2878812992, u'indices': [3, 12], u'id_str': u'2878812992', u'screen_name': u'googlevr', u'name': u'Google VR'}, {u'id': 18479513, u'indices': [39, 43], u'id_str': u'18479513', u'screen_name': u'MLB', u'name': u'MLB'}]"
890290331148734464,2017-07-26 19:18:50,True,"In collaboration with @eji_org + @google, a new exhibition exploring the legacy of lynching in America opens today:… https://t.co/42NSme7b02",[],"[{u'id': 7614292, u'indices': [3, 18], u'id_str': u'7614292', u'screen_name': u'brooklynmuseum', u'name': u'Brooklyn Museum'}, {u'id': 613712440, u'indices': [42, 50], u'id_str': u'613712440', u'screen_name': u'eji_org', u'name': u'EJI'}, {u'id': 20536157, u'indices': [53, 60], u'id_str': u'20536157', u'screen_name': u'Google', u'name': u'Google'}]"
