id,created_at,retweet,text,hashtags,user_mentions
928840621556674560,2017-11-10 04:23:55,False,#reputation is out now. Let the games begin. https://t.co/oExj2XFGvH https://t.co/GzA6cTEwjf,"[{u'indices': [0, 11], u'text': u'reputation'}]",[]
928807310587318273,2017-11-10 02:11:33,True,RT @taylornation13: Get an exclusive first listen of ‘New Year’s Day’ at 9:29p ET tonight on @ABC and hang with us as we countdown to #repu…,[],"[{u'id': 80144576, u'indices': [3, 18], u'id_str': u'80144576', u'screen_name': u'taylornation13', u'name': u'Taylor Nation'}, {u'id': 28785486, u'indices': [93, 97], u'id_str': u'28785486', u'screen_name': u'ABC', u'name': u'ABC News'}]"
928707446759190530,2017-11-09 19:34:44,False,"Waiting for #reputation like...

https://t.co/oExj2XFGvH https://t.co/LCCRtKnQXz","[{u'indices': [12, 23], u'text': u'reputation'}]",[]
928688847701135361,2017-11-09 18:20:50,False,ABC tonight during Scandal #reputation #TGIT https://t.co/kOhx1vAXoV,"[{u'indices': [27, 38], u'text': u'reputation'}, {u'indices': [39, 44], u'text': u'TGIT'}]",[]
928448941615656961,2017-11-09 02:27:32,False,In NYC for SNL rehearsals. I️ LOVE YOU @littlebigtown and CMAs. https://t.co/3QT7bX6yOe,[],"[{u'id': 25108484, u'indices': [39, 53], u'id_str': u'25108484', u'screen_name': u'littlebigtown', u'name': u'Little Big Town'}]"
928448490321203200,2017-11-09 02:25:44,True,"RT @GMA: CMA Awards Song of the Year: ""Better Man"" - @taylorswift13 

@CountryMusic #cmaawards2017 #CMAawards https://t.co/QJlUQXHh64","[{u'indices': [84, 98], u'text': u'cmaawards2017'}, {u'indices': [99, 109], u'text': u'CMAawards'}]","[{u'id': 22650211, u'indices': [3, 7], u'id_str': u'22650211', u'screen_name': u'GMA', u'name': u'Good Morning America'}, {u'id': 17919972, u'indices': [53, 67], u'id_str': u'17919972', u'screen_name': u'taylorswift13', u'name': u'Taylor Swift'}, {u'id': 9636292, u'indices': [70, 83], u'id_str': u'9636292', u'screen_name': u'CountryMusic', u'name': u'CMA Country Music'}]"
928426425522294784,2017-11-09 00:58:03,False,"Two days until #reputation. 
https://t.co/oExj2XFGvH https://t.co/z4bk0thC5c","[{u'indices': [15, 26], u'text': u'reputation'}]",[]
928338488570863616,2017-11-08 19:08:38,False,"Three new behind-the-scenes videos available now.

Only on @AppleMusic: https://t.co/nNtHaYzZrp https://t.co/a4E6cNaD3B",[],"[{u'id': 74580436, u'indices': [59, 70], u'id_str': u'74580436', u'screen_name': u'AppleMusic', u'name': u'Apple Music'}]"
928295468341350400,2017-11-08 16:17:41,True,RT @courtneyforce: Let the games begin! Running a @taylorswift13 FunnyCar w/ @AdvanceAuto &amp; @BigMachine at @NHRA Finals! Taylors #reputatio…,[],"[{u'id': 29814453, u'indices': [3, 17], u'id_str': u'29814453', u'screen_name': u'courtneyforce', u'name': u'Courtney Force'}, {u'id': 17919972, u'indices': [50, 64], u'id_str': u'17919972', u'screen_name': u'taylorswift13', u'name': u'Taylor Swift'}, {u'id': 76762658, u'indices': [77, 89], u'id_str': u'76762658', u'screen_name': u'AdvanceAuto', u'name': u'Advance Auto Parts'}, {u'id': 18919110, u'indices': [96, 107], u'id_str': u'18919110', u'screen_name': u'BigMachine', u'name': u'BigMachine'}, {u'id': 21682561, u'indices': [111, 116], u'id_str': u'21682561', u'screen_name': u'NHRA', u'name': u'#NHRA'}]"
928276956315045894,2017-11-08 15:04:07,False,Forgot to show the back of the Target magazines 😂 on Friday you can get your hands on this quality reading material. https://t.co/fPhRA1Ocvf https://t.co/w8q9R752vR,[],[]
928104179926749185,2017-11-08 03:37:34,False,"3 days until #reputation. 

https://t.co/oExj2XFGvH https://t.co/sjr8hMqPxV","[{u'indices': [13, 24], u'text': u'reputation'}]",[]
927988470059905025,2017-11-07 19:57:47,False,"Two unique magazines. Poetry, paintings, lyrics &amp; polaroids.
Available Friday: https://t.co/fPhRA1wB6F https://t.co/frFIILyrqa",[],[]
927894296983932928,2017-11-07 13:43:34,False,Inside the reputation Secret Sessions - https://t.co/aotQtPBzer,[],[]
926418754069843968,2017-11-03 12:00:17,False,The #CallItWhatYouWant lyric video is out now! Watch it here: https://t.co/FKYJ3dADib,"[{u'indices': [4, 22], u'text': u'CallItWhatYouWant'}]",[]
926304551069736960,2017-11-03 04:26:29,False,"“Call It What You Want” available now. @applemusic
Pre-order #reputation: https://t.co/oExj2XFGvH https://t.co/EWxoTpSzIT","[{u'indices': [61, 72], u'text': u'reputation'}]","[{u'id': 74580436, u'indices': [39, 50], u'id_str': u'74580436', u'screen_name': u'AppleMusic', u'name': u'Apple Music'}]"
926063770853625856,2017-11-02 12:29:43,False,Call It What You Want. Midnight Eastern. https://t.co/nTmlQUzmFN,[],[]
925744163060150274,2017-11-01 15:19:42,True,"RT @ATT: ⏰ The Making of a Song premieres 11/13 on @DIRECTVNOW, only from AT&amp;T! https://t.co/emXplX8gjo #TaylorSwiftNOW https://t.co/VIXXYd…","[{u'indices': [108, 123], u'text': u'TaylorSwiftNOW'}]","[{u'id': 14620190, u'indices': [3, 7], u'id_str': u'14620190', u'screen_name': u'ATT', u'name': u'AT&T'}, {u'id': 752919901203894272, u'indices': [51, 62], u'id_str': u'752919901203894272', u'screen_name': u'directvnow', u'name': u'DIRECTV NOW'}]"
923762079382884353,2017-10-27 04:03:37,False,#ReadyForItMusicVideo https://t.co/HYBhBqNVo3,"[{u'indices': [0, 21], u'text': u'ReadyForItMusicVideo'}]",[]
914863569031827456,2017-10-02 14:44:06,False,There are no words to express the helplessness and sorrow my broken heart feels for the victims in Vegas and their families.,[],[]
913774451862450182,2017-09-29 14:36:21,False,https://t.co/EIXRjnE9Gw,[],[]
911331955773464576,2017-09-22 20:50:44,True,"RT @RollingStone: All 115 of Taylor Swift's songs, ranked https://t.co/mdD4f04rQ8 https://t.co/Bm317v6fib",[],"[{u'id': 14780915, u'indices': [3, 16], u'id_str': u'14780915', u'screen_name': u'RollingStone', u'name': u'Rolling Stone'}]"
911331426926198784,2017-09-22 20:48:38,True,RT @TheEllenShow: #LookWhatYouMadeMeDo @TaylorSwift13 https://t.co/8rUDDtwbdH,"[{u'indices': [18, 38], u'text': u'LookWhatYouMadeMeDo'}]","[{u'id': 15846407, u'indices': [3, 16], u'id_str': u'15846407', u'screen_name': u'TheEllenShow', u'name': u'Ellen DeGeneres'}, {u'id': 17919972, u'indices': [39, 53], u'id_str': u'17919972', u'screen_name': u'taylorswift13', u'name': u'Taylor Swift'}]"
911330863769628672,2017-09-22 20:46:24,False,😍😍😍 https://t.co/oIAruxj8ZH,[],[]
905811133210210310,2017-09-07 15:12:57,False,😃☎️ @ATT https://t.co/I6mCnlan8g https://t.co/mjjELwz7L8,[],"[{u'id': 14620190, u'indices': [4, 8], u'id_str': u'14620190', u'screen_name': u'ATT', u'name': u'AT&T'}]"
905810889693159425,2017-09-07 15:11:59,False,Some real tough questions I had for Olivia. https://t.co/VeLIN3iYRY,[],[]
905810715570835456,2017-09-07 15:11:18,False,Such a taxing day when they're like 'eat some cookie dough' and you're like 'ok I'll make this sacrifice for my art' https://t.co/0D8LfJA49q https://t.co/Yia4NqDjYR,[],[]
904314458079727620,2017-09-03 12:05:42,False,A second glance into #reputation...ready for it? https://t.co/e495xJi3M8 https://t.co/HF35pISj2N,"[{u'indices': [21, 32], u'text': u'reputation'}]",[]
901998494214434818,2017-08-28 02:42:53,False,The #LWYMMDvideo is out now - https://t.co/6ajIH45CnX,"[{u'indices': [4, 16], u'text': u'LWYMMDvideo'}]",[]
901050847043497984,2017-08-25 11:57:17,False,"Official #LWYMMDvideo world premiere. 
Sunday 8/27 at the @vmas https://t.co/tjAxr8qdsY","[{u'indices': [9, 21], u'text': u'LWYMMDvideo'}]","[{u'id': 739836760948117504, u'indices': [58, 63], u'id_str': u'739836760948117504', u'screen_name': u'vmas', u'name': u'Video Music Awards'}]"
900923703424413696,2017-08-25 03:32:03,False,"New single #LookWhatYouMadeMeDo out now. Pre-order #reputation: https://t.co/oExj2XFGvH 

Merch &amp; ticket info at https://t.co/AbDQqnCntC https://t.co/Tcni9yIgs2","[{u'indices': [11, 31], u'text': u'LookWhatYouMadeMeDo'}, {u'indices': [51, 62], u'text': u'reputation'}]",[]
900399489126629377,2017-08-23 16:49:01,False,https://t.co/xMBBukfZPs,[],[]
900357555289034752,2017-08-23 14:02:23,False,https://t.co/xqhhDZ0y7c,[],[]
900010249163112450,2017-08-22 15:02:19,False,https://t.co/12Rfi8bso4,[],[]
899647503859032065,2017-08-21 15:00:54,False,https://t.co/p2DyY0e2M3,[],[]
